osm:613899453;osm:1187213507;14.4156510265793
osm:2723597836;osm:241004532;105.787995925416
osm:241004459;osm:241004448;48.1293711042203
osm:247919568;osm:290550416;39.628357112146
osm:247901120;osm:2090587441;10.7340483997695
osm:247921762;osm:2267235284;567.971465353441
osm:2288713285;osm:247873914;102.011882543715
osm:241898565;osm:241898572;119.081137038457
osm:241898513;osm:241898519;119.85983754255
osm:790668146;osm:241895636;59.7270068461761
osm:247901103;osm:673771373;129.606549394596
osm:2311672744;osm:2311672746;9.11613469280913
osm:196301742;osm:206176537;153.755335178505
osm:241002951;osm:241003039;7.23529475462365
osm:196312610;osm:196313556;112.310737563966
osm:196312836;osm:196313569;120.267118596815
osm:421674222;osm:613968205;64.0150820843322
osm:2090586708;osm:245221901;92.3990313414212
osm:243459630;osm:2979370033;115.192658475665
osm:196313487;osm:793142427;68.5903999242988
osm:247874146;osm:247874147;7.89939142156132
osm:196301742;osm:2933621501;11.086039540257
osm:241898519;osm:790592003;114.903302294283
osm:241898496;osm:2597749626;19.5803556381174
osm:2921968601;osm:2921959404;117.438750366892
osm:790662065;osm:790662103;39.1264647597954
osm:196312912;osm:196313841;124.949349169607
osm:252418148;osm:256238219;155.108349157092
osm:247917671;osm:2845227202;38.6135226481927
osm:247901104;osm:247901105;55.4193601116899
osm:2090586712;osm:2847376401;58.9572268795882
osm:247884495;osm:241898445;120.123989453411
osm:241898394;osm:241898393;120.445141030911
usig:445;usig:435;122.40564454604
osm:673771375;osm:2090586820;59.7430396998759
osm:2090587448;osm:247901131;8.34274138915486
osm:2607403053;osm:247879334;27.8369986463305
osm:247874136;osm:247873861;10.5952344858802
osm:247874126;osm:247874127;13.2757011055924
osm:241045375;osm:196301770;119.446471271903
osm:245222072;osm:245776374;28.3303819562462
osm:89585863;osm:247884495;22.9477945511126
osm:256238276;osm:256238252;145.263882659111
osm:32385604;osm:2912187001;40.9743495577231
osm:247894616;osm:247894621;155.792072631489
osm:196313399;usig:13378;108.94310943471
osm:249456835;osm:196313672;52.1886424007842
osm:256241742;osm:256238279;152.021628260755
osm:2847376401;osm:421674222;18.3082566501363
osm:247901156;osm:247901157;7.50320613214168
osm:2321436265;osm:2288713271;6.53896457067114
osm:206178157;osm:180279228;123.348682591797
osm:241898491;osm:241898612;100.929541677102
osm:196301872;osm:180279226;121.631829207739
osm:245222010;osm:291839566;49.0137819004312
osm:196301679;osm:196301760;124.349915530533
osm:2288713718;osm:245221994;83.8956268804562
osm:247901112;osm:247901116;43.3700396221533
osm:245222058;osm:245222117;122.949526134578
osm:196312887;osm:241898496;126.100186390887
osm:245221928;osm:2772863036;33.7554827149621
osm:256238215;osm:252418149;213.940148232162
osm:243459671;osm:243459657;122.832459139861
osm:247901249;osm:2090586945;13.3476958261023
osm:247901026;osm:247901030;9.9171372602208
osm:247873830;osm:247873914;67.554176019061
osm:196301424;osm:243459697;176.424947286387
osm:2090587440;osm:247901262;87.385115686057
osm:2090587442;osm:247901151;10.9282314792377
osm:241898660;osm:2919630903;100.343316802157
osm:206175764;osm:241895675;128.795994681445
osm:241898524;osm:241898565;113.58402950926
osm:256238217;osm:256238216;154.624426310053
osm:247901166;osm:247901175;34.0660621303063
osm:2288713274;osm:247874136;15.4587111425055
osm:245222102;osm:166596682;125.68922844195
osm:196313672;usig:13388;111.983064771633
osm:247873919;osm:2288713270;11.9281065820903
osm:245221973;osm:247917671;32.8242593309841
osm:247888087;osm:247888092;36.7503078685203
osm:241003062;osm:241003049;59.6080292358084
osm:2857404064;osm:196301827;16.4859301247016
osm:2088088817;osm:2088088818;126.987772309704
osm:247901121;osm:247901123;11.1817315746641
osm:247901140;osm:247900867;36.1726513637002
osm:2845227401;osm:2840955404;26.5141214611104
osm:673774727;osm:247901165;31.3312944064253
osm:2915244001;osm:196312868;50.8154186535871
osm:247894636;osm:247873874;47.8086162474563
osm:1577477515;osm:1678926692;12.7524109839658
osm:196313841;osm:196313680;114.271025554109
osm:247898636;osm:673771374;137.143587683011
osm:32382083;osm:2150338072;33.4401107278496
osm:89286422;osm:97957463;135.209180939594
osm:2090586847;osm:247888041;17.7801209918471
osm:241898427;osm:241898474;121.529389750283
osm:1058785054;osm:247919547;11.8766875069139
osm:421674222;osm:2847376401;18.3082566501363
osm:196301407;osm:89286414;113.076333611313
osm:767495872;osm:32376979;178.219339677957
osm:245221916;osm:2090586705;14.5479432985815
osm:1577477516;osm:196301545;30.2003268529593
osm:613968209;osm:613968205;130.759721315289
osm:245222123;osm:245222065;124.525559473401
osm:241895628;osm:790668164;58.2126950802146
osm:243459637;osm:243459635;131.397770923481
osm:2328495896;osm:2894556336;60.3175972207014
osm:2915244002;osm:2088088817;37.452022714118
osm:247884489;osm:2088088821;43.4373347263882
osm:249456835;osm:249456836;134.944398262562
osm:196313951;osm:196313933;120.955797303505
osm:241004507;osm:241004503;99.0332796050613
osm:166598672;osm:2311672744;52.3732666989988
osm:2090586706;osm:247873872;19.9245209109997
osm:256238195;osm:256238193;147.028954703382
osm:241898565;osm:247879331;34.4825289602967
osm:89579437;osm:206175797;121.042208324015
osm:241003139;osm:241003146;35.7671962325182
osm:196301566;osm:206176537;122.064634755882
osm:256238231;osm:256238233;153.412363858422
osm:247901141;osm:2088088781;38.5729302566966
usig:431;usig:13388;122.795735129801
osm:247917667;osm:247917669;12.7636153562398
osm:2354397458;osm:241895636;89.6608965535182
osm:241898474;osm:241898480;119.777934502953
osm:1678926684;osm:1678926695;10.1371467013053
osm:243459641;osm:243459639;125.247751018378
osm:247917666;osm:1006208592;20.1295620979898
osm:196301699;osm:241045375;50.0779344321693
osm:241898775;osm:241898741;125.401178615928
osm:2288713290;osm:767517639;70.7579077867946
osm:245221901;osm:245221837;128.291224894361
osm:2090586734;osm:247888028;32.1391933739407
osm:2980313033;osm:2919630901;10.6186108397406
osm:245222110;osm:245222102;118.946580901835
osm:611922058;osm:613968196;111.401610330874
osm:32382608;osm:2150467451;49.6734467142563
osm:241898619;osm:241898536;116.380239450596
osm:2354397458;osm:790592009;10.8058286873943
osm:2090586701;osm:247873830;43.8938596506083
osm:241895629;osm:241952451;111.905842339541
osm:243459657;osm:243459655;116.752824230754
osm:166596683;osm:241895651;106.553511677791
osm:180275562;osm:247877435;127.090955339971
osm:206176518;osm:196313442;165.788591574974
osm:247873909;osm:247873910;11.7383416581042
osm:247917673;osm:291839566;126.290876467851
osm:247884484;osm:2088088818;33.9695652892939
osm:673771373;osm:2090586914;111.138886288852
osm:2090586730;osm:247888022;21.6729735037938
usig:464;osm:196313655;115.507019761215
osm:241898949;osm:315063379;62.1046941594082
osm:2496903080;osm:241898913;90.1011129684357
osm:256238233;osm:256238235;153.180912272867
osm:247879328;osm:89585863;121.054445735795
osm:247901250;osm:2090586902;11.3237521937345
osm:2150467433;osm:32382610;156.031093633971
osm:613968198;osm:613968202;20.806373366733
osm:2843188727;osm:245221868;58.3136330005045
osm:241898395;osm:241898394;118.62788841718
osm:2088088816;osm:2915244002;72.0961015155741
osm:245221830;osm:245221797;118.511850472898
osm:241898693;osm:241898690;120.302305516281
osm:252417470;osm:256238390;145.986133850566
osm:2088088793;osm:769417570;42.7895903145538
osm:2090587451;osm:247901133;9.42874075395358
osm:166596678;osm:1038868213;7.67182068041383
osm:256238279;osm:256238278;152.302657088729
osm:245221994;osm:245221988;121.301410113942
osm:247900933;osm:247900936;23.9983681048086
osm:2151733416;osm:1038868172;23.3998629343381
osm:256238215;osm:256238214;84.2929735449336
osm:241898637;osm:241898601;125.314114359432
usig:449;usig:13388;122.569600596234
osm:196313442;osm:2796464869;86.2823489894415
osm:245221856;osm:2912207801;101.097505293684
osm:252205621;osm:252205654;158.680942111866
osm:196301343;osm:2840955404;63.6530401589347
osm:86992774;osm:241898949;122.2412218315
osm:196313933;osm:196313916;121.475315011637
osm:1997760481;osm:245221981;7.61851535197515
osm:243459661;osm:243459651;120.543457723761
osm:245221981;osm:249456833;90.7770577285835
osm:241898913;osm:241898894;120.665343468814
osm:196301699;osm:2996960933;30.8368696396914
osm:1058785000;osm:247919549;16.341770694257
osm:196318392;osm:247917664;59.0076891800005
osm:166596678;osm:166596679;125.380920741966
osm:2151733422;osm:1038868185;26.0981032354612
osm:196301295;osm:196301231;161.68367775201
osm:247919548;osm:1058784996;9.87041269961358
osm:2090586945;osm:247901250;11.857983559054
osm:241002951;osm:241002955;15.6203323162069
osm:241004544;osm:1006208568;59.4391297588305
osm:247873819;osm:247873832;11.212700452058
osm:245222130;osm:166596678;201.101320439374
osm:252417469;osm:252417470;154.950760895599
osm:249456839;osm:196312610;39.5703380741585
osm:241898606;osm:241898439;76.9146404508534
osm:241898589;osm:241898583;119.60218636007
usig:432;usig:453;121.088182308425
osm:247874132;osm:2288713278;15.4875705646538
osm:1058785000;osm:247919564;14.0244764739246
osm:245221844;osm:2597749320;20.423316211843
osm:241898711;osm:2496903080;34.980152840698
osm:247918121;osm:247918115;79.0355711333032
osm:2422725628;osm:241895626;137.767981488099
osm:1997760518;osm:1997760502;24.3540438323473
osm:247901210;osm:247901211;10.08248756809
osm:906026244;osm:177417862;17.2025909448745
osm:2288713713;osm:2288713711;5.91580450768985
osm:790662113;osm:790662074;38.0604520758441
osm:2088088803;osm:196313415;25.928166977911
osm:613968209;osm:2809271044;24.2266106422367
osm:256238252;osm:256238239;140.06918132146
osm:247873918;osm:247873919;19.7188353015416
osm:224099093;osm:1006208659;63.4366862925732
osm:196301566;osm:196301530;184.644914552389
osm:224099093;osm:1006208634;22.0233898620378
osm:247873820;osm:247873821;5.50183676041031
osm:2288713263;osm:247873906;9.04742624156613
osm:2838736502;osm:2838736501;12.8434315974656
osm:2288713269;osm:767495872;51.6929667488144
osm:241003073;osm:32382084;30.1263582428388
osm:245221777;osm:2912187001;77.9387130838794
osm:790662093;osm:256238276;77.2463124239714
osm:241898809;osm:241898766;112.743320536205
osm:247888121;osm:247898617;71.4611241886916
osm:245221789;osm:2953475735;101.470309098475
osm:196301453;osm:196301566;123.083116311753
osm:241898877;osm:241898826;122.447494091548
osm:2090587399;osm:247900926;44.8966112591002
osm:2150338013;osm:1006208631;17.1619202888831
osm:2288713282;osm:247873862;16.4904038146453
osm:2483151051;osm:247874126;17.2228855072637
osm:241898572;osm:241898666;123.619980074314
osm:790592010;osm:790591984;120.309711073461
osm:247888080;osm:247888087;56.08904018355
osm:421674224;osm:2809271044;6.45349491655274
osm:166596679;osm:166596680;119.923435554142
osm:247900940;osm:247900944;14.0667394569163
osm:249455080;osm:2288713254;8.45561373314789
osm:2090586710;osm:2090586711;37.297695859652
osm:2921959404;osm:247919553;15.4751867420632
osm:2288713715;osm:2288713713;7.19499211798912
osm:2919631501;osm:241898642;14.8890447614599
osm:2150338070;osm:2150338071;100.019021980881
osm:245221805;osm:245221824;124.262371614068
osm:196313442;osm:769417570;63.0671888830597
osm:2354397455;osm:2090587457;50.033986551018
osm:241898619;osm:241898625;119.850029666564
osm:247900926;osm:247900929;49.0915914936732
osm:245221805;osm:245221797;126.2891891196
osm:245221953;osm:245221844;119.624647419479
osm:245222018;osm:245221999;97.4475899578496
osm:247901024;osm:247901026;12.5603873153774
osm:1678926672;osm:1678926684;60.6972318336914
osm:196313680;osm:196312686;111.606260424069
osm:247884475;osm:247884489;24.1761294574368
osm:196313916;osm:196312941;148.723250172913
osm:245221958;osm:245221953;124.478098385408
osm:247901148;osm:247901149;18.1531066904176
osm:256238244;osm:256238245;156.338717729734
osm:613969747;osm:196318392;70.3308577656493
osm:613968205;osm:613968207;114.336053512177
osm:2996953334;osm:196301530;70.3683897922025
osm:241895835;osm:247879336;225.429313175265
osm:247901153;osm:2090587449;13.8599832089233
osm:241003117;osm:2150467430;39.6707148546162
osm:249456836;osm:249456835;134.944398262562
osm:196312868;osm:196312887;122.832311692988
osm:769417573;osm:2088088797;11.2291359444547
osm:241895636;osm:241895628;122.09456226461
osm:241898908;osm:241898949;100.730328295092
osm:2924096501;osm:2996966733;15.1265224317037
osm:196301629;osm:2840955203;27.6573253512099
osm:2088088818;osm:247884489;115.156897625459
osm:256238250;osm:256241739;151.61261395133
osm:421730984;osm:421730999;202.389492771138
osm:243459690;osm:243459692;117.539699341492
osm:247901118;osm:247901119;31.198382999048
osm:241003095;osm:241003080;135.977910826068
osm:196313680;osm:196313841;114.271025554109
osm:1058785037;osm:1058785035;10.1623297468759
osm:247879331;osm:247879329;114.253896878557
osm:243459639;osm:243459637;119.516835393353
osm:247917670;osm:2288713715;14.3991601847422
osm:247888251;osm:247897376;285.177274157131
osm:241003080;osm:32382085;173.241084592408
osm:247879332;osm:241898572;33.8088577069919
osm:613968202;osm:613968196;135.96644997214
osm:196313841;usig:431;121.511965290706
osm:613969747;osm:421674222;106.300841671827
osm:247917668;osm:1058785027;595.160860371138
osm:196313680;usig:13388;121.163205637474
osm:247888028;osm:247888035;27.1386351049004
osm:421730999;osm:613968204;144.636534306999
osm:767500312;osm:767494786;100.63558726471
osm:241004490;osm:241004485;90.4075024496206
osm:241898536;osm:241895826;123.47501628363
osm:247879334;osm:790592005;121.632578153228
osm:196301555;osm:196301435;126.479443269031
osm:206176537;osm:196301861;123.991149353935
osm:247901143;osm:247901144;7.62714835462697
osm:2894556336;osm:29375392;49.2430619927169
osm:247879332;osm:247879331;120.318730854967
osm:821348437;osm:2090586732;45.1559486984347
osm:241898937;osm:241898864;121.70507777504
osm:241002955;osm:241002951;15.6203323162069
osm:241898949;osm:241898850;126.03029895778
osm:421731001;osm:421730925;128.425351764891
osm:196301742;osm:2838736501;36.4399712274315
osm:196301699;osm:2861191201;19.3487182057681
osm:2151718692;osm:2151718697;33.7403653841833
osm:32385604;osm:673395663;47.7956363328501
osm:196313655;osm:196313639;119.744094123461
osm:2090587323;osm:247901143;8.35412504671927
osm:241898382;osm:247884484;30.5384528323748
osm:790662095;osm:790662072;93.7320862783728
osm:783004904;osm:2483151050;21.7894926128216
osm:2090587077;osm:247901141;31.8478397786558
osm:252205621;osm:252205602;86.3177633292398
osm:247898635;osm:252205602;180.188772371507
osm:247873873;osm:673693892;68.5732965585106
osm:252417529;osm:2976574533;37.8070177500357
osm:2090587456;osm:247894625;73.3772576672228
osm:247873917;osm:247873918;14.8952895956227
osm:2088088789;osm:247879336;71.7378451292364
osm:29375392;osm:2919631001;38.6264326433294
osm:245221988;osm:291838593;54.8596697802516
osm:241898666;osm:766953225;58.0879606134673
usig:431;usig:432;122.299999736036
osm:247901142;osm:247901141;17.5962024998097
osm:196301915;osm:196301803;109.761948747198
osm:1577477517;osm:1577477516;9.69751946291668
osm:256238243;osm:256238244;152.208462692223
osm:247873914;osm:2288713313;54.167862459329
osm:613899456;osm:613899453;76.3779070134416
osm:241898931;osm:241898925;119.976885621429
osm:245226155;osm:2088088825;32.3977543256705
osm:245776437;osm:2151718775;23.3310382876143
osm:769417570;osm:196313442;63.0671888830597
osm:421674222;osm:613969747;106.300841671827
osm:247873865;osm:2288713288;13.0416659484574
osm:241898666;osm:247879334;32.5636808689071
osm:241898894;osm:241898837;121.547308463929
osm:196312912;usig:13378;121.854184078044
osm:196313995;osm:196313487;122.607660079571
osm:247873910;osm:247873911;16.0381030900108
osm:247873916;osm:247873917;14.3422771334338
osm:241004494;osm:241004498;139.392341455214
osm:613968205;osm:613968209;130.759721315289
osm:1006208659;osm:245221805;60.7457238687255
osm:2090587179;osm:247901054;5.26054293008696
osm:245228307;osm:86992774;124.908174485131
osm:1058784994;osm:247919553;10.0046207505609
osm:241002959;osm:241002955;33.2017909135666
osm:241898560;osm:241898578;121.049807589699
osm:790662095;osm:2614275316;91.02014031927
osm:1997760532;osm:196312686;8.41788007222301
osm:245776376;osm:245222025;29.4089861529223
osm:673395666;osm:2840955402;6.98307430897727
osm:249455092;osm:2288713281;4.84269952577907
osm:249456837;osm:245221988;63.1700304391549
osm:245221844;osm:245221953;119.624647419479
osm:247888150;osm:247888170;194.162985025534
osm:2288713264;osm:247874128;10.3612068167453
osm:247873850;osm:247873834;16.948680533323
osm:243459649;osm:243459637;121.561198686251
osm:196313507;osm:196313625;103.744558658589
osm:2090587454;osm:247901266;74.6458099045394
osm:252205654;osm:252205668;121.859432426423
osm:2288713711;osm:247917667;6.48168254008897
osm:247901213;osm:247901243;59.5569612968997
osm:2840955403;osm:2840955202;16.5032741009053
osm:2088088791;osm:2088088793;15.4504803773955
osm:790668146;osm:790668164;120.612753832159
osm:196313520;osm:196313507;121.373825640277
osm:769417570;osm:89585860;53.7390030263507
osm:790662103;osm:790662093;62.5824348206779
osm:196301383;osm:243459705;51.256730458451
osm:196318392;osm:613969747;70.3308577656493
osm:247918115;osm:247918114;44.5021004047003
osm:2088088778;osm:247901255;10.2768350951747
osm:2328495917;osm:2090586732;13.2547989419156
osm:241895649;osm:241895629;115.252386075839
osm:2090586715;osm:613968196;186.750389694552
osm:2614275316;osm:2090587234;22.241068591668
osm:455448192;osm:196301217;80.8756945554926
osm:241898943;osm:241898403;122.472682209182
osm:2088088825;osm:2088088828;38.3865821051872
osm:245222010;osm:613899458;59.1272780904332
osm:1577477533;osm:1577477532;43.2034661251306
osm:1187213507;osm:245221999;13.24318816579
osm:97957463;osm:97957443;140.688297692026
osm:196313442;osm:241898666;45.711751871044
osm:89585866;osm:206175748;186.02720030438
osm:2483151050;osm:2483151051;7.31733316740665
osm:241895843;osm:241895842;175.067786238297
osm:2088088820;osm:2088088819;22.6156431386939
osm:196313415;osm:196313964;154.177335865776
osm:196301662;osm:2929279001;52.2262216423423
osm:2843188728;osm:245221934;77.0765258051631
osm:2090586709;osm:2288713290;66.1006480937391
osm:97957445;osm:89286423;152.451027203942
osm:245222058;osm:245222065;122.303317350466
osm:196301939;osm:1678926655;10.5191052145408
osm:241004448;osm:673395153;30.8987165113479
osm:245222117;osm:245222110;120.414599056631
osm:2857404066;osm:196301847;13.086583664157
osm:256238252;osm:252417529;168.304190161662
osm:245222117;osm:166596680;162.23383320364
osm:613968193;osm:613968204;78.8451327349966
osm:245221994;osm:613899457;63.5281678537763
osm:790668159;osm:790668147;117.996731771393
osm:2090587439;osm:180276170;134.151521633831
osm:196313507;osm:247884475;153.114830090133
osm:2288713726;osm:2288713727;6.23065130102996
osm:166598669;osm:2151733416;8.3098737211997
osm:241898502;osm:241898480;119.173166014771
osm:825311694;osm:256238251;78.4115303542521
osm:247901177;osm:247901204;35.8491281618895
osm:247873863;osm:2288713282;17.1235299785969
osm:245226150;osm:196312796;149.803029529367
osm:196313672;osm:196313670;120.248093970666
osm:1678926662;osm:1678926645;69.4698607147326
osm:241898548;osm:241898589;121.85604190385
osm:790668164;osm:790668146;120.612753832159
osm:243459633;osm:243459630;125.224378566502
osm:196301861;osm:196301847;123.578978251766
osm:243459649;osm:243459647;121.214503722912
osm:2090586904;osm:2316640956;72.0810025463764
osm:247894624;osm:2090587456;65.0406537012662
osm:2090586721;osm:2090586723;25.6138468726702
osm:196313978;osm:206176535;121.873033048761
osm:2912207801;osm:245221844;16.3815745633144
osm:243459635;osm:247919548;91.5375781810843
osm:89585865;osm:2311672746;58.4555166599666
osm:2288713730;osm:89204747;19.2730656260373
osm:2288713301;osm:245221928;36.5960431889524
osm:256238238;osm:252417629;204.985949560265
osm:611922058;osm:613968191;79.1605717496695
osm:241898766;osm:241898754;128.140966677204
osm:241875227;osm:2796663270;59.545613332401
osm:247901204;osm:247901205;62.2948974389512
osm:247919564;osm:290550418;93.5447790903654
osm:89286188;osm:1229516612;27.3369228440519
osm:613899461;osm:247917671;17.9284561928551
osm:2151742063;osm:245776375;24.8811940852397
osm:1006208631;osm:241003139;186.30426228597
osm:247894634;osm:247894635;41.4852345262206
osm:247917673;osm:2845227202;56.8015825362483
osm:247884484;osm:247884493;141.337887511061
osm:241895636;osm:790668146;59.7270068461761
osm:247917666;osm:245221830;134.862473222304
osm:767517639;osm:247873915;44.1411410232366
osm:2090570647;osm:2090570459;62.9850421366757
osm:247901139;osm:247901140;19.0716017385994
osm:2267235284;osm:247921762;567.971465353441
osm:196312898;osm:290550414;119.519362429809
osm:247874144;osm:2288713262;46.7783318419744
osm:245221789;osm:224099093;110.685782354561
osm:247919568;osm:290550415;52.2494232563107
osm:245221824;osm:245221817;77.3667905957875
osm:247873817;osm:247873818;13.4496222081787
osm:166596676;osm:2921968601;8.39440599101375
osm:245221856;osm:245221849;53.986933831819
osm:196301827;osm:196301803;138.407443992198
osm:247888041;osm:247888048;48.7247353286176
osm:196301545;osm:196301555;120.78754692386
osm:241004498;osm:241004494;139.392341455214
usig:464;usig:449;121.254052544395
osm:290550416;osm:247919568;39.628357112146
osm:2328495881;osm:613968193;7.6920642035395
osm:247874125;osm:245221928;159.321961648356
osm:32382084;osm:241003095;51.6750094363478
osm:825311686;osm:989490762;51.4256484847993
osm:247919556;osm:1058785054;12.9049086028985
osm:2288713326;osm:2090586709;92.6222417885848
osm:613968196;osm:611922058;111.401610330874
osm:245221881;osm:672958702;166.574245642528
osm:247921762;osm:247921764;224.705611540498
osm:247888009;osm:2090586729;21.7452677528703
osm:256238252;osm:256238267;155.95062953109
osm:89585860;osm:2090587447;54.5114764202041
osm:245221999;osm:206178157;47.5007293730453
osm:245221805;osm:245221813;35.6723529585584
osm:2088088817;osm:247884493;84.6870114103717
osm:206176524;osm:196313933;119.840086332176
usig:13378;osm:196313399;108.94310943471
osm:245221874;osm:245221837;123.097682419812
osm:32376978;osm:2090587014;201.269213317969
osm:989490762;osm:252417469;23.1711449163609
osm:2912187001;osm:245221777;77.9387130838794
osm:166598670;osm:166598672;117.151873917456
osm:2151718775;osm:980003725;21.4730886337726
osm:2328495896;osm:821348432;3.42723917742035
osm:2288713270;osm:247873920;10.8466696095367
osm:196313670;usig:449;111.745979826909
osm:206176537;osm:196301901;123.229953398082
osm:2316640956;osm:613968191;51.2933523666497
osm:206176527;osm:245226177;120.285069461992
osm:196313951;osm:196313978;115.883937631526
osm:2840955403;osm:196301591;70.7261155873169
osm:241004503;osm:241004498;101.782685509837
osm:241898814;osm:241898775;120.265431408676
osm:247901030;osm:2088088785;9.40658433321161
osm:196313487;osm:196313459;131.989841825234
osm:2316640956;osm:2090586904;72.0810025463764
osm:2090587459;osm:790591981;9.7766316397073
osm:613899457;osm:247918114;97.693734254945
osm:2726182498;usig:435;115.299457092167
osm:241003029;osm:241003034;28.0623418570255
osm:243459688;osm:243459690;119.642535550447
osm:247897377;osm:247888253;340.062253589605
osm:241003146;osm:32382612;28.3197178229479
osm:196301939;osm:1678926645;5.65936786855261
usig:13378;usig:431;123.322730545946
osm:247901274;osm:247901265;41.1575028974136
osm:2090586701;osm:2090586703;52.0128931008636
osm:245221994;osm:291838597;55.2098247037411
osm:245226169;osm:196312796;117.655456309099
osm:247919556;osm:247919553;126.485173839093
osm:245221784;osm:1006208585;62.771542879556
osm:2433252059;osm:2433252058;5.27179880871261
osm:290550408;osm:421674224;11.2396880782133
osm:2088088797;osm:769417570;11.8833644388422
osm:247919564;osm:1058785000;14.0244764739246
osm:196301424;osm:196301545;128.929163838671
osm:1678926668;osm:1678926662;11.1304919036842
osm:1058785017;osm:1058785037;580.001018113704
osm:245221824;osm:245221830;128.705501187503
usig:431;usig:13378;123.322730545946
osm:241898542;osm:241898619;121.312084418253
osm:245222025;osm:241898908;28.3869180262428
osm:247901102;osm:247901095;69.5031021328492
osm:196301629;osm:2267235284;20.9743911455775
osm:241898403;osm:241898409;177.590244515378
osm:247901211;osm:247901212;10.6393221397075
osm:421730925;osm:421730965;145.642013777814
osm:241898394;osm:245222043;119.610840034201
osm:196313459;osm:196313487;131.989841825234
osm:1075949159;osm:613899462;4.87003735029295
osm:247901095;osm:247901079;21.6517549079838
osm:241898548;osm:241898542;118.523489129846
osm:196313399;osm:196313951;124.170578371292
osm:241898397;osm:241898395;128.370261030718
osm:89585850;osm:89585866;127.993880827361
osm:247900884;osm:247900867;41.4617138266417
osm:247900908;osm:673775701;62.0352792037486
osm:821348437;osm:2090586725;2.86031800763207
osm:196313585;osm:196313569;124.095653428501
osm:247901107;osm:247901112;97.3312904045278
osm:767517639;osm:2288713269;47.2093889382306
osm:2088088811;osm:2915231501;65.255374135271
osm:613899456;osm:247918115;30.9267577605975
osm:2422725628;osm:2422725629;172.875608273819
osm:1006208634;osm:224099093;22.0233898620378
osm:247874135;osm:2288713272;10.4328025262776
osm:2288713256;osm:247873819;9.55704212132887
osm:241003053;osm:241003058;39.8530485279524
osm:196301309;osm:196301295;120.913853468862
osm:245221948;osm:245221965;18.9852847663195
osm:247900937;osm:247900939;15.8568468845354
osm:196313978;osm:196313429;118.890751160005
osm:793142427;osm:196313487;68.5903999242988
osm:2151735233;osm:1038868179;22.9199638795849
osm:613968195;osm:613968193;23.4008833148538
osm:2090587205;osm:2088088787;9.53175103741999
osm:2150338071;osm:241003073;29.9118975035339
osm:196313429;osm:196313459;122.290483618326
osm:245222072;osm:245228307;120.300376521845
osm:241004532;osm:241004544;107.048796319321
osm:2151726478;osm:86992774;23.216627447102
osm:241898388;osm:2088088817;21.7985483086175
osm:247879329;osm:247879328;122.681876980141
osm:291839566;osm:180279228;100.336749459644
osm:673771451;osm:32375709;131.08787577333
osm:247873827;osm:247873828;19.6905335861164
osm:241003039;osm:241002951;7.23529475462365
osm:673395663;osm:32385604;47.7956363328501
osm:1577477534;osm:2461097945;51.3321862406274
osm:196312796;osm:206176527;119.302382876862
osm:247894628;osm:247894629;31.5476658817752
osm:256238276;osm:29375392;151.36717948947
osm:247901251;osm:247901252;14.2258973803072
osm:247901270;osm:247901205;61.9136800880548
osm:1678926645;osm:196301915;131.915045599629
osm:790592005;osm:241898660;104.477850968257
osm:256238236;osm:256238237;154.58118461589
osm:241898654;osm:241898583;121.792941659651
osm:247919548;osm:290550417;36.5215574731066
osm:337410347;osm:252205621;119.174428344704
osm:2150467448;osm:32382609;74.5106395124875
osm:166596679;osm:245222123;181.326961805337
osm:247919549;osm:1058785000;16.341770694257
osm:247873875;osm:247874144;113.874179388262
osm:245226150;osm:247884475;112.301771235455
osm:247901175;osm:247901177;102.290978916751
osm:241895835;osm:790591984;64.1232931268814
osm:247874068;osm:2288713268;12.5329127054511
osm:247900910;osm:673771379;169.190998119705
osm:2922745102;osm:290550408;62.2334733065135
osm:2150467431;osm:241003117;48.0666871354625
osm:2919630903;osm:241898654;19.0013064786278
osm:790662093;osm:790662088;41.691387933316
osm:241898583;osm:241898578;121.089933373747
osm:1678926658;osm:1678926668;57.2616691417567
osm:196313995;osm:247877435;75.9148473141764
osm:252417472;osm:790662103;18.5376228413753
osm:191913153;osm:180277955;138.413264725475
osm:245222065;osm:241952444;119.479432959678
osm:247901105;osm:247901107;135.294068090067
osm:2354397456;osm:247894622;68.7482349442021
osm:247901158;osm:247901159;11.3995719541631
osm:2151726479;osm:245228307;76.2678922077956
osm:2433252053;osm:196313442;20.1398519980546
osm:256238238;osm:256238215;75.6819567839465
osm:247917671;osm:247917670;14.5335742327657
osm:2088088815;osm:2088088816;121.634581256825
osm:247900908;osm:247900907;65.0796583408698
osm:2809271049;osm:245221789;17.2814065552192
osm:2840955202;osm:2840955203;13.065126278034
osm:245222093;osm:166596684;86.9231291511177
osm:2857404065;osm:243459635;12.7462743967012
osm:247888055;osm:2608988769;77.9388869858148
osm:290550414;osm:196313680;57.0253843589113
osm:196312898;osm:245221789;130.902812337369
osm:241898870;osm:241898931;118.90839855815
osm:290550417;osm:290550416;62.1027798756049
usig:411;usig:445;121.00425074142
osm:247901079;osm:247901074;32.3453994386182
osm:245222038;osm:245222043;117.117085397331
osm:196313604;osm:196313520;101.094941927281
osm:180277957;osm:196301407;122.06385645788
osm:196301545;osm:196301889;121.112522682093
osm:252205602;osm:247898635;180.188772371507
osm:245221973;osm:1058785038;11.2468879647713
osm:2088088781;osm:247901142;42.2656164203466
osm:196301861;osm:196301591;124.16424038949
osm:2614275316;osm:790662095;91.02014031927
osm:241898925;osm:241898877;120.493811077725
osm:247900867;osm:2088088789;25.6671339559091
osm:180276169;osm:243459671;120.022832086285
osm:1038868194;osm:2088088828;15.0769915103333
osm:196301453;osm:196301435;119.500893872788
osm:247873828;osm:247873829;43.3012568625604
osm:1678926683;osm:1678926672;13.2650302904809
osm:241952422;osm:241898858;122.309950156891
osm:2288713266;osm:2288713261;31.8045176825998
osm:241898388;osm:2915244001;57.7721302073342
osm:241898595;osm:241898589;119.986602101765
osm:241004469;osm:241004478;70.577588635758
osm:2088088828;osm:166598673;23.545886933107
osm:247901157;osm:247901158;10.704881084741
osm:196301958;osm:196301939;124.173709464522
osm:241898606;osm:241898612;118.059529242691
osm:247919561;osm:245226162;15.0231852902674
osm:247884475;osm:196312828;102.920817742637
osm:241898554;osm:241898513;119.210420812707
osm:241898931;osm:241898491;123.360688255063
osm:196301383;osm:196301396;119.898730192077
osm:2090570453;osm:2090570450;27.7208851757412
osm:29375392;osm:2894556336;49.2430619927169
osm:241898445;osm:241898524;124.892065027266
osm:2090586707;osm:2090586706;22.4648407964632
osm:241895675;osm:241895829;115.265874649284
osm:790592007;osm:2090587459;12.0555882339085
osm:196312912;osm:245221784;113.736168797357
osm:613899458;osm:291839566;32.8368022063094
osm:247901247;osm:247901248;8.07697930311477
osm:245221958;osm:245221965;121.63945719861
osm:241952444;osm:241898397;113.494154320625
osm:196312591;osm:243459663;117.639515557492
osm:245222032;osm:245222038;125.37785560828
osm:247919561;osm:247919556;130.751437982697
osm:2090587460;osm:790592012;17.2143302207032
osm:245221965;osm:245221948;18.9852847663195
osm:245221805;osm:1006208659;60.7457238687255
osm:206176529;osm:196312610;128.672761485462
osm:245221837;osm:245221874;123.097682419812
osm:196312686;osm:196313672;119.636807828326
osm:2915231502;osm:196312941;65.5846472150902
osm:2151735245;osm:166598670;7.42104261748814
osm:247884489;osm:245222083;16.3128423940316
osm:247901021;osm:247901024;67.4066026382572
osm:245221861;osm:245221874;33.3966108297987
osm:245221784;osm:196312912;113.736168797357
osm:2088088825;osm:166596678;133.033576946565
osm:166596680;osm:166596681;122.713078652901
osm:2151726480;osm:2151726479;13.5667760096724
osm:2921963703;osm:247919546;15.7341560818399
osm:790592012;osm:2090587458;14.4966472124991
osm:2090587234;osm:247901142;26.5056095761805
osm:89286414;osm:196301309;123.311410972412
osm:790662072;osm:337410347;167.124159694472
osm:245221784;osm:791842722;48.1770485184122
osm:1997760518;osm:196312686;11.3258248622052
osm:196312610;osm:249456839;39.5703380741585
osm:247900910;osm:2090587455;60.7542262267233
osm:245221813;osm:245221805;35.6723529585584
osm:247901271;osm:247901272;40.0139844120063
osm:1038868179;osm:166596679;8.36965587855838
osm:613899453;osm:613899455;33.5453268205831
osm:196313841;osm:196312898;86.8936348196363
osm:1006208585;osm:245221797;62.3368546552647
osm:241898578;osm:790592000;104.52787755941
osm:196313415;osm:2433252059;88.0974485045895
osm:206176535;osm:206176515;118.165921233242
osm:256238283;osm:256238282;153.289388335508
osm:247888002;osm:247888009;22.8203655548476
osm:247918115;osm:249456837;61.2626600845247
osm:247901260;osm:2354397451;72.8153519260859
osm:247901159;osm:673774726;77.7805369506145
osm:673395666;osm:2843188727;20.68689644496
osm:196301578;osm:32385179;128.858247374804
osm:247901131;osm:2090587451;9.04048940423995
osm:2354397451;osm:247901261;22.6701244733506
osm:241898421;osm:241898415;118.312751940608
osm:196301842;osm:180279226;123.338010281853
osm:256241739;osm:825311694;77.5310743927042
osm:241898786;osm:241898736;123.222797750843
osm:245221973;osm:1075949159;9.13292972277484
osm:224201335;osm:247897229;62.121268914394
osm:196301847;osm:196301842;122.063448367809
osm:247901212;osm:247901213;10.6124296936393
osm:2288713273;osm:247873909;10.9512515781912
osm:252417472;osm:252530074;52.0505371755175
osm:252531572;osm:2916509814;33.3173703808042
osm:247901252;osm:247901253;10.1946832957206
osm:243459645;osm:243459628;128.724962702013
osm:243459697;osm:1577477521;120.860009104557
osm:196313556;osm:224099110;99.4995852059993
usig:453;usig:464;122.834161681719
osm:980003725;osm:2151718753;47.7630190193167
osm:673774747;osm:247901260;158.160582935877
osm:790662074;osm:790662113;38.0604520758441
osm:2919630901;osm:2980313033;10.6186108397406
osm:2996966733;osm:2924096501;15.1265224317037
osm:2809271049;osm:290637123;5.76747652608603
osm:241002959;osm:673395153;50.5633272132369
osm:2597749626;osm:241898496;19.5803556381174
osm:247918114;osm:247918115;44.5021004047003
osm:32385179;osm:2422725628;23.161725625062
osm:613968196;osm:2090586715;186.750389694552
osm:196312686;osm:196313680;111.606260424069
osm:241004494;osm:241004490;194.117456241664
osm:191931815;osm:191913133;139.24691879319
osm:196301788;osm:196301842;136.659277699746
osm:245221844;osm:2912207801;16.3815745633144
osm:790662074;osm:790662095;162.64559251896
osm:2090587453;osm:247901155;10.8924213027786
osm:2321436266;osm:2288713271;8.31987245937847
osm:2922835601;osm:2288713301;64.2562874168318
osm:206176527;osm:206176529;123.962999114695
osm:196312887;osm:2088088815;21.4855185347873
osm:2088088791;osm:89585860;21.4489828622861
osm:245221909;osm:245221916;56.9290999356463
osm:247901152;osm:247901153;16.7557862673347
osm:247901155;osm:247901156;12.686542478567
osm:247874128;osm:247874129;16.1992927473541
osm:2288713261;osm:2288713255;17.5349886447492
osm:256238246;osm:256238248;155.467001831785
osm:247873816;osm:247873817;18.9601724331926
osm:2090586820;osm:2090586731;77.5140977964615
osm:196301733;osm:1006208612;7.35650796300899
osm:241898780;osm:241898820;120.420000086108
osm:2921963702;osm:1058785006;5.19809913524515
osm:1577477532;osm:1577477529;48.1177209060836
osm:241898678;osm:241898672;95.7287908849481
osm:247901149;osm:247901150;13.9903132523273
osm:247901133;osm:2090587452;7.68062044033771
osm:2607403123;osm:2597749320;80.6617178616043
osm:241898858;osm:241898943;123.893056123414
osm:2924096502;osm:196301343;73.3228503831851
osm:790668147;osm:241898421;61.2830631392476
usig:435;osm:2726182498;115.299457092167
osm:245221953;osm:245221958;124.478098385408
osm:2845227202;osm:247917673;56.8015825362483
osm:247901150;osm:2090587442;18.7456886236718
osm:2838736502;osm:196301530;76.2920569907359
osm:2919630901;osm:2980312933;11.4582738764116
osm:241898654;osm:241898649;120.024143866069
osm:2597749626;osm:2726182498;15.1107609829863
osm:247873833;osm:245221928;20.2976794892059
osm:2929279001;osm:196301629;87.6003785463919
osm:2288713268;osm:247874078;10.5264997646496
osm:245221824;osm:247917664;121.296538091026
osm:1817010572;osm:2090587439;19.4502770366309
osm:821348432;osm:2090586725;11.2663011964001
osm:2933621501;osm:196301742;11.086039540257
osm:247873864;osm:2288713286;14.8157421792103
osm:2088088785;osm:2090587043;10.9597872055858
osm:247894623;osm:247894624;65.8113328103686
osm:245221981;osm:1997760487;7.65967513004481
osm:241895651;osm:245222093;128.624783566391
osm:247888121;osm:247888127;67.4252965993851
osm:2088088828;osm:2427486522;10.1406275957872
usig:453;usig:454;122.502646756649
osm:2980313033;osm:2919631001;21.2497486303431
osm:256238193;osm:256238146;136.131965848973
osm:247884495;osm:2088088816;127.763721268988
osm:196313399;osm:196313429;120.584066716736
osm:247898634;osm:247898635;21.7199504303063
osm:196301248;osm:196301309;160.834545406802
osm:245221934;osm:2843188728;77.0765258051631
osm:2090586713;osm:673693904;147.863031239847
osm:247901256;osm:673774747;91.1680879443686
osm:243459663;osm:243459661;123.901090193674
osm:243459732;osm:196301383;164.833240698685
osm:196301872;osm:196301827;124.247523040584
osm:2288713721;osm:2288713723;7.69690500357556
osm:245221881;osm:245221837;163.746615167438
osm:166598668;osm:2151733422;8.77981120543823
osm:790592010;osm:241895628;54.1967492836267
osm:613899462;osm:2288713718;11.9408279316136
osm:196301629;osm:2929279001;87.6003785463919
osm:241898642;osm:241898637;118.325949034929
osm:166596676;osm:245226155;36.3603353123352
osm:196301803;osm:196301788;120.866808726323
osm:245221909;osm:2922745102;45.2903011332186
osm:206176515;osm:206176524;121.947833838736
osm:247873872;osm:2090586702;25.6494544420208
osm:97957443;osm:97957460;135.203355019635
osm:89585863;osm:245222139;126.712441952124
osm:790591981;osm:790592010;107.735076892755
osm:2088088819;osm:247884484;63.473297396496
osm:241003125;osm:32382082;101.867155824264
osm:196318384;osm:613969747;31.6840184437348
osm:247900907;osm:247900904;102.820219135653
osm:2090587458;osm:2354397455;53.4385149338702
osm:196301295;osm:196301277;121.831091851472
osm:249456833;osm:196312686;11.5149250407942
osm:166598670;osm:2151735247;18.7379837116356
osm:1577477532;osm:243459681;114.873377918779
osm:245221988;osm:245221981;21.2877075212423
osm:247874131;osm:247874132;11.4252061851583
osm:166596682;osm:166596683;121.208911880962
osm:196313487;osm:196313995;122.607660079571
osm:241898415;osm:241895840;128.911880030234
osm:2090587355;osm:247898636;74.3101623398951
osm:1678926692;osm:1678926683;57.6103986212882
osm:2090586705;osm:245221922;15.3468179434149
osm:247897376;osm:247900910;185.110080841493
osm:1229516612;osm:906026244;30.2750508705447
osm:247901255;osm:247901256;10.9198865689304
osm:256238146;osm:256238136;131.927045721493
osm:249456836;osm:1997760529;43.2149412459516
osm:247873862;osm:2288713274;17.2857474492944
osm:247900936;osm:247900937;33.3639119008731
osm:2288713276;osm:249455084;27.310153533781
osm:224073902;osm:2150338013;158.554458516921
osm:247888035;osm:2090586847;19.9697772934027
osm:247874078;osm:247874099;13.0273961494359
osm:243459681;osm:243459649;86.5301552599297
osm:247900899;osm:2090587443;18.0254210841627
osm:247901154;osm:2090587453;11.8659489063465
osm:247917673;osm:196301731;100.599954916668
osm:241898919;osm:241898913;122.837361058682
osm:247873818;osm:2288713256;12.7789792131292
osm:196301788;osm:180277958;124.562537736301
osm:247901146;osm:247901147;19.9389681612338
osm:247879331;osm:790591988;110.864369501934
osm:2915231501;osm:2088088813;49.1395742445302
osm:1058785041;osm:613899456;17.8193321935621
osm:2861191201;osm:196301699;19.3487182057681
osm:291838597;osm:245221958;56.0441589761207
osm:245226162;osm:245226177;123.819136859805
osm:241898468;osm:790668147;60.2632903527488
osm:247901054;osm:2090587205;7.74873987211369
osm:245221934;osm:245221941;117.356968315415
osm:241895627;osm:1038868194;125.508905822816
usig:445;usig:453;123.539204598205
osm:2311672746;osm:241895627;63.0652485442749
osm:673395153;osm:241002959;50.5633272132369
osm:613968191;osm:2316640956;51.2933523666497
osm:2288713719;osm:613899457;103.430843126927
osm:790591979;osm:790592002;120.100655744085
osm:247873811;osm:2288713285;77.2603253665942
osm:196301374;osm:2845227401;27.8508738895967
osm:247900988;osm:247901000;14.6320763142338
osm:247873911;osm:247873912;17.9802344097108
osm:243459635;osm:243459633;123.92577974291
osm:2288713261;osm:2288713266;31.8045176825998
osm:166596681;osm:245222110;145.402644800825
osm:247901246;osm:247901267;26.4118938800582
osm:2847376401;osm:2090586712;58.9572268795882
osm:196312836;osm:249456836;71.9421868827742
osm:2840955203;osm:196301629;27.6573253512099
osm:247917664;osm:247917665;106.410833636237
osm:2980312933;osm:2919630901;11.4582738764116
osm:1997760481;osm:1997760490;26.8017732677471
osm:241004469;osm:241004459;61.2862267659958
osm:256238237;osm:256238238;154.808122352565
osm:613968207;osm:613968205;114.336053512177
osm:1006208592;osm:196318384;38.5363369798647
osm:249456836;osm:196312836;71.9421868827742
osm:247901137;osm:247901138;11.2038843459941
osm:206175748;osm:206175751;117.031710114171
osm:243459645;osm:243459641;121.987563360152
osm:2090587234;osm:2614275316;22.241068591668
osm:2929278901;osm:196301374;29.2968300456851
osm:89286188;osm:2924096502;18.4031360892505
osm:2953475735;osm:245221789;101.470309098475
osm:290637123;osm:2809271049;5.76747652608603
osm:241004485;osm:241004490;90.4075024496206
osm:224099093;osm:245221784;118.936407627927
osm:247901151;osm:247901152;14.2890082946321
osm:247884493;osm:245222139;28.1540901079478
osm:196301530;osm:2838736502;76.2920569907359
osm:245222083;osm:247884489;16.3128423940316
osm:1187213507;osm:613899453;14.4156510265793
osm:2088088803;osm:2088088811;124.265410999095
osm:241898451;osm:241898468;119.018625613935
osm:241003110;osm:241003125;77.5099311066621
osm:1997760502;osm:1997760518;24.3540438323473
osm:2090587443;osm:247900895;9.41489577549664
osm:241004490;osm:241004494;194.117456241664
osm:290550415;osm:247919568;52.2494232563107
osm:247917671;osm:245221973;32.8242593309841
osm:206176518;osm:206176520;123.044170084796
osm:613968202;osm:613968198;20.806373366733
osm:247873853;osm:247873852;19.3383054327634
osm:2919631001;osm:29375392;38.6264326433294
osm:247901144;osm:247901145;15.8730250013106
osm:32382610;osm:2150467431;47.1394382224691
osm:241898572;osm:2088088803;50.2851137197251
usig:435;osm:196313916;115.886989516131
osm:245221868;osm:245221874;150.633191926924
osm:245221817;osm:245221824;77.3667905957875
osm:256241743;osm:256238283;153.036359477602
usig:411;usig:13378;122.039009242129
osm:89585869;osm:89585850;170.366426877028
osm:247894627;osm:247894628;49.3109186662112
osm:245221981;osm:1997760481;7.61851535197515
osm:673395153;osm:241004448;30.8987165113479
osm:196301827;osm:196301939;115.486915932433
osm:256238267;osm:252417472;150.134783084
osm:2843188728;osm:2843188729;16.4787943271478
osm:1229516649;osm:89286188;21.6810755174083
osm:1997760490;osm:1997760481;26.8017732677471
osm:2090586729;osm:247888015;20.4155832497491
osm:196312610;osm:247919564;47.1831485591534
osm:241003049;osm:2150467433;68.1467182295782
osm:245221824;osm:245221805;124.262371614068
osm:2288713266;osm:249455084;30.4953449199472
osm:2090586718;osm:2090586721;55.8470655480356
osm:252418714;osm:256238276;58.64621924334
osm:421730961;osm:421730884;141.539184264472
usig:13388;osm:196313680;121.163205637474
osm:790591979;osm:247879332;61.3237810593346
osm:29375392;osm:421730999;228.362606455881
osm:241898403;osm:241898439;119.48571766189
osm:315063379;osm:241898943;60.6225131040903
osm:2090586732;osm:821348437;45.1559486984347
osm:790592000;osm:247879332;120.564162779861
osm:247888099;osm:247888121;18.3391378734736
osm:613968205;osm:421674222;64.0150820843322
osm:613899458;osm:2288713724;108.024629184425
osm:2090586731;osm:767500312;52.5982458443037
osm:180279226;osm:196301861;120.305690309641
osm:206176529;osm:196313538;107.99543994949
osm:241895636;osm:790592007;26.4136917938856
osm:2288713272;osm:247874136;15.0576519663063
osm:247917669;osm:245221973;15.504643859319
usig:475;usig:464;122.510677177352
osm:256238281;osm:256241742;154.961956811277
osm:247888136;osm:247888141;19.6274858250007
osm:256238239;osm:256238240;155.067505505082
osm:241895626;osm:241895625;174.84353969476
osm:247901165;osm:247901166;46.8184069090485
osm:196313604;osm:196313585;120.680258956945
usig:13388;usig:431;122.795735129801
osm:196301939;osm:1678926658;13.7271222076226
osm:247901135;osm:247901137;82.0445966947106
osm:247901262;osm:247901265;79.3426880643413
osm:196313569;osm:196312836;120.267118596815
osm:180280564;osm:245221953;120.923250815732
osm:241898507;osm:241898513;119.859907498828
osm:247877435;osm:2090570446;85.1199932802038
osm:2607403123;osm:245221777;31.0543656239268
osm:196301760;osm:196301679;124.349915530533
osm:247901261;osm:2090587440;37.4714891165398
osm:2996953334;osm:2929278901;28.0434379487516
osm:1577477515;osm:243459683;113.127489822362
osm:32382082;osm:241003053;315.45412969536
osm:2288713313;osm:673771451;43.0254800960985
osm:196313569;osm:196313556;106.508973507993
osm:256238245;osm:256238246;153.212676445407
osm:2090586712;osm:2090586715;109.663081155908
osm:1577477521;osm:1577477520;9.27630342309495
osm:196301803;osm:196301760;112.250703407072
osm:241898554;osm:241898548;120.61077316595
osm:247898631;osm:247898632;13.957661297338
osm:2090586751;osm:247894636;25.5478920970447
osm:247901246;osm:247901247;18.6689719941144
osm:247901000;osm:2090586903;10.246140143391
osm:249456839;osm:249456840;69.3801309172537
osm:2150338072;osm:2150338070;29.9016365073189
osm:2723597836;osm:241004507;14.7834629586805
osm:2796464869;osm:2088088803;35.0299902667565
osm:247894625;osm:247894627;42.1168799183924
osm:1577477531;osm:243459688;119.246229422061
osm:1577477519;osm:1577477517;83.9781058548697
osm:291838597;osm:245221994;55.2098247037411
osm:196301770;osm:196301760;123.607883355103
osm:2090586709;osm:2090586707;52.7946689073563
osm:2090586903;osm:247901005;11.1273513722156
osm:241898395;osm:241898415;119.919985251339
osm:241004459;osm:241004469;61.2862267659958
osm:247919549;osm:247919568;29.4664619150547
osm:196313951;osm:196313399;124.170578371292
osm:247874134;osm:247874135;15.7739556916899
osm:241004478;osm:241004469;70.577588635758
osm:196301374;osm:196301489;97.5879962044653
osm:180276170;osm:180275562;120.688457604602
osm:2090586715;osm:2090586712;109.663081155908
osm:2288713301;osm:2922835601;64.2562874168318
osm:613968191;osm:611922058;79.1605717496695
osm:2090587455;osm:247900908;50.0198410075187
osm:2090586732;osm:2328495917;13.2547989419156
osm:247888141;osm:247888150;320.779229534733
osm:241004503;osm:241004507;99.0332796050613
osm:613899457;osm:1058785012;17.3997313416402
osm:196301396;osm:180277957;119.19712739938
osm:241898397;osm:245222058;120.199905641506
osm:196301231;osm:2288713730;158.014175212713
osm:2090586725;osm:821348432;11.2663011964001
osm:673774714;osm:247894631;73.5941723020642
osm:196313670;osm:196313655;120.874340250568
osm:89286423;osm:97957470;152.673645117794
osm:243459675;osm:1678926695;9.75667413850108
usig:411;osm:196313951;116.009288493994
osm:2090570446;osm:1006208620;106.81250096012
osm:247917664;osm:245221824;121.296538091026
osm:241898513;osm:241898468;120.464258338503
osm:247919546;osm:1058784994;14.3910127778775
osm:241898649;osm:790668146;58.6676784035433
osm:247888048;osm:247888055;26.32992569855
osm:247873920;osm:247874068;12.5798798134925
osm:290550416;osm:247919549;47.8947177500059
osm:196313933;usig:445;116.149880965964
osm:245221922;osm:2090586708;19.056420822241
osm:421730965;osm:421731003;139.453483671998
osm:247898633;osm:247898634;19.5636147663042
osm:247901248;osm:247901249;9.51235853636507
osm:245221941;osm:245221934;117.356968315415
osm:790662072;osm:790662095;93.7320862783728
osm:252531692;osm:790662071;88.9946668724158
osm:256238282;osm:256238281;155.306318995826
osm:256238248;osm:256238249;151.936465688859
osm:247918114;osm:613899456;53.990567820843
osm:241003132;osm:1781544559;370.396928036676
osm:243459651;osm:243459649;122.598432887371
osm:247901142;osm:247900867;165.569750922673
osm:243459641;osm:243459630;126.210105316704
osm:1038868185;osm:2151733422;26.0981032354612
osm:2090587452;osm:247901134;7.79354468699086
osm:245221844;osm:290637123;101.576380612005
usig:449;usig:432;122.799849465957
osm:206176535;osm:196313995;130.137872177454
osm:256238214;osm:256238195;121.721636428392
osm:2090587457;osm:247894625;114.993281700034
osm:245776374;osm:2151742063;26.4548996947849
osm:247888253;osm:247888234;512.516821948252
osm:2150467427;osm:32382608;44.3130995935586
osm:790662065;osm:790662088;29.6762143137423
osm:2090587296;osm:2090587355;55.1405105303306
osm:196313569;osm:249456835;70.3474417811632
osm:241898468;osm:241898474;121.166678328885
osm:245222032;osm:245222093;120.374008052183
osm:2840955402;osm:673395666;6.98307430897727
osm:672958702;osm:245221881;166.574245642528
osm:247877436;osm:2090587437;32.6823223816129
osm:1006208620;osm:196318384;78.388276222567
osm:256238241;osm:256238242;155.564601729018
osm:1006208585;osm:245221784;62.771542879556
osm:247901123;osm:2090587445;11.0039180585386
osm:2288713725;osm:2288713726;5.30160264032601
osm:247901116;osm:247901118;21.689907582961
osm:2288713723;osm:2288713725;5.59211685926138
osm:180277955;osm:196301248;175.462111663506
osm:2554672306;osm:241898625;124.137294476432
osm:196301555;osm:196301566;122.431859367849
osm:245222110;osm:245222050;123.406293431185
osm:245221999;osm:245222006;63.0607606097813
osm:421730999;osm:421730984;202.389492771138
osm:224099110;osm:196313556;99.4995852059993
osm:245222043;osm:245222050;116.619933718802
osm:2894556336;osm:2328495896;60.3175972207014
osm:247888015;osm:2090586730;24.5798966554116
usig:13388;osm:196313672;111.983064771633
osm:241895840;osm:241898397;117.842525501072
osm:2919631001;osm:2980313033;21.2497486303431
osm:2288713258;osm:224073885;69.7622226727676
osm:247873861;osm:247873860;20.4704558502003
osm:241898820;osm:241898870;124.34094647206
osm:247900914;osm:2090587399;147.131507589289
osm:245221830;osm:196313459;125.274249357263
osm:247884489;osm:2088088820;39.145764025036
osm:1577477519;osm:196301733;117.21172145081
osm:2088088823;osm:2915256501;87.1376271361906
osm:247901145;osm:247901146;21.7036741793141
osm:243459637;osm:243459683;89.5345475561051
osm:243459683;osm:1577477515;113.127489822362
osm:1058785027;osm:247917667;9.14507976327885
osm:206176513;osm:206176515;126.139288449901
osm:2912187001;osm:32385604;40.9743495577231
osm:180277958;osm:241045375;112.747298622898
osm:790668147;osm:790668159;117.996731771393
osm:241898595;osm:241898542;122.062049352398
osm:196301842;osm:2857404064;104.060400799649
osm:196313538;osm:196313520;123.190737688036
osm:256238390;osm:256241743;153.451350043651
osm:2922745102;osm:245221909;45.2903011332186
osm:1058785006;osm:2921963703;112.146148048437
osm:2840955203;osm:2840955202;13.065126278034
osm:243459683;osm:243459681;126.107568315776
osm:247919546;osm:247919547;127.226796464893
osm:1006208631;osm:1006208636;129.546767022915
osm:290637123;osm:245221844;101.576380612005
osm:2090587447;osm:247877436;44.1330385073887
osm:196313429;osm:245221797;126.316050017498
osm:1577477535;osm:1577477531;92.0139322037983
osm:243459681;osm:243459683;126.107568315776
osm:2975805933;osm:241898797;13.3258049852858
osm:245226155;osm:245226150;111.549665874944
osm:2845227401;osm:196301374;27.8508738895967
osm:166596682;osm:1038868185;10.1839425340453
osm:790591988;osm:790592003;117.023998789037
osm:256238276;osm:252418714;58.64621924334
osm:245222025;osm:2151726480;17.3714109659371
osm:2088088813;osm:2088088815;127.947371486368
osm:245221941;osm:245221958;114.465335662621
osm:243459681;osm:1577477532;114.873377918779
osm:2090586878;osm:247901008;10.7530624931391
osm:2772863036;osm:2090586708;18.115497854171
osm:241898491;osm:241898536;119.612068857657
usig:13378;osm:196312912;121.854184078044
osm:2809271044;osm:421674224;6.45349491655274
osm:249455092;osm:2288713276;9.50931788584674
osm:421730999;osm:421730946;153.586651427016
osm:245221856;osm:245221874;122.50803103795
osm:206175779;osm:89574424;128.471724821527
osm:2090587148;osm:2090587077;8.76928142101733
osm:245222050;osm:241898395;117.363426024392
osm:2151733422;osm:166598668;8.77981120543823
osm:256238242;osm:256238243;151.183415590115
osm:247873874;osm:247873873;139.496318645011
osm:196313538;osm:196313585;106.111475228918
osm:89574426;osm:89585865;111.74387153703
osm:245222123;osm:245222117;120.621812929538
osm:256238136;osm:256238062;142.643128648044
osm:2090586715;osm:2090586718;64.0050636658125
osm:2088088818;osm:196312828;23.6294185786641
osm:2976574533;osm:252417529;37.8070177500357
osm:241898439;osm:241898491;127.112312322131
osm:180279226;osm:196301901;125.066263394889
osm:421674224;osm:290550408;11.2396880782133
osm:247901138;osm:247901139;11.6401233504172
osm:247901103;osm:247901102;66.1266426905621
osm:247884493;osm:247884495;127.676255553174
osm:245222006;osm:1058785041;12.4263025593544
osm:241898393;osm:241898427;119.052956618287
osm:2090586703;osm:2090586710;114.03473436928
osm:247917664;osm:196318392;59.0076891800005
osm:245221965;osm:180280564;125.29299353382
osm:247874129;osm:247874130;11.0311169661707
osm:196301435;osm:196301396;122.230198589725
osm:196301277;osm:243459701;148.234325039147
osm:241898642;osm:241898595;120.816719869931
usig:454;osm:196312887;150.63812838755
osm:252530074;osm:252417472;52.0505371755175
osm:241898519;osm:241898560;119.456080241776
osm:611922058;osm:613968204;132.047648523967
osm:196313625;osm:196313604;120.313149654706
osm:2150467451;osm:241003067;45.9654769521344
osm:241898409;osm:241898392;120.791789067511
osm:196313655;osm:196313604;120.34928063042
usig:475;usig:454;122.864183816876
osm:196313964;osm:206176524;122.61127446933
osm:2847300602;osm:196301591;23.8580200683032
osm:1577477518;osm:1577477516;9.12308672116427
osm:247877436;osm:247879326;83.2524988750188
osm:2090586722;osm:247887995;33.4247139144706
osm:247901142;osm:2090587234;26.5056095761805
osm:196301901;osm:196301555;120.479798128237
osm:241895826;osm:241898711;124.961779509551
osm:1229516612;osm:89286414;142.271803268553
osm:2088088787;osm:2090587148;9.63523962016081
osm:673774726;osm:673774727;160.970837394295
osm:241004485;osm:241004478;105.649709997308
osm:421730946;osm:421731001;145.649509329431
osm:673395663;osm:245221868;69.6201201970325
osm:790662072;osm:252205602;84.710345064818
osm:166598673;osm:2921963702;6.25316533584374
osm:673771379;osm:247898637;144.127559213648
osm:249456840;osm:249456839;69.3801309172537
osm:206176539;osm:241875227;79.703384264099
osm:2151718697;osm:245776437;31.6393285260349
osm:247873813;osm:1006208625;16.7703406951499
osm:241898943;osm:241898937;120.220165200054
osm:247888092;osm:2354397452;18.9129966184845
osm:247901074;osm:247901066;48.025534291844
osm:790592002;osm:790592000;61.3066959883058
osm:241895824;osm:241895649;116.815351383354
osm:247874133;osm:247874134;17.1270139016139
osm:790668146;osm:241898649;58.6676784035433
osm:1678926655;osm:243459675;140.643912587355
osm:196301915;osm:196301650;46.3216152213393
osm:2090587445;osm:247901127;15.0042516448673
osm:1006208625;osm:2321436266;3.50507335587459
osm:241003067;osm:2150467448;56.7972120122221
osm:247900904;osm:247900899;37.064242653478
osm:613968204;osm:613968202;111.101404960607
osm:166598669;osm:166598670;124.749828429288
osm:196313556;osm:196312610;112.310737563966
osm:241898625;osm:241898595;120.738996586643
osm:2288713254;osm:2288713255;6.96907611663716
osm:2088088795;osm:2088088793;16.3818093766236
osm:247888068;osm:247888080;74.327028007187
osm:241898496;osm:2088088813;23.6860452380848
osm:224073885;osm:241003132;84.6657388575346
osm:89585865;osm:166598672;19.3403129831618
osm:2861191201;osm:2886240701;15.2137784190089
osm:241898864;osm:241898814;123.159785180068
osm:2090586702;osm:247873853;18.5659924990752
osm:196301530;osm:2996953334;70.3683897922025
osm:790592005;osm:790592002;60.0662277848339
osm:241898393;osm:241898392;122.382273489772
osm:241895829;osm:241895824;88.5257693509778
osm:2088088781;osm:2328495917;55.7419671417936
osm:196313585;osm:196313670;122.08370113942
osm:2433252056;osm:2433252053;5.66311295975422
osm:673775701;osm:247900914;64.3126674381309
osm:249455084;osm:2288713266;30.4953449199472
osm:247879326;osm:247901141;85.2536230928876
osm:241004532;osm:2723597836;105.787995925416
osm:337410347;osm:790662074;89.9369316892585
osm:290550414;osm:196312898;119.519362429809
osm:241898925;osm:241898919;122.698413646257
osm:2090586901;osm:2090586878;8.87612050072356
osm:2088088811;osm:241898565;70.4697212629851
osm:247900939;osm:247900940;10.9307560252707
osm:2354397452;osm:247888099;20.6214387708545
osm:2980312933;osm:2621690452;10.9776364953375
osm:245226177;osm:247919556;53.0117362289358
osm:2979370033;osm:32385179;20.6964455263588
osm:241898421;osm:241898394;119.777216228596
osm:291838593;osm:291838597;121.81442521229
osm:247873834;osm:247873833;26.9414585539583
osm:241898502;osm:241898507;121.351625054078
osm:256238267;osm:256238252;155.95062953109
osm:245226162;osm:206176529;120.113163934725
osm:243459630;osm:247919546;54.4625982703031
osm:196301578;osm:243459641;132.766476707863
osm:245221928;osm:2288713301;36.5960431889524
osm:247879329;osm:241898524;36.5140062576762
osm:196313639;osm:241898388;156.148273584667
osm:180279228;osm:196301770;113.479837973775
osm:241004448;osm:241004459;48.1293711042203
osm:1006208568;osm:241004544;59.4391297588305
osm:245221837;osm:245221881;163.746615167438
osm:2929279001;osm:196301662;52.2262216423423
osm:247919547;osm:247919548;133.073118139851
osm:2150467430;osm:241003103;41.2998016505212
osm:241898612;osm:241898619;122.364487419286
osm:2321436266;osm:247873816;17.7295721404623
osm:256238219;osm:256238218;152.957799035019
osm:245221881;osm:2840955402;39.2946051017292
osm:241895842;osm:241895841;131.566629213416
osm:245221789;osm:196312898;130.902812337369
osm:245221784;osm:224099093;118.936407627927
osm:2090587437;osm:247901210;23.4133246441761
osm:245221797;osm:245221830;118.511850472898
osm:247901095;osm:247901104;39.7363823950788
osm:1577477520;osm:1577477519;56.3705224465055
osm:2090586704;osm:247873867;15.3314193650664
osm:243459647;osm:243459645;126.771640249921
osm:247901142;osm:2090587323;58.1574773160596
osm:196301489;osm:196301453;122.401141847318
osm:766953225;osm:2088088795;28.2189475227594
osm:241895628;osm:241895835;118.603714336105
osm:243459647;osm:243459653;125.293510075783
osm:247898632;osm:247898633;15.0706336182813
osm:196301217;osm:196301277;163.197717946166
osm:2608988700;osm:673774714;80.9011131188031
osm:196312941;osm:196313415;125.658263831492
osm:196312941;osm:2088088811;24.5826706698686
osm:241898826;osm:241898786;120.605966546114
osm:196301889;osm:196301872;121.602711843069
osm:196313625;osm:196313639;120.677613863655
osm:241898480;osm:241898409;120.758610295378
osm:241898485;osm:241898780;124.187032994074
osm:2288713262;osm:247873811;45.3808719460203
osm:241003058;osm:32382083;42.0747356794122
osm:247873851;osm:247873850;23.2388897932624
osm:247888234;osm:224201335;91.2821042339071
osm:790662071;osm:337410347;243.516843337285
osm:247873821;osm:247873822;10.8850772635805
osm:196301629;osm:2857404066;79.0065620619652
osm:2915256501;osm:2088088825;46.1094887109764
osm:247901008;osm:247901013;12.1825218326005
osm:196301591;osm:2847300602;23.8580200683032
osm:245221881;osm:2922835601;25.2759819716218
osm:613899462;osm:2288713719;11.6774419595889
osm:166596681;osm:166596682;120.078570008926
osm:2996966733;osm:245221941;55.1791304615599
osm:2088088816;osm:196312868;22.1123212949075
osm:245221953;osm:245221934;121.809703106673
osm:166598673;osm:166596676;27.8263652899203
osm:245222139;osm:241952444;56.286647761761
osm:196301269;osm:89286422;173.6123257333
osm:241895627;osm:241895626;121.998136282284
osm:247873866;osm:247873865;31.4592392838158
osm:2838736501;osm:196301742;36.4399712274315
osm:245228307;osm:245222032;130.958131594537
osm:247901127;osm:2090587448;9.33370594264063
osm:2288713727;osm:2288713724;6.35025783837924
osm:2916509814;osm:825311686;35.9804671056971
osm:2843188729;osm:245221777;32.9786485602084
osm:245226177;osm:245226169;127.806892478147
osm:247873908;osm:2288713273;9.78795603431682
osm:196301770;osm:196301788;111.600447934898
osm:196301889;osm:196301733;123.614048214995
osm:2151726481;osm:245776376;32.8162048582044
osm:180280563;osm:455448192;93.2614679616257
osm:2088088823;osm:245226150;23.6316275124744
osm:196301958;osm:196301872;120.329032739342
osm:245221999;osm:1187213507;13.24318816579
osm:241898578;osm:790591986;59.2838958298725
osm:241004498;osm:241004503;101.782685509837
osm:89217883;osm:89585865;146.503092657031
osm:256238240;osm:256238241;152.969050540739
osm:32375709;osm:247901103;157.830532801942
osm:2088088783;osm:247901141;34.6219588915226
osm:241898474;osm:241898507;119.754622930028
osm:247901243;osm:247901244;19.875009078049
osm:673693904;osm:247873872;37.9549033005529
osm:241898684;osm:241898678;108.002442105259
osm:247873852;osm:247873851;20.8058278656624
osm:245221909;osm:245221901;42.4113762586947
osm:1997760521;osm:1997760532;16.4085896558457
osm:196301731;osm:247917673;100.599954916668
osm:247901058;osm:2090587179;6.56835754454014
osm:196313916;osm:196313964;119.774178329655
osm:241898660;osm:241895835;120.110675478039
osm:790662088;osm:790662093;41.691387933316
osm:2840955402;osm:245221881;39.2946051017292
osm:256238278;osm:256238277;156.794106113459
osm:245221789;osm:2809271049;17.2814065552192
osm:247901016;osm:247901020;13.5836608710978
osm:673693892;osm:2090586713;50.1716048724769
osm:2726182498;osm:2597749626;15.1107609829863
osm:196313680;osm:290550414;57.0253843589113
osm:245221777;osm:2843188729;32.9786485602084
osm:196301407;osm:196301343;125.489717938853
osm:241898409;osm:241898427;121.760103753036
osm:247898637;osm:32376978;71.6629599372016
osm:247919547;osm:243459633;49.3277581393578
osm:89585860;osm:206176520;157.061089094673
osm:249456835;osm:196313569;70.3474417811632
osm:247874130;osm:247874131;9.51092490184149
osm:2288713301;osm:247873813;43.3369000926374
osm:243459701;osm:243459732;108.251049578236
osm:247901020;osm:247901021;17.3844957442637
osm:241898507;osm:241898548;119.311525193212
osm:290550418;osm:247919561;59.2818738061917
osm:790592009;osm:2090587460;55.5248665676389
osm:196313556;osm:196313569;106.508973507993
osm:245221849;osm:245221856;53.986933831819
osm:243459639;osm:243459647;120.894358723698
osm:2090586914;osm:2090587296;138.270905071243
osm:247894633;osm:247894634;29.2814805734995
osm:2288713724;osm:613899461;5.45217960974703
osm:241003103;osm:224073902;124.452676934203
osm:247873829;osm:2090586701;33.0155263158263
osm:245221868;osm:673395663;69.6201201970325
osm:241898625;osm:241898637;121.509139278738
osm:247901244;osm:247901246;18.5649520259873
osm:2088088815;osm:241898445;113.013994008008
osm:2996960933;osm:196301699;30.8368696396914
osm:2288713252;osm:247873827;22.9967499449637
osm:247900892;osm:247900884;12.4029549301462
osm:247919553;osm:245226169;55.3127061837007
osm:206176513;osm:196313995;126.377561819968
osm:2288713278;osm:247874133;16.0982775360022
osm:241898382;osm:245222083;143.723021663
osm:166596680;osm:1038868184;10.9370166692845
osm:196301309;osm:180277957;113.419657058977
osm:773351501;osm:196318392;109.794680298481
osm:196313520;osm:206176527;111.168417134862
osm:245222038;osm:241898393;120.978507790423
osm:2796663270;osm:191931815;17.2359737854422
osm:241898382;osm:245222130;124.171504334744
osm:613899455;osm:613899453;33.5453268205831
osm:2090587446;osm:1817010571;25.460583847633
osm:247901272;osm:247901274;81.9845494611935
osm:2090586733;osm:2090586734;8.42838896674036
osm:247921764;osm:247921762;224.705611540498
osm:245222083;osm:2088088821;36.8424622173985
osm:196301731;osm:2996960933;92.8857819412839
osm:821348432;osm:2328495896;3.42723917742035
osm:245221901;osm:245221909;42.4113762586947
osm:1058785035;osm:247917668;7.34601881038385
osm:2838736501;osm:2838736502;12.8434315974656
osm:1006208592;osm:247917666;20.1295620979898
osm:243459705;osm:196301424;71.4518535696735
osm:2840955404;osm:2845227401;26.5141214611104
osm:241004544;osm:241004532;107.048796319321
osm:245222102;osm:241895651;115.103672627922
osm:196312796;osm:196313507;110.453264562778
osm:196301662;osm:2886240701;79.3240349331687
osm:245776375;osm:2151726481;25.7282781555628
osm:241898612;osm:241898502;119.226188970029
osm:613968193;osm:613968195;23.4008833148538
osm:2151718753;osm:1768289895;34.2747398997056
osm:196313429;osm:196313399;120.584066716736
osm:2090587043;osm:2088088783;10.7711565417006
osm:1781544559;osm:241003110;116.878162507037
osm:245221797;osm:245221805;126.2891891196
osm:2090570450;osm:2090570446;57.3334420836389
osm:247874127;osm:2288713264;12.7868566880833
osm:249456837;osm:613899457;121.554270984877
osm:790668164;osm:241898654;57.3551273411206
osm:196313556;osm:196313538;122.797611044075
osm:241898837;osm:2975805933;108.110653251552
osm:256238239;osm:256238238;126.36135446187
osm:247873832;osm:247873820;10.3234848447831
osm:2427486522;osm:2422725628;62.8989696885847
osm:245222006;osm:245222010;93.5959989486724
osm:241898427;osm:241898421;119.406728822542
osm:790662103;osm:790662065;39.1264647597954
osm:247919564;osm:196312610;47.1831485591534
osm:241898560;osm:241898554;119.429394916256
osm:180277958;osm:196301662;65.4315202159551
osm:196301277;osm:196301383;112.305619610785
osm:2288713286;osm:247873863;15.8821803183407
osm:252205602;osm:790662072;84.710345064818
osm:2288713255;osm:2288713254;6.96907611663716
osm:2267235284;osm:196301629;20.9743911455775
osm:2929278901;osm:2996953334;28.0434379487516
osm:247894622;osm:247894623;79.0663930014943
osm:247888022;osm:2090586733;20.8759086300896
osm:245222065;osm:241898382;123.56424161143
osm:2288713236;osm:247873875;46.561677478883
osm:790592003;osm:247879329;110.363631749805
osm:2976574533;osm:2621690452;13.2409759989242
osm:180277957;osm:196301453;120.772336511744
osm:673774713;osm:2608988700;79.8551878363785
osm:245222083;osm:245222130;72.0023839413614
osm:241898589;osm:241898649;121.757159694099
osm:247894631;osm:247894632;112.979596600858
osm:245221797;osm:1006208585;62.3368546552647
osm:247917665;osm:247917664;106.410833636237
osm:2840955202;osm:2840955403;16.5032741009053
osm:2088088821;osm:2088088823;60.5826754311181
osm:247873905;osm:2288713263;9.99526158597483
osm:196301591;osm:2840955403;70.7261155873169
osm:2150467434;osm:241003062;52.9291257756429
osm:196301343;osm:2924096502;73.3228503831851
osm:2886240701;osm:196301662;79.3240349331687
osm:2847300602;osm:2933621501;93.4943162310487
osm:2461097945;osm:1577477516;242.224460330084
osm:243459655;osm:243459645;127.258651265806
osm:241898496;osm:2915231502;49.0595346661535
osm:1006208612;osm:196301958;113.959577550521
osm:196313672;osm:249456835;52.1886424007842
osm:247901267;osm:247901270;128.833603313327
osm:247873826;osm:2288713252;17.0333662005527
osm:1038868213;osm:2151735244;23.4366010531596
osm:241898451;osm:241898519;120.643179065278
osm:2608988769;osm:247888068;78.9474302071244
osm:245221941;osm:2996966733;55.1791304615599
osm:247901253;osm:247901254;12.4869427520149
osm:241898937;osm:241898931;124.211892953775
osm:241898649;osm:2919631501;105.911373289069
osm:249455084;osm:2288713276;27.310153533781
osm:245221928;osm:247874125;159.321961648356
osm:247873813;osm:249455092;17.2291791776575
osm:180275562;osm:206176513;86.2516335015249
osm:2912207801;osm:245221856;101.097505293684
osm:180279228;osm:196301731;146.047994969021
osm:1058784996;osm:247919561;11.1887582096396
osm:290550408;osm:2922745102;62.2334733065135
osm:2088088793;osm:89585860;23.8446211739647
osm:241898536;osm:241898925;130.467249073212
osm:241895840;osm:89585863;113.663584618687
osm:245221856;osm:32385604;140.486008476153
osm:196312912;osm:2953475735;16.4687971534703
osm:247894632;osm:247894633;50.4788416811667
osm:247901013;osm:247901016;9.2295829449634
osm:790668159;osm:241898451;58.8513873182837
osm:241898542;osm:241898502;120.232408900502
osm:245222130;osm:245222123;124.030305191948
osm:247900895;osm:247900892;10.7024584570587
osm:2090586727;osm:2090586733;91.942067313574
osm:1997760487;osm:245221981;7.65967513004481
osm:2288713271;osm:247874146;13.1021084384917
osm:247873915;osm:247873916;18.3235282889
osm:89574426;osm:241895843;150.142830824184
osm:206178157;osm:245221999;47.5007293730453
osm:241003034;osm:2150467427;30.4434594517968
osm:32382617;osm:2288713236;61.3092805420808
osm:241898439;osm:241898937;131.317823160265
osm:247901254;osm:2088088778;14.3727414315308
osm:1577477534;osm:1577477533;6.84037383034474
osm:245226169;osm:245226155;139.323119223542
osm:247874148;osm:247874149;63.3069119890754
osm:196312868;usig:475;149.826593596631
osm:252417529;osm:256238252;168.304190161662
osm:247888132;osm:247888136;54.440482212132
osm:247877436;osm:1817010572;12.1854754244152
osm:247874147;osm:247874148;13.7270460503769
osm:196301396;osm:196301295;112.568939416882
osm:245221958;osm:291838597;56.0441589761207
osm:256238059;osm:256238044;138.225249441152
osm:2621690452;osm:2976574533;13.2409759989242
osm:241898392;osm:245222032;120.97373416002
osm:206176520;osm:180276170;94.6200427701294
osm:247894615;osm:247894616;93.8465580998553
osm:2433252058;osm:2433252056;4.60382171248743
osm:247918115;osm:247918121;79.0355711333032
osm:613899457;osm:249456837;121.554270984877
osm:196312828;osm:196313625;154.32723931685
osm:2090586728;osm:247888002;18.8732982899722
osm:32382085;osm:248012951;37.3559012531678
osm:2288713288;osm:247873864;14.7653121049967
osm:256238235;osm:256238236;152.434698162767
osm:247879334;osm:790591979;61.5621306393414
osm:247873912;osm:247873833;39.1478002750575
osm:32382609;osm:2150467434;61.9264525751095
osm:2845227202;osm:247917671;38.6135226481927
osm:247894629;osm:673774713;79.0798514424996
osm:247901147;osm:247901148;24.3211977409709
osm:790591986;osm:241898660;60.7792629220944
osm:196301489;osm:196301407;121.048368290352
osm:2922835601;osm:245221881;25.2759819716218
osm:1058785012;osm:613899457;17.3997313416402
osm:247894632;osm:2090570647;43.6595927164856
osm:256238062;osm:256238059;133.178302684546
osm:241898480;osm:241898606;114.10581102447
osm:206175797;osm:206175776;122.989474730656
osm:1577477515;osm:1678926698;20.4174393155642
osm:767494786;osm:673771452;132.855664111018
osm:2886240701;osm:2861191201;15.2137784190089
osm:2328495917;osm:2088088781;55.7419671417936
osm:2924096501;osm:1058785038;24.9842340173194
osm:196313639;usig:475;111.70426346328
osm:790662088;osm:790662065;29.6762143137423
osm:247900867;osm:2090587450;48.107718135006
osm:196301435;osm:196301424;121.107475826028
osm:241898583;osm:241898554;121.936335641557
osm:247888127;osm:247888132;47.0005552027759
osm:206178157;osm:245222006;42.6708465116473
osm:191913133;osm:191913153;143.750142608782
osm:247900929;osm:247900933;18.4426951913783
osm:1058785038;osm:245221973;11.2468879647713
osm:1058785012;osm:613899458;13.0443823623833
osm:247919568;osm:247919549;29.4664619150547
osm:196301901;osm:196301889;119.783402764367
osm:241898690;osm:241898684;119.913722296859
osm:241898908;osm:2151718692;48.0549219591117
osm:2288713276;osm:2321436265;9.62896434014736
osm:247894635;osm:2090586751;23.1418888388049
osm:256238216;osm:256238215;152.842173642642
usig:445;usig:411;121.00425074142
osm:793142419;osm:793142427;32.4328062588286
osm:241004478;osm:241004485;105.649709997308
osm:196312828;osm:241898388;127.580678007832
osm:790591984;osm:2090587446;209.97207822104
osm:241898850;osm:241898809;121.237952785359
usig:13378;usig:411;122.039009242129
osm:247901141;osm:2090586904;26.0010886198518
osm:2809271044;osm:613968209;24.2266106422367
osm:1038868184;osm:2151735245;24.7578555079857
osm:247901005;osm:2090586901;7.71471927942918
osm:247901205;osm:767500312;77.9175149539361
osm:2151735244;osm:241895627;8.0808590897086
osm:2872921301;osm:97957445;15.1314318391106
osm:247901265;osm:247901266;95.7340859681989
osm:206176515;osm:206176518;123.094818537118
osm:1038868185;osm:166596682;10.1839425340453
osm:241895826;osm:2554672306;20.1054921723577
osm:2090587014;osm:673771375;95.5859967298484
osm:247873867;osm:247873866;19.7102335422754
osm:247879336;osm:2607403053;88.2132263326713
osm:196318392;osm:773351501;109.794680298481
osm:1997760529;osm:1997760521;7.399021217161
osm:2288713281;osm:1006208625;4.86792115568567
osm:1817010571;osm:247900867;9.37029814726215
osm:245221874;osm:245221856;122.50803103795
osm:247900944;osm:247900988;9.66678050816736
osm:2090587441;osm:247901121;10.7813441943382
osm:1577477534;osm:1577477535;7.88226378706344
osm:241898524;osm:2088088813;88.5946737585052
osm:196318384;osm:1006208592;38.5363369798647
osm:245222139;osm:241898382;138.829013722255
osm:2288713719;osm:2288713721;8.60140371972327
osm:1006208659;osm:224099093;63.4366862925732
osm:243459633;osm:243459639;133.102365509965
osm:243459703;osm:243459697;70.4470570377131
osm:2933621501;osm:2847300602;93.4943162310487
osm:247894621;osm:2354397456;97.5587093595038
osm:291838593;osm:245221965;56.0935919639606
osm:245221868;osm:2843188727;58.3136330005045
osm:2090570459;osm:2090570453;47.0025850877613
osm:166598672;osm:2151735233;8.64640331155065
osm:256238218;osm:256238217;153.144102973263
osm:2288713255;osm:2288713261;17.5349886447492
osm:245221830;osm:247917666;134.862473222304
osm:243459732;osm:243459703;54.8154075927448
osm:2621690452;osm:2980312933;10.9776364953375
osm:247901134;osm:247901135;12.3023518857109
osm:1997760493;osm:1997760487;29.0423213809199
osm:256238249;osm:256238250;150.989268222374
osm:89286414;osm:196301269;165.012128091326
osm:245221874;osm:245221861;33.3966108297987
osm:2843188727;osm:673395666;20.68689644496
osm:2090587449;osm:247901154;15.0041296080474
osm:247873872;osm:2090586704;17.416601070885
osm:1038868172;osm:166596681;9.19111159963016
osm:241002955;osm:241002959;33.2017909135666
osm:196312686;osm:1997760518;11.3258248622052
osm:247879328;osm:241898451;228.303590591155
osm:89574424;osm:206175764;120.278592278414
osm:245222050;osm:245222058;120.604360834089
osm:613968204;osm:421730999;144.636534306999
osm:206175753;osm:89217883;175.262786370212
osm:256238277;osm:252417472;148.353210175356
osm:766953225;osm:769417573;12.9055719807951
osm:196301650;osm:196301915;46.3216152213393
osm:613968191;osm:2328495881;122.321781479295
osm:196312898;osm:196313841;86.8936348196363
osm:2090587450;osm:2088088791;51.0817010291863
osm:247887995;osm:2090586728;21.7561683455447
osm:245221999;osm:245222018;97.4475899578496
osm:247901066;osm:247901058;108.771348945478
osm:2597749320;osm:245221844;20.423316211843
osm:196313459;osm:196313429;122.290483618326
osm:245222093;osm:245222072;110.231892766756
usig:454;usig:435;123.660224900207
osm:206176524;osm:196313978;119.057060941051
osm:2288713254;osm:249455080;8.45561373314789
osm:247873906;osm:247873908;10.0741319699993
osm:421731003;osm:421730961;142.624746618451
osm:245221777;osm:2607403123;31.0543656239268
osm:673771374;osm:2090587454;156.297220927163
osm:196313841;osm:196312912;124.949349169607
osm:2288713276;osm:249455092;9.50931788584674
osm:196301374;osm:2929278901;29.2968300456851
osm:1997760487;osm:1997760493;29.0423213809199
osm:86992774;osm:241898403;122.230254665814
osm:790591988;osm:241898560;116.352865179394
osm:245221837;osm:245221901;128.291224894361
osm:247901150;osm:247901271;36.206787620508
osm:97957460;osm:2872921301;143.827321101015
osm:790592002;osm:790591986;104.76504389755
osm:247901141;osm:247901142;17.5962024998097
usig:435;usig:445;122.40564454604
osm:241952444;osm:89585863;115.76673102648
osm:2090586725;osm:821348437;2.86031800763207
osm:613899458;osm:1058785012;13.0443823623833
osm:241004507;osm:2723597836;14.7834629586805
usig:432;usig:411;123.42146450552
osm:206175751;osm:206175753;133.330877887787
osm:2840955404;osm:196301343;63.6530401589347
osm:793142427;osm:793142419;32.4328062588286
osm:1678926698;osm:2857404065;62.8634049104352
osm:241898637;osm:241898711;165.945133027719
osm:2288713715;osm:1058785017;23.4512555638093
osm:2843188729;osm:2843188728;16.4787943271478
osm:2090586904;osm:247901141;26.0010886198518
osm:196313964;osm:206176518;121.988363293632
osm:1577477521;osm:1577477518;140.766591280066
osm:2090586723;osm:2090586727;39.0946290750982
osm:1058785038;osm:2924096501;24.9842340173194
osm:673771452;osm:2288713326;38.8379631629581
osm:1678926695;osm:1678926698;12.8571743771115
osm:196313459;osm:206176535;118.542785043042
osm:247901266;osm:247897377;128.272309279509
osm:206176520;osm:206176513;121.053068726799
osm:247879336;osm:2088088791;39.3099079480981
osm:241898754;osm:241898693;127.656110036292
osm:613899457;osm:245221994;63.5281678537763
osm:196301760;osm:206178157;111.008627072466
osm:2151735247;osm:89574426;36.2371673085349
osm:245222043;osm:245222102;119.988473069657
osm:241895841;osm:241895839;115.82202765179
osm:2924096502;osm:89286188;18.4031360892505
osm:247901119;osm:247901120;17.5884750049424
osm:2090586902;osm:247901251;8.35161209205966
osm:206175776;osm:206175779;121.227006451232
osm:1577477529;osm:1577477531;10.6992729094599
osm:241898415;osm:790668159;61.6878629781113
osm:2090586711;osm:2090586722;245.248400277269
osm:241898445;osm:247879328;30.6012174318286
osm:247898617;osm:247898629;59.9946860798319
osm:1038868201;osm:166598673;9.93174314996458
osm:241952451;osm:89574426;116.88017657516
osm:2953475735;osm:196312912;16.4687971534703
osm:196301847;osm:180277958;136.28392834802
osm:2597749320;osm:2607403123;80.6617178616043
osm:32385179;osm:1038868201;58.4420167521588
osm:2088088813;osm:241898496;23.6860452380848
osm:241895651;osm:245222038;120.624081524791
osm:247898629;osm:247898631;10.3229187982371
osm:241898392;osm:2151726478;131.96567197728
osm:2996960933;osm:196301731;92.8857819412839
