"osm:2912207801";"SRID=4326;POINT(-58.4659156 -34.5395158)"
"osm:247901261";"SRID=4326;POINT(-58.4774238 -34.5391435)"
"osm:1058785001";"SRID=4326;POINT(-58.4653491 -34.546434)"
"osm:247901103";"SRID=4326;POINT(-58.4725637 -34.5374686)"
"osm:241895626";"SRID=4326;POINT(-58.4692944 -34.5495997)"
"osm:196301374";"SRID=4326;POINT(-58.4565097 -34.5474055)"
"osm:247901102";"SRID=4326;POINT(-58.4731205 -34.5376391)"
"osm:191913153";"SRID=4326;POINT(-58.4547279 -34.552643)"
"osm:2150467451";"SRID=4326;POINT(-58.4522329 -34.5403809)"
"osm:196301699";"SRID=4326;POINT(-58.4612771 -34.5433509)"
"osm:1058785038";"SRID=4326;POINT(-58.463434 -34.5413294)"
"osm:97957463";"SRID=4326;POINT(-58.4535531 -34.5520071)"
"osm:2090586721";"SRID=4326;POINT(-58.4727181 -34.5371612)"
"osm:241898427";"SRID=4326;POINT(-58.4768781 -34.5463794)"
"osm:245221868";"SRID=4326;POINT(-58.465789 -34.5375387)"
"osm:673771452";"SRID=4326;POINT(-58.4701714 -34.53659)"
"osm:256238282";"SRID=4326;POINT(-58.4866335 -34.5410336)"
"osm:2288713727";"SRID=4326;POINT(-58.463364 -34.5417402)"
"osm:166598669";"SRID=4326;POINT(-58.4730584 -34.5494686)"
"osm:247888170";"SRID=4326;POINT(-58.4838077 -34.5422523)"
"osm:2288713255";"SRID=4326;POINT(-58.4657667 -34.5351826)"
"osm:2975805933";"SRID=4326;POINT(-58.4858854 -34.5452392)"
"osm:2607403053";"SRID=4326;POINT(-58.4751076 -34.5407716)"
"osm:2922745202";"SRID=4326;POINT(-58.4682135 -34.5358378)"
"osm:247901153";"SRID=4326;POINT(-58.477531 -34.5396392)"
"osm:2325659535";"SRID=4326;POINT(-58.4754278 -34.5371885)"
"osm:89574424";"SRID=4326;POINT(-58.4786326 -34.5532301)"
"osm:241002959";"SRID=4326;POINT(-58.4512273 -34.5406454)"
"osm:1870877789";"SRID=4326;POINT(-58.4580617 -34.5459291)"
"osm:247901104";"SRID=4326;POINT(-58.4740327 -34.5379304)"
"osm:2288713258";"SRID=4326;POINT(-58.4629714 -34.5352181)"
"osm:241898736";"SRID=4326;POINT(-58.4857679 -34.5473199)"
"osm:2328495895";"SRID=4326;POINT(-58.4756761 -34.5371479)"
"osm:1006208615";"SRID=4326;POINT(-58.4682961 -34.5360395)"
"osm:247901120";"SRID=4326;POINT(-58.4772514 -34.539273)"
"osm:2354397448";"SRID=4326;POINT(-58.4758578 -34.5382748)"
"osm:180279228";"SRID=4326;POINT(-58.4630839 -34.5432814)"
"osm:2422725629";"SRID=4326;POINT(-58.4674161 -34.5500933)"
"osm:256238146";"SRID=4326;POINT(-58.4825951 -34.5306873)"
"osm:2325659103";"SRID=4326;POINT(-58.476131 -34.5375489)"
"osm:1075949159";"SRID=4326;POINT(-58.4634136 -34.5414584)"
"osm:2288713301";"SRID=4326;POINT(-58.4666698 -34.5361245)"
"osm:241898524";"SRID=4326;POINT(-58.4735314 -34.5433131)"
"osm:2838806702";"SRID=4326;POINT(-58.4547048 -34.5485909)"
"osm:2968216734";"SRID=4326;POINT(-58.4589327 -34.5433163)"
"osm:1038868177";"SRID=4326;POINT(-58.4689176 -34.5484114)"
"osm:1058785020";"SRID=4326;POINT(-58.4772294 -34.5502274)"
"osm:2311672746";"SRID=4326;POINT(-58.4704117 -34.5489338)"
"osm:206178157";"SRID=4326;POINT(-58.4640265 -34.5437612)"
"osm:247900933";"SRID=4326;POINT(-58.4749739 -34.5387282)"
"osm:247894628";"SRID=4326;POINT(-58.4770654 -34.5399888)"
"osm:196313585";"SRID=4326;POINT(-58.4673368 -34.5445037)"
"osm:196318392";"SRID=4326;POINT(-58.4692393 -34.5366316)"
"osm:252418148";"SRID=4326;POINT(-58.4864742 -34.5366657)"
"osm:1058785000";"SRID=4326;POINT(-58.4650386 -34.5457651)"
"osm:247901142";"SRID=4326;POINT(-58.4762402 -34.5383693)"
"osm:2151726480";"SRID=4326;POINT(-58.4789138 -34.5490075)"
"osm:821348437";"SRID=4326;POINT(-58.4766817 -34.5372801)"
"osm:2151718697";"SRID=4326;POINT(-58.4800163 -34.5491255)"
"osm:1006208651";"SRID=4326;POINT(-58.4633909 -34.5476431)"
"osm:1006208594";"SRID=4326;POINT(-58.4680033 -34.5369868)"
"osm:245221874";"SRID=4326;POINT(-58.4669573 -34.5381011)"
"osm:241895649";"SRID=4326;POINT(-58.4743062 -34.5509799)"
"osm:241898943";"SRID=4326;POINT(-58.480319 -34.5476697)"
"osm:247900988";"SRID=4326;POINT(-58.4741605 -34.5383536)"
"osm:2151742092";"SRID=4326;POINT(-58.4805045 -34.549295)"
"osm:196301424";"SRID=4326;POINT(-58.4600357 -34.5491882)"
"osm:247888080";"SRID=4326;POINT(-58.4773003 -34.5389943)"
"osm:252205602";"SRID=4326;POINT(-58.4786786 -34.5395972)"
"osm:673774726";"SRID=4326;POINT(-58.4762528 -34.5395094)"
"osm:2090586733";"SRID=4326;POINT(-58.4740136 -34.5376122)"
"osm:2288713723";"SRID=4326;POINT(-58.4634933 -34.5416857)"
"osm:1058785002";"SRID=4326;POINT(-58.463571 -34.5414036)"
"osm:256238243";"SRID=4326;POINT(-58.4843365 -34.5374302)"
"osm:2150467430";"SRID=4326;POINT(-58.4579276 -34.5380806)"
"osm:247900939";"SRID=4326;POINT(-58.4743562 -34.5385427)"
"osm:1113178954";"SRID=4326;POINT(-58.4485532 -34.5412025)"
"osm:196301861";"SRID=4326;POINT(-58.4599068 -34.5459086)"
"osm:166596676";"SRID=4326;POINT(-58.4685756 -34.5483364)"
"osm:2090586724";"SRID=4326;POINT(-58.4755849 -34.5372458)"
"osm:767495872";"SRID=4326;POINT(-58.4672439 -34.535341)"
"osm:1006208643";"SRID=4326;POINT(-58.4683491 -34.5359216)"
"osm:247897229";"SRID=4326;POINT(-58.4884427 -34.5445401)"
"osm:2090586722";"SRID=4326;POINT(-58.4722319 -34.5372255)"
"osm:256238216";"SRID=4326;POINT(-58.4816609 -34.53442)"
"osm:2090587179";"SRID=4326;POINT(-58.4754958 -34.5384452)"
"usig:435";"SRID=4326;POINT(-58.4714517932383 -34.5424180196288)"
"osm:245221988";"SRID=4326;POINT(-58.4651031 -34.5423242)"
"osm:247901266";"SRID=4326;POINT(-58.4794455 -34.5406024)"
"osm:245222018";"SRID=4326;POINT(-58.4646511 -34.5446246)"
"osm:196312912";"SRID=4326;POINT(-58.4676985 -34.5405605)"
"osm:2427486523";"SRID=4326;POINT(-58.4686768 -34.548655)"
"osm:673771374";"SRID=4326;POINT(-58.4776942 -34.5396867)"
"osm:245221981";"SRID=4326;POINT(-58.4652708 -34.5423999)"
"osm:196301742";"SRID=4326;POINT(-58.4581406 -34.5460989)"
"osm:241898583";"SRID=4326;POINT(-58.4775099 -34.5427296)"
"osm:256238241";"SRID=4326;POINT(-58.4819427 -34.536306)"
"osm:247901024";"SRID=4326;POINT(-58.4753466 -34.5383245)"
"osm:2845227401";"SRID=4326;POINT(-58.4563409 -34.5475576)"
"osm:2288713313";"SRID=4326;POINT(-58.4699195 -34.5363344)"
"osm:2843188729";"SRID=4326;POINT(-58.4646964 -34.5393166)"
"osm:769417573";"SRID=4326;POINT(-58.4748876 -34.5404131)"
"osm:2953475735";"SRID=4326;POINT(-58.4675739 -34.5404948)"
"osm:2090587355";"SRID=4326;POINT(-58.476065 -34.5388822)"
"osm:245222050";"SRID=4326;POINT(-58.4741117 -34.5473478)"
"osm:247873873";"SRID=4326;POINT(-58.470721 -34.5369934)"
"osm:196312887";"SRID=4326;POINT(-58.472012 -34.5438055)"
"osm:247888009";"SRID=4326;POINT(-58.4730498 -34.5374613)"
"osm:613899461";"SRID=4326;POINT(-58.4632997 -34.5416739)"
"osm:247879328";"SRID=4326;POINT(-58.4733913 -34.5442537)"
"osm:245222083";"SRID=4326;POINT(-58.4700504 -34.5469763)"
"osm:2010573155";"SRID=4326;POINT(-58.4782705 -34.5493463)"
"osm:2090587441";"SRID=4326;POINT(-58.4773271 -34.5393222)"
"osm:241898877";"SRID=4326;POINT(-58.4830015 -34.5458527)"
"osm:2088088820";"SRID=4326;POINT(-58.4702643 -34.5466898)"
"osm:241898554";"SRID=4326;POINT(-58.4771018 -34.5435669)"
"osm:247901256";"SRID=4326;POINT(-58.4747035 -34.5379238)"
"osm:1113178935";"SRID=4326;POINT(-58.4492346 -34.5404395)"
"osm:29375392";"SRID=4326;POINT(-58.4771215 -34.5364121)"
"osm:1113178958";"SRID=4326;POINT(-58.4474358 -34.5426492)"
"osm:2090586701";"SRID=4326;POINT(-58.4686721 -34.5356698)"
"osm:206176515";"SRID=4326;POINT(-58.472122 -34.5396762)"
"osm:2838806502";"SRID=4326;POINT(-58.4540456 -34.5484593)"
"osm:243459649";"SRID=4326;POINT(-58.464002 -34.5490212)"
"osm:32382082";"SRID=4326;POINT(-58.4573112 -34.5391016)"
"osm:89585865";"SRID=4326;POINT(-58.4708589 -34.5491605)"
"osm:247888035";"SRID=4326;POINT(-58.4745877 -34.5377767)"
"osm:247901147";"SRID=4326;POINT(-58.4769162 -34.5390738)"
"osm:2328495911";"SRID=4326;POINT(-58.4756484 -34.5373688)"
"osm:1997760526";"SRID=4326;POINT(-58.465787 -34.5427579)"
"osm:1006208630";"SRID=4326;POINT(-58.4632542 -34.5476735)"
"osm:249456840";"SRID=4326;POINT(-58.4648938 -34.544753)"
"osm:247888092";"SRID=4326;POINT(-58.4779981 -34.5393683)"
"osm:247901262";"SRID=4326;POINT(-58.4782866 -34.5397327)"
"osm:256238252";"SRID=4326;POINT(-58.4789292 -34.5360448)"
"osm:241898480";"SRID=4326;POINT(-58.4782918 -34.5458825)"
"osm:1577477535";"SRID=4326;POINT(-58.4630383 -34.5496659)"
"osm:1058785054";"SRID=4326;POINT(-58.4663883 -34.547503)"
"osm:673771451";"SRID=4326;POINT(-58.4702619 -34.5364821)"
"osm:1038868182";"SRID=4326;POINT(-58.4763557 -34.5498886)"
"osm:247901016";"SRID=4326;POINT(-58.4745793 -34.5379667)"
"osm:2809271049";"SRID=4326;POINT(-58.4666769 -34.5400195)"
"osm:241898589";"SRID=4326;POINT(-58.4785018 -34.5430697)"
"osm:2427486522";"SRID=4326;POINT(-58.4685847 -34.5486384)"
"osm:245221948";"SRID=4326;POINT(-58.4657763 -34.5416995)"
"osm:2088088789";"SRID=4326;POINT(-58.475581 -34.5396558)"
"osm:1997760502";"SRID=4326;POINT(-58.4658224 -34.5426232)"
"osm:241898925";"SRID=4326;POINT(-58.4820737 -34.5453935)"
"osm:245776376";"SRID=4326;POINT(-58.47877 -34.5491371)"
"osm:241898445";"SRID=4326;POINT(-58.4731327 -34.5441769)"
"osm:989490762";"SRID=4326;POINT(-58.4927281 -34.5439386)"
"osm:2088088823";"SRID=4326;POINT(-58.4694862 -34.547517)"
"osm:247917669";"SRID=4326;POINT(-58.4632648 -34.5413298)"
"osm:290550408";"SRID=4326;POINT(-58.4683471 -34.5353819)"
"osm:247901244";"SRID=4326;POINT(-58.474401 -34.5386415)"
"osm:89286414";"SRID=4326;POINT(-58.45618 -34.5492514)"
"osm:247873851";"SRID=4326;POINT(-58.4675851 -34.535791)"
"osm:241898864";"SRID=4326;POINT(-58.4818189 -34.5473971)"
"osm:89286423";"SRID=4326;POINT(-58.4504997 -34.5555505)"
"osm:2919631001";"SRID=4326;POINT(-58.4772551 -34.5361483)"
"osm:247874078";"SRID=4326;POINT(-58.4665878 -34.5353963)"
"osm:243459703";"SRID=4326;POINT(-58.4610167 -34.55028)"
"osm:245222006";"SRID=4326;POINT(-58.4642236 -34.5434904)"
"osm:243459651";"SRID=4326;POINT(-58.4634177 -34.5497901)"
"osm:249455092";"SRID=4326;POINT(-58.4666049 -34.5356921)"
"osm:247919568";"SRID=4326;POINT(-58.4648195 -34.5460518)"
"osm:245221909";"SRID=4326;POINT(-58.4680359 -34.5361351)"
"osm:421730999";"SRID=4326;POINT(-58.4752543 -34.5357122)"
"osm:2090570647";"SRID=4326;POINT(-58.4731066 -34.5382232)"
"osm:825311686";"SRID=4326;POINT(-58.4931525 -34.5440889)"
"osm:2483151050";"SRID=4326;POINT(-58.467567 -34.5350159)"
"osm:1678926679";"SRID=4326;POINT(-58.4638787 -34.5468516)"
"osm:196313841";"SRID=4326;POINT(-58.4670864 -34.5413355)"
"osm:241004469";"SRID=4326;POINT(-58.452784 -34.5400616)"
"osm:2976574533";"SRID=4326;POINT(-58.4774858 -34.535686)"
"osm:2328495893";"SRID=4326;POINT(-58.4765535 -34.5370915)"
"osm:247888055";"SRID=4326;POINT(-58.4754661 -34.5381917)"
"osm:247873861";"SRID=4326;POINT(-58.4664718 -34.5354721)"
"osm:249456835";"SRID=4326;POINT(-58.466714 -34.543571)"
"osm:247918115";"SRID=4326;POINT(-58.4645292 -34.5431143)"
"osm:196313520";"SRID=4326;POINT(-58.4677816 -34.5456263)"
"osm:245221928";"SRID=4326;POINT(-58.4668109 -34.5358799)"
"osm:2090586731";"SRID=4326;POINT(-58.4724456 -34.5375745)"
"osm:243459653";"SRID=4326;POINT(-58.4643508 -34.5502965)"
"osm:2427486520";"SRID=4326;POINT(-58.4683154 -34.5485447)"
"osm:247901026";"SRID=4326;POINT(-58.4754438 -34.5383717)"
"osm:2090570446";"SRID=4326;POINT(-58.471508 -34.5376435)"
"osm:245222032";"SRID=4326;POINT(-58.4770871 -34.5483745)"
"osm:2090586700";"SRID=4326;POINT(-58.4755502 -34.5393357)"
"osm:206175748";"SRID=4326;POINT(-58.4680728 -34.5527159)"
"osm:247888251";"SRID=4326;POINT(-58.4826061 -34.5421317)"
"osm:613969747";"SRID=4326;POINT(-58.4697958 -34.536878)"
"osm:2328495899";"SRID=4326;POINT(-58.4756774 -34.5371681)"
"osm:1678926655";"SRID=4326;POINT(-58.4633088 -34.5465367)"
"osm:245221934";"SRID=4326;POINT(-58.4642981 -34.5399262)"
"osm:2010573158";"SRID=4326;POINT(-58.4784472 -34.5492933)"
"osm:2840955403";"SRID=4326;POINT(-58.4594078 -34.5450586)"
"osm:1817010572";"SRID=4326;POINT(-58.4753574 -34.5393476)"
"osm:247901151";"SRID=4326;POINT(-58.4775348 -34.5394114)"
"osm:1113179026";"SRID=4326;POINT(-58.4498621 -34.5408314)"
"osm:247901247";"SRID=4326;POINT(-58.4741476 -34.538468)"
"osm:196301489";"SRID=4326;POINT(-58.4572673 -34.5477688)"
"osm:241004544";"SRID=4326;POINT(-58.4601376 -34.5357546)"
"osm:2354397447";"SRID=4326;POINT(-58.4757646 -34.5382338)"
"osm:421730946";"SRID=4326;POINT(-58.4758671 -34.5346939)"
"osm:247873832";"SRID=4326;POINT(-58.4666765 -34.5350501)"
"osm:1038868167";"SRID=4326;POINT(-58.475282 -34.5496582)"
"osm:166596680";"SRID=4326;POINT(-58.4721363 -34.5489714)"
"osm:2090587454";"SRID=4326;POINT(-58.4788711 -34.5403174)"
"osm:1006208659";"SRID=4326;POINT(-58.4675393 -34.5389432)"
"osm:247919561";"SRID=4326;POINT(-58.4656735 -34.5466942)"
"osm:793142427";"SRID=4326;POINT(-58.4703542 -34.537672)"
"osm:196301629";"SRID=4326;POINT(-58.4597752 -34.5447627)"
"osm:245221941";"SRID=4326;POINT(-58.4638295 -34.5407041)"
"osm:2090586725";"SRID=4326;POINT(-58.4766914 -34.5372605)"
"osm:1113178930";"SRID=4326;POINT(-58.4565247 -34.5386263)"
"osm:241898395";"SRID=4326;POINT(-58.4744908 -34.5465375)"
"osm:1125780722";"SRID=4326;POINT(-58.4463644 -34.5434031)"
"osm:247894627";"SRID=4326;POINT(-58.4774721 -34.5401334)"
"osm:2288713724";"SRID=4326;POINT(-58.4633195 -34.5417108)"
"osm:247894623";"SRID=4326;POINT(-58.4794595 -34.5409326)"
"osm:256241742";"SRID=4326;POINT(-58.4842473 -34.5398473)"
"osm:2088088819";"SRID=4326;POINT(-58.4703904 -34.5465586)"
"osm:2116861401";"SRID=4326;POINT(-58.4669697 -34.5359857)"
"osm:2921959404";"SRID=4326;POINT(-58.4675413 -34.5479608)"
"osm:1058785040";"SRID=4326;POINT(-58.4629011 -34.5412436)"
"osm:241898826";"SRID=4326;POINT(-58.4839264 -34.5463431)"
"osm:1006208583";"SRID=4326;POINT(-58.463198 -34.5476796)"
"osm:2090570459";"SRID=4326;POINT(-58.4725993 -34.5380168)"
"osm:196313680";"SRID=4326;POINT(-58.4665655 -34.5420641)"
"osm:247901146";"SRID=4326;POINT(-58.476753 -34.539013)"
"osm:247900907";"SRID=4326;POINT(-58.4774515 -34.539938)"
"osm:241898388";"SRID=4326;POINT(-58.4709236 -34.5452644)"
"osm:243459692";"SRID=4326;POINT(-58.4604448 -34.5514158)"
"osm:2838736501";"SRID=4326;POINT(-58.4579081 -34.5462887)"
"osm:2933621602";"SRID=4326;POINT(-58.4573294 -34.5451871)"
"osm:247901251";"SRID=4326;POINT(-58.4741109 -34.5380304)"
"osm:1577477524";"SRID=4326;POINT(-58.4621688 -34.5491373)"
"osm:2288713256";"SRID=4326;POINT(-58.4666242 -34.5351951)"
"osm:196313415";"SRID=4326;POINT(-58.4737044 -34.5414802)"
"osm:247919556";"SRID=4326;POINT(-58.4664483 -34.5474213)"
"osm:247901066";"SRID=4326;POINT(-58.4745725 -34.538059)"
"osm:2090586715";"SRID=4326;POINT(-58.4717722 -34.5367412)"
"osm:2090587440";"SRID=4326;POINT(-58.4776954 -34.5393073)"
"osm:256238231";"SRID=4326;POINT(-58.4861175 -34.5371495)"
"osm:673395678";"SRID=4326;POINT(-58.4646158 -34.5367926)"
"osm:256238244";"SRID=4326;POINT(-58.485522 -34.5379914)"
"osm:1113179003";"SRID=4326;POINT(-58.451674 -34.5403577)"
"osm:247873918";"SRID=4326;POINT(-58.4672455 -34.5355151)"
"osm:980003708";"SRID=4326;POINT(-58.4773176 -34.5500072)"
"osm:2150467431";"SRID=4326;POINT(-58.4572992 -34.5384723)"
"osm:247919553";"SRID=4326;POINT(-58.4674147 -34.5479135)"
"osm:256241743";"SRID=4326;POINT(-58.4890228 -34.5421579)"
"osm:2288713718";"SRID=4326;POINT(-58.4635268 -34.5415371)"
"osm:166596681";"SRID=4326;POINT(-58.4732058 -34.5491914)"
"osm:2968205636";"SRID=4326;POINT(-58.4588231 -34.5431974)"
"osm:241045375";"SRID=4326;POINT(-58.4616516 -34.5435562)"
"osm:1058785029";"SRID=4326;POINT(-58.4618569 -34.5402481)"
"osm:2150338013";"SRID=4326;POINT(-58.4599263 -34.5363373)"
"osm:2288713715";"SRID=4326;POINT(-58.4630352 -34.5414131)"
"osm:191931815";"SRID=4326;POINT(-58.4532555 -34.5543494)"
"osm:2328495901";"SRID=4326;POINT(-58.4764989 -34.5371952)"
"osm:245222093";"SRID=4326;POINT(-58.4767041 -34.5492074)"
"osm:196313487";"SRID=4326;POINT(-58.4708841 -34.537931)"
"osm:206176539";"SRID=4326;POINT(-58.4524489 -34.555297)"
"osm:86992774";"SRID=4326;POINT(-58.4787899 -34.547977)"
"osm:241898415";"SRID=4326;POINT(-58.4749 -34.5457167)"
"osm:672958703";"SRID=4326;POINT(-58.4645895 -34.5365922)"
"osm:247901253";"SRID=4326;POINT(-58.4742849 -34.537923)"
"osm:243459633";"SRID=4326;POINT(-58.4661178 -34.5478972)"
"osm:2422725628";"SRID=4326;POINT(-58.4682716 -34.5490258)"
"osm:247900914";"SRID=4326;POINT(-58.47702 -34.539646)"
"osm:243459635";"SRID=4326;POINT(-58.4651701 -34.5474161)"
"osm:241895627";"SRID=4326;POINT(-58.4698603 -34.5488267)"
"osm:245221999";"SRID=4326;POINT(-58.4643978 -34.5439344)"
"osm:2288713266";"SRID=4326;POINT(-58.4660939 -34.5354261)"
"osm:980003725";"SRID=4326;POINT(-58.4806885 -34.5492371)"
"osm:2088088803";"SRID=4326;POINT(-58.4739152 -34.5415618)"
"osm:2980312933";"SRID=4326;POINT(-58.4774032 -34.5358518)"
"osm:673395680";"SRID=4326;POINT(-58.4627275 -34.5368368)"
"osm:180276169";"SRID=4326;POINT(-58.4636235 -34.5530621)"
"osm:247901149";"SRID=4326;POINT(-58.4772744 -34.5391818)"
"osm:1058785052";"SRID=4326;POINT(-58.4684014 -34.548334)"
"osm:247901054";"SRID=4326;POINT(-58.4755403 -34.5384583)"
"osm:1870877792";"SRID=4326;POINT(-58.458827 -34.5453067)"
"osm:2090587438";"SRID=4326;POINT(-58.4752534 -34.5392039)"
"osm:2151718692";"SRID=4326;POINT(-58.4797153 -34.5490962)"
"osm:2090586904";"SRID=4326;POINT(-58.4758944 -34.5382184)"
"osm:672958706";"SRID=4326;POINT(-58.462551 -34.5357879)"
"osm:2267235283";"SRID=4326;POINT(-58.4629972 -34.5415188)"
"osm:89585860";"SRID=4326;POINT(-58.4748964 -34.5400021)"
"osm:2288713725";"SRID=4326;POINT(-58.4634616 -34.5417178)"
"osm:247874129";"SRID=4326;POINT(-58.4675641 -34.5355626)"
"osm:783004904";"SRID=4326;POINT(-58.4675858 -34.5348554)"
"osm:2090586732";"SRID=4326;POINT(-58.4765241 -34.537588)"
"osm:2288713730";"SRID=4326;POINT(-58.4565632 -34.5522385)"
"osm:2090587444";"SRID=4326;POINT(-58.4759021 -34.5394995)"
"osm:241003039";"SRID=4326;POINT(-58.4507645 -34.5407992)"
"osm:247901270";"SRID=4326;POINT(-58.4730632 -34.5379785)"
"osm:247901141";"SRID=4326;POINT(-58.4761043 -34.5383028)"
"osm:256238281";"SRID=4326;POINT(-58.4854442 -34.5404328)"
"osm:196301847";"SRID=4326;POINT(-58.4604767 -34.5451239)"
"osm:2090586703";"SRID=4326;POINT(-58.469084 -34.5358515)"
"osm:241003139";"SRID=4326;POINT(-58.4610877 -34.5351749)"
"osm:2088088813";"SRID=4326;POINT(-58.4727938 -34.5430669)"
"osm:821348427";"SRID=4326;POINT(-58.4778097 -34.5376752)"
"osm:241898606";"SRID=4326;POINT(-58.4792434 -34.5461963)"
"osm:245221784";"SRID=4326;POINT(-58.4681761 -34.5398165)"
"osm:1113178931";"SRID=4326;POINT(-58.4508545 -34.5407076)"
"osm:2151742057";"SRID=4326;POINT(-58.4790741 -34.5491646)"
"osm:196301889";"SRID=4326;POINT(-58.4611994 -34.5476058)"
"osm:241898397";"SRID=4326;POINT(-58.4734278 -34.5461693)"
"osm:247887995";"SRID=4326;POINT(-58.4725022 -34.5373332)"
"osm:2151726479";"SRID=4326;POINT(-58.47881 -34.5489549)"
"osm:252417472";"SRID=4326;POINT(-58.479503 -34.5375967)"
"osm:2614275316";"SRID=4326;POINT(-58.4766168 -34.5385533)"
"osm:1870877794";"SRID=4326;POINT(-58.459545 -34.5447153)"
"osm:2151733416";"SRID=4326;POINT(-58.4730884 -34.5494123)"
"osm:241898394";"SRID=4326;POINT(-58.4754793 -34.5468654)"
"osm:2088088793";"SRID=4326;POINT(-58.4749885 -34.5401614)"
"osm:247873905";"SRID=4326;POINT(-58.4677988 -34.5352959)"
"osm:2328495896";"SRID=4326;POINT(-58.4767405 -34.5371596)"
"osm:196301383";"SRID=4326;POINT(-58.4594647 -34.5499648)"
"osm:2328495888";"SRID=4326;POINT(-58.4757676 -34.5370407)"
"usig:464";"SRID=4326;POINT(-58.4693657536102 -34.5435025343204)"
"osm:1006208620";"SRID=4326;POINT(-58.4706587 -34.5372757)"
"osm:2288713270";"SRID=4326;POINT(-58.4669621 -34.5355331)"
"osm:673775701";"SRID=4326;POINT(-58.4775081 -34.5399006)"
"osm:2325659147";"SRID=4326;POINT(-58.4759244 -34.5374718)"
"osm:89204747";"SRID=4326;POINT(-58.4565057 -34.552373)"
"osm:2090587442";"SRID=4326;POINT(-58.4774936 -34.539338)"
"osm:337410347";"SRID=4326;POINT(-58.4787806 -34.5381867)"
"osm:256238238";"SRID=4326;POINT(-58.4801201 -34.5343346)"
"osm:196301760";"SRID=4326;POINT(-58.4635297 -34.5444734)"
"osm:791842722";"SRID=4326;POINT(-58.468547 -34.5400002)"
"osm:1006208631";"SRID=4326;POINT(-58.4600301 -34.5362434)"
"osm:252417529";"SRID=4326;POINT(-58.477616 -34.5354276)"
"osm:241895675";"SRID=4326;POINT(-58.4767378 -34.552251)"
"osm:241004490";"SRID=4326;POINT(-58.4550327 -34.539395)"
"osm:1870877790";"SRID=4326;POINT(-58.45495 -34.5485603)"
"osm:177417862";"SRID=4326;POINT(-58.4548075 -34.5489686)"
"osm:247873830";"SRID=4326;POINT(-58.4689857 -34.5358667)"
"osm:196313556";"SRID=4326;POINT(-58.4658878 -34.5446887)"
"osm:245221965";"SRID=4326;POINT(-58.46563 -34.5416273)"
"osm:1006208619";"SRID=4326;POINT(-58.4682392 -34.5361795)"
"osm:2433252053";"SRID=4326;POINT(-58.4742607 -34.5408653)"
"osm:247901159";"SRID=4326;POINT(-58.4768502 -34.5398079)"
"osm:247917664";"SRID=4326;POINT(-58.4689555 -34.5370004)"
"osm:2010573159";"SRID=4326;POINT(-58.4798472 -34.5491919)"
"osm:247873910";"SRID=4326;POINT(-58.4676155 -34.5356835)"
"osm:247901118";"SRID=4326;POINT(-58.4768527 -34.539124)"
"osm:1577477521";"SRID=4326;POINT(-58.4619727 -34.5491049)"
"osm:1229516649";"SRID=4326;POINT(-58.4550352 -34.5486005)"
"osm:673395666";"SRID=4326;POINT(-58.4661073 -34.5370162)"
"osm:790662093";"SRID=4326;POINT(-58.478875 -34.5372922)"
"osm:247874135";"SRID=4326;POINT(-58.4667495 -34.535608)"
"osm:673395674";"SRID=4326;POINT(-58.4658357 -34.5368787)"
"osm:673395675";"SRID=4326;POINT(-58.4655891 -34.5372204)"
"osm:421730984";"SRID=4326;POINT(-58.4736177 -34.5350599)"
"osm:790662071";"SRID=4326;POINT(-58.4806612 -34.5391072)"
"osm:793142419";"SRID=4326;POINT(-58.4703543 -34.537432)"
"osm:2088088828";"SRID=4326;POINT(-58.4686351 -34.5485759)"
"osm:89585869";"SRID=4326;POINT(-58.4651999 -34.5553566)"
"osm:2332626581";"SRID=4326;POINT(-58.4755483 -34.5370591)"
"osm:1113178982";"SRID=4326;POINT(-58.4498212 -34.5407104)"
"osm:224099093";"SRID=4326;POINT(-58.4672662 -34.5393552)"
"osm:2933621502";"SRID=4326;POINT(-58.4574892 -34.5456569)"
"osm:32385604";"SRID=4326;POINT(-58.465316 -34.5383153)"
"osm:613968196";"SRID=4326;POINT(-58.4733273 -34.5372596)"
"osm:247874144";"SRID=4326;POINT(-58.467331 -34.5352141)"
"osm:241898496";"SRID=4326;POINT(-58.4725946 -34.5430053)"
"osm:247901210";"SRID=4326;POINT(-58.4752652 -34.5390248)"
"osm:247874126";"SRID=4326;POINT(-58.467612 -34.5351932)"
"osm:245222072";"SRID=4326;POINT(-58.4776215 -34.5495144)"
"osm:247901127";"SRID=4326;POINT(-58.477384 -34.5396512)"
"osm:196301915";"SRID=4326;POINT(-58.4638343 -34.5456139)"
"osm:252531692";"SRID=4326;POINT(-58.4813612 -34.5394253)"
"osm:196313625";"SRID=4326;POINT(-58.4691759 -34.5454441)"
"osm:89585863";"SRID=4326;POINT(-58.4728797 -34.5450441)"
"osm:2151726478";"SRID=4326;POINT(-58.4786001 -34.5479058)"
"osm:243459639";"SRID=4326;POINT(-58.4654856 -34.5487331)"
"osm:1113178941";"SRID=4326;POINT(-58.4498138 -34.5410523)"
"osm:247873853";"SRID=4326;POINT(-58.4679448 -34.5358064)"
"osm:247873866";"SRID=4326;POINT(-58.467844 -34.5358683)"
"osm:1997760512";"SRID=4326;POINT(-58.4657864 -34.5426925)"
"osm:166598668";"SRID=4326;POINT(-58.4740806 -34.5496733)"
"osm:247901271";"SRID=4326;POINT(-58.4776545 -34.5393813)"
"osm:256238044";"SRID=4326;POINT(-58.4850348 -34.5271821)"
"osm:1058784996";"SRID=4326;POINT(-58.4656167 -34.5467625)"
"osm:1006208562";"SRID=4326;POINT(-58.462802 -34.5484541)"
"osm:767517639";"SRID=4326;POINT(-58.4680487 -34.5356502)"
"osm:2288713326";"SRID=4326;POINT(-58.4698649 -34.5364527)"
"osm:790591979";"SRID=4326;POINT(-58.4748221 -34.5413899)"
"osm:2151733425";"SRID=4326;POINT(-58.4751785 -34.5498555)"
"osm:2723597836";"SRID=4326;POINT(-58.4590052 -34.5370213)"
"osm:241898858";"SRID=4326;POINT(-58.4812644 -34.5481534)"
"osm:2090586719";"SRID=4326;POINT(-58.4755719 -34.5370177)"
"osm:247873850";"SRID=4326;POINT(-58.4673765 -34.5357977)"
"osm:241003058";"SRID=4326;POINT(-58.4545335 -34.5403958)"
"osm:32382083";"SRID=4326;POINT(-58.4541853 -34.5405169)"
"osm:2090586702";"SRID=4326;POINT(-58.4681063 -34.5358407)"
"usig:13378";"SRID=4326;POINT(-58.4686539279769 -34.5410034204483)"
"osm:1229516612";"SRID=4326;POINT(-58.4550882 -34.5487042)"
"osm:247873817";"SRID=4326;POINT(-58.4666664 -34.5353857)"
"osm:2151733449";"SRID=4326;POINT(-58.4762645 -34.5500211)"
"osm:2088088783";"SRID=4326;POINT(-58.4758025 -34.5383647)"
"osm:2924096501";"SRID=4326;POINT(-58.4635408 -34.5411668)"
"osm:196312941";"SRID=4326;POINT(-58.4731216 -34.5422765)"
"osm:256238062";"SRID=4326;POINT(-58.4838198 -34.5289235)"
"osm:1113178955";"SRID=4326;POINT(-58.449669 -34.5412335)"
"osm:2554672306";"SRID=4326;POINT(-58.4815411 -34.5440802)"
"osm:247901008";"SRID=4326;POINT(-58.4743887 -34.5379816)"
"osm:180277957";"SRID=4326;POINT(-58.457649 -34.5490198)"
"osm:196312868";"SRID=4326;POINT(-58.4714334 -34.5445794)"
"osm:2915256501";"SRID=4326;POINT(-58.4690541 -34.5480546)"
"osm:2328495884";"SRID=4326;POINT(-58.4753891 -34.5369982)"
"osm:613968191";"SRID=4326;POINT(-58.4749031 -34.5378105)"
"osm:241898919";"SRID=4326;POINT(-58.4826486 -34.5446189)"
"usig:454";"SRID=4326;POINT(-58.4708756113821 -34.5432003297914)"
"osm:2150338070";"SRID=4326;POINT(-58.4536479 -34.5406705)"
"osm:2090587445";"SRID=4326;POINT(-58.4774241 -34.5395452)"
"osm:2090587451";"SRID=4326;POINT(-58.4772203 -34.5397903)"
"osm:196312610";"SRID=4326;POINT(-58.465331 -34.5453817)"
"osm:2151733422";"SRID=4326;POINT(-58.4741128 -34.549614)"
"osm:1058785021";"SRID=4326;POINT(-58.4644479 -34.5438185)"
"osm:2979370033";"SRID=4326;POINT(-58.4679416 -34.5488486)"
"osm:421731001";"SRID=4326;POINT(-58.4764482 -34.5337282)"
"osm:166596679";"SRID=4326;POINT(-58.4710883 -34.5487659)"
"osm:245222130";"SRID=4326;POINT(-58.4706517 -34.5471726)"
"osm:245222139";"SRID=4326;POINT(-58.4720296 -34.5456676)"
"osm:247873816";"SRID=4326;POINT(-58.4667003 -34.5355232)"
"osm:1038868213";"SRID=4326;POINT(-58.4699655 -34.5486102)"
"osm:673395682";"SRID=4326;POINT(-58.45347 -34.5415818)"
"osm:2288713278";"SRID=4326;POINT(-58.4671786 -34.5356789)"
"osm:2321436265";"SRID=4326;POINT(-58.4666205 -34.535639)"
"osm:247901000";"SRID=4326;POINT(-58.4741448 -34.5382461)"
"osm:2621690452";"SRID=4326;POINT(-58.4774405 -34.5357766)"
"osm:2288713254";"SRID=4326;POINT(-58.4657412 -34.5351355)"
"osm:196301396";"SRID=4326;POINT(-58.4585532 -34.5494922)"
"osm:245221916";"SRID=4326;POINT(-58.4675729 -34.5359562)"
"osm:247901079";"SRID=4326;POINT(-58.4739024 -34.5378391)"
"osm:1997760509";"SRID=4326;POINT(-58.4655353 -34.542655)"
"osm:2857404065";"SRID=4326;POINT(-58.4650709 -34.547369)"
"osm:1006208584";"SRID=4326;POINT(-58.4678285 -34.5373764)"
"osm:1768289896";"SRID=4326;POINT(-58.47729 -34.5498994)"
"osm:2461097945";"SRID=4326;POINT(-58.4627117 -34.5494397)"
"osm:2151735233";"SRID=4326;POINT(-58.4709799 -34.5489795)"
"osm:247919548";"SRID=4326;POINT(-58.4655665 -34.5468227)"
"osm:2288713252";"SRID=4326;POINT(-58.4678555 -34.5351069)"
"osm:247873874";"SRID=4326;POINT(-58.4718391 -34.5374595)"
"osm:166596682";"SRID=4326;POINT(-58.4742612 -34.549375)"
"osm:290550417";"SRID=4326;POINT(-58.4653494 -34.5466201)"
"osm:206175751";"SRID=4326;POINT(-58.4686378 -34.5519857)"
"osm:2921963702";"SRID=4326;POINT(-58.4683878 -34.5484915)"
"osm:180277955";"SRID=4326;POINT(-58.4554552 -34.5518124)"
"osm:247898633";"SRID=4326;POINT(-58.4796894 -34.5402868)"
"osm:247877436";"SRID=4326;POINT(-58.4754264 -34.5394176)"
"osm:196312898";"SRID=4326;POINT(-58.4664223 -34.5409976)"
"osm:2151733436";"SRID=4326;POINT(-58.472103 -34.5492223)"
"osm:247898632";"SRID=4326;POINT(-58.4795545 -34.5402774)"
"osm:821348446";"SRID=4326;POINT(-58.4777325 -34.5377837)"
"osm:2838806801";"SRID=4326;POINT(-58.4541732 -34.5485305)"
"osm:2288713285";"SRID=4326;POINT(-58.4686793 -34.5357944)"
"osm:247901107";"SRID=4326;POINT(-58.4755708 -34.5385509)"
"osm:2090586710";"SRID=4326;POINT(-58.4699858 -34.5362518)"
"osm:1678926672";"SRID=4326;POINT(-58.4639858 -34.5467904)"
"osm:2288713262";"SRID=4326;POINT(-58.4677119 -34.5353603)"
"osm:241004448";"SRID=4326;POINT(-58.4518685 -34.5403549)"
"osm:2354397450";"SRID=4326;POINT(-58.476509 -34.5385666)"
"osm:196301566";"SRID=4326;POINT(-58.4587519 -34.5474609)"
"osm:672958704";"SRID=4326;POINT(-58.4643964 -34.5366452)"
"osm:241898684";"SRID=4326;POINT(-58.4862236 -34.5518352)"
"osm:2996966733";"SRID=4326;POINT(-58.4636028 -34.5410672)"
"osm:224201335";"SRID=4326;POINT(-58.4879594 -34.5443103)"
"osm:2328495882";"SRID=4326;POINT(-58.4756101 -34.5369787)"
"osm:2090586945";"SRID=4326;POINT(-58.4740562 -34.5382542)"
"osm:247901095";"SRID=4326;POINT(-58.4737149 -34.5377965)"
"osm:2090587446";"SRID=4326;POINT(-58.4758598 -34.5395714)"
"osm:2151742063";"SRID=4326;POINT(-58.4780575 -34.5493267)"
"osm:2840955402";"SRID=4326;POINT(-58.4661354 -34.53697)"
"osm:2088088778";"SRID=4326;POINT(-58.4745196 -34.5378862)"
"osm:2325658249";"SRID=4326;POINT(-58.4758112 -34.537053)"
"osm:241002955";"SRID=4326;POINT(-58.4509638 -34.5407605)"
"osm:2968217134";"SRID=4326;POINT(-58.4587389 -34.543035)"
"osm:241898666";"SRID=4326;POINT(-58.4747484 -34.5408748)"
"osm:2090586704";"SRID=4326;POINT(-58.4681561 -34.5359007)"
"osm:673771379";"SRID=4326;POINT(-58.4776074 -34.5398089)"
"osm:247918121";"SRID=4326;POINT(-58.4651175 -34.5434417)"
"osm:2088088821";"SRID=4326;POINT(-58.4697911 -34.5471457)"
"osm:247900908";"SRID=4326;POINT(-58.4779779 -34.5401475)"
"osm:241898612";"SRID=4326;POINT(-58.4796942 -34.5454056)"
"osm:247884495";"SRID=4326;POINT(-58.472686 -34.544986)"
"osm:2090586727";"SRID=4326;POINT(-58.4732444 -34.5373644)"
"osm:1006208578";"SRID=4326;POINT(-58.4649632 -34.5441748)"
"osm:32376978";"SRID=4326;POINT(-58.4759501 -34.5389809)"
"osm:97957443";"SRID=4326;POINT(-58.452825 -34.5528579)"
"osm:247873826";"SRID=4326;POINT(-58.4677327 -34.5350317)"
"osm:613899457";"SRID=4326;POINT(-58.4638728 -34.5422612)"
"osm:245221830";"SRID=4326;POINT(-58.4693399 -34.5382898)"
"osm:245222038";"SRID=4326;POINT(-58.4760473 -34.548018)"
"osm:1058785027";"SRID=4326;POINT(-58.4630861 -34.541278)"
"osm:1577477533";"SRID=4326;POINT(-58.4630957 -34.549591)"
"osm:224099110";"SRID=4326;POINT(-58.465136 -34.5442905)"
"osm:1678926695";"SRID=4326;POINT(-58.4644818 -34.5470889)"
"osm:180277958";"SRID=4326;POINT(-58.4611021 -34.544257)"
"osm:241898637";"SRID=4326;POINT(-58.4808953 -34.5429028)"
"osm:32382612";"SRID=4326;POINT(-58.4615144 -34.534857)"
"osm:247873821";"SRID=4326;POINT(-58.4667798 -34.5349697)"
"osm:1997760524";"SRID=4326;POINT(-58.4657572 -34.542746)"
"osm:97957460";"SRID=4326;POINT(-58.4521157 -34.5536699)"
"osm:2980313033";"SRID=4326;POINT(-58.4773275 -34.5360028)"
"osm:89217883";"SRID=4326;POINT(-58.4701736 -34.5500859)"
"osm:2116861389";"SRID=4326;POINT(-58.4665998 -34.5358256)"
"osm:1006208599";"SRID=4326;POINT(-58.4683093 -34.536215)"
"osm:196312591";"SRID=4326;POINT(-58.4617303 -34.5520802)"
"osm:290637123";"SRID=4326;POINT(-58.4666328 -34.5399971)"
"osm:241895629";"SRID=4326;POINT(-58.4734378 -34.5505156)"
"osm:247873875";"SRID=4326;POINT(-58.4663963 -34.5348717)"
"osm:241895835";"SRID=4326;POINT(-58.4772988 -34.5407546)"
"osm:241898786";"SRID=4326;POINT(-58.4848345 -34.5468298)"
"osm:247888234";"SRID=4326;POINT(-58.4872374 -34.5439901)"
"osm:2433252058";"SRID=4326;POINT(-58.4742054 -34.5409261)"
"osm:247873912";"SRID=4326;POINT(-58.467325 -34.5357613)"
"osm:196301662";"SRID=4326;POINT(-58.4606113 -34.5439906)"
"osm:1006208648";"SRID=4326;POINT(-58.468378 -34.5360674)"
"osm:247901134";"SRID=4326;POINT(-58.4770002 -34.5398038)"
"osm:2288713286";"SRID=4326;POINT(-58.4671838 -34.5358185)"
"osm:252531572";"SRID=4326;POINT(-58.4937695 -34.5441559)"
"osm:1187213507";"SRID=4326;POINT(-58.4645004 -34.5438848)"
"osm:247900910";"SRID=4326;POINT(-58.478878 -34.5404959)"
"osm:245226162";"SRID=4326;POINT(-58.4657496 -34.5466024)"
"osm:196301578";"SRID=4326;POINT(-58.4674641 -34.5497273)"
"osm:247901205";"SRID=4326;POINT(-58.4725812 -34.5377499)"
"osm:2919630903";"SRID=4326;POINT(-58.4777519 -34.5418422)"
"osm:1678926658";"SRID=4326;POINT(-58.4632951 -34.5465837)"
"osm:291838593";"SRID=4326;POINT(-58.4653624 -34.541979)"
"osm:241898693";"SRID=4326;POINT(-58.4844042 -34.5508802)"
"osm:196313569";"SRID=4326;POINT(-58.4663906 -34.5440182)"
"osm:1577477523";"SRID=4326;POINT(-58.4621809 -34.5491228)"
"osm:32382085";"SRID=4326;POINT(-58.4495548 -34.5424862)"
"osm:247894635";"SRID=4326;POINT(-58.4725651 -34.5378472)"
"osm:247901249";"SRID=4326;POINT(-58.4740775 -34.5383514)"
"osm:2150467433";"SRID=4326;POINT(-58.455734 -34.5392454)"
"osm:2325657266";"SRID=4326;POINT(-58.4763569 -34.5370199)"
"osm:1113178917";"SRID=4326;POINT(-58.4486625 -34.5409859)"
"osm:421730884";"SRID=4326;POINT(-58.4792318 -34.5291022)"
"osm:247879336";"SRID=4326;POINT(-58.4754039 -34.5401662)"
"osm:241898672";"SRID=4326;POINT(-58.4877886 -34.5526165)"
"osm:241898439";"SRID=4326;POINT(-58.4798741 -34.5464287)"
"osm:166596684";"SRID=4326;POINT(-58.4764137 -34.5498044)"
"osm:247888141";"SRID=4326;POINT(-58.4796657 -34.540558)"
"osm:1113178921";"SRID=4326;POINT(-58.4489844 -34.5405176)"
"osm:247900895";"SRID=4326;POINT(-58.4761324 -34.5393522)"
"osm:247874125";"SRID=4326;POINT(-58.4674032 -34.5348066)"
"osm:2116861415";"SRID=4326;POINT(-58.4670492 -34.5360452)"
"osm:206176518";"SRID=4326;POINT(-58.4730752 -34.5401379)"
"osm:247894636";"SRID=4326;POINT(-58.4722129 -34.5376337)"
"osm:2328495915";"SRID=4326;POINT(-58.4762825 -34.5376055)"
"osm:247917670";"SRID=4326;POINT(-58.4630851 -34.5415114)"
"osm:247901005";"SRID=4326;POINT(-58.4741896 -34.5380929)"
"osm:290550416";"SRID=4326;POINT(-58.4651278 -34.5461984)"
"osm:249456839";"SRID=4326;POINT(-58.4650091 -34.5452575)"
"osm:249455084";"SRID=4326;POINT(-58.4663291 -34.5355418)"
"osm:241895824";"SRID=4326;POINT(-58.4751881 -34.5514483)"
"osm:245776437";"SRID=4326;POINT(-58.4802977 -34.5491584)"
"osm:2288713269";"SRID=4326;POINT(-58.4676704 -34.5354923)"
"osm:1997760481";"SRID=4326;POINT(-58.4653346 -34.5423795)"
"osm:247919547";"SRID=4326;POINT(-58.4663331 -34.5475782)"
"osm:241895636";"SRID=4326;POINT(-58.4793042 -34.5414202)"
"osm:247894631";"SRID=4326;POINT(-58.474345 -34.5387671)"
"osm:2088088791";"SRID=4326;POINT(-58.4750709 -34.5400694)"
"osm:247901013";"SRID=4326;POINT(-58.4744964 -34.5379656)"
"osm:247894633";"SRID=4326;POINT(-58.473078 -34.5381558)"
"osm:196301901";"SRID=4326;POINT(-58.4602721 -34.5471562)"
"osm:2328495876";"SRID=4326;POINT(-58.475796 -34.5368157)"
"osm:1113179019";"SRID=4326;POINT(-58.4533114 -34.5398548)"
"osm:2090587399";"SRID=4326;POINT(-58.4758797 -34.5390955)"
"osm:241898894";"SRID=4326;POINT(-58.4841628 -34.5443042)"
"osm:32382609";"SRID=4326;POINT(-58.453741 -34.5399604)"
"osm:1113178952";"SRID=4326;POINT(-58.448777 -34.5408225)"
"osm:2151742047";"SRID=4326;POINT(-58.4772797 -34.5501678)"
"osm:2090586705";"SRID=4326;POINT(-58.4674447 -34.5359353)"
"osm:1075314519";"SRID=4326;POINT(-58.4539338 -34.5483586)"
"osm:247901119";"SRID=4326;POINT(-58.4771117 -34.5392122)"
"osm:245226150";"SRID=4326;POINT(-58.4693072 -34.547423)"
"osm:241003095";"SRID=4326;POINT(-58.4518768 -34.541232)"
"osm:1997760521";"SRID=4326;POINT(-58.4658577 -34.5427248)"
"osm:196301827";"SRID=4326;POINT(-58.4623436 -34.5460499)"
"osm:1781544559";"SRID=4326;POINT(-58.4594153 -34.537766)"
"osm:241898601";"SRID=4326;POINT(-58.4813387 -34.5420505)"
"osm:243459705";"SRID=4326;POINT(-58.4597032 -34.5496404)"
"osm:245222117";"SRID=4326;POINT(-58.4726851 -34.5478594)"
"osm:673395654";"SRID=4326;POINT(-58.465334 -34.5379205)"
"osm:247900936";"SRID=4326;POINT(-58.4747744 -34.5386609)"
"osm:245221789";"SRID=4326;POINT(-58.4668113 -34.5400835)"
"osm:241898649";"SRID=4326;POINT(-58.4789071 -34.5422329)"
"osm:196301770";"SRID=4326;POINT(-58.4625736 -34.5440083)"
"osm:247901020";"SRID=4326;POINT(-58.474694 -34.538001)"
"osm:2328495914";"SRID=4326;POINT(-58.4763292 -34.537517)"
"osm:1038868194";"SRID=4326;POINT(-58.4687637 -34.5486109)"
"osm:2929279001";"SRID=4326;POINT(-58.4602974 -34.5442778)"
"osm:2968375727";"SRID=4326;POINT(-58.4762563 -34.5374906)"
"osm:2805247125";"SRID=4326;POINT(-58.4497383 -34.5406345)"
"osm:1038868185";"SRID=4326;POINT(-58.4742203 -34.5494424)"
"osm:166598672";"SRID=4326;POINT(-58.4709493 -34.5490383)"
"osm:243459641";"SRID=4326;POINT(-58.4664524 -34.5492071)"
"osm:245221777";"SRID=4326;POINT(-58.464837 -34.5391018)"
"osm:247900892";"SRID=4326;POINT(-58.4760364 -34.5393479)"
"osm:247888041";"SRID=4326;POINT(-58.4748886 -34.5379051)"
"osm:245221797";"SRID=4326;POINT(-58.4687734 -34.5390323)"
"osm:245228307";"SRID=4326;POINT(-58.4781723 -34.5487486)"
"osm:256238217";"SRID=4326;POINT(-58.4828827 -34.5349643)"
"osm:1131879548";"SRID=4326;POINT(-58.4522004 -34.5461343)"
"osm:247901139";"SRID=4326;POINT(-58.4760689 -34.5394166)"
"osm:247919546";"SRID=4326;POINT(-58.4673071 -34.5480707)"
"osm:245222010";"SRID=4326;POINT(-58.4639131 -34.5428468)"
"osm:196312796";"SRID=4326;POINT(-58.46819 -34.5468051)"
"osm:2288713276";"SRID=4326;POINT(-58.4665353 -34.5356513)"
"osm:2288713264";"SRID=4326;POINT(-58.4676541 -34.535382)"
"osm:247919564";"SRID=4326;POINT(-58.4651011 -34.545675)"
"osm:247873911";"SRID=4326;POINT(-58.4674799 -34.5357236)"
"osm:89574426";"SRID=4326;POINT(-58.4717063 -34.5496037)"
"osm:2996953334";"SRID=4326;POINT(-58.4568773 -34.5471084)"
"osm:2090587456";"SRID=4326;POINT(-58.4784201 -34.5404806)"
"osm:247874134";"SRID=4326;POINT(-58.4668831 -34.5356469)"
"osm:1113158543";"SRID=4326;POINT(-58.4589064 -34.5370665)"
"osm:2933621601";"SRID=4326;POINT(-58.4578917 -34.5460224)"
"osm:247873827";"SRID=4326;POINT(-58.4679999 -34.5352286)"
"osm:247901272";"SRID=4326;POINT(-58.4779322 -34.5395693)"
"osm:790662074";"SRID=4326;POINT(-58.4780781 -34.537858)"
"osm:2288713261";"SRID=4326;POINT(-58.4658681 -34.5352819)"
"osm:2090587439";"SRID=4326;POINT(-58.4752048 -34.5392775)"
"osm:2328495917";"SRID=4326;POINT(-58.4764779 -34.5376784)"
"osm:1535522543";"SRID=4326;POINT(-58.4676995 -34.537219)"
"osm:196301591";"SRID=4326;POINT(-58.4589568 -34.5454272)"
"osm:241898809";"SRID=4326;POINT(-58.4816214 -34.5494035)"
"osm:243459657";"SRID=4326;POINT(-58.4647478 -34.5515223)"
"osm:2915231502";"SRID=4326;POINT(-58.472817 -34.5426919)"
"osm:1113178928";"SRID=4326;POINT(-58.4528549 -34.5399974)"
"osm:1006208612";"SRID=4326;POINT(-58.4621789 -34.5480364)"
"osm:247901105";"SRID=4326;POINT(-58.4744882 -34.5380959)"
"osm:2772863036";"SRID=4326;POINT(-58.4670742 -34.5360038)"
"osm:247873819";"SRID=4326;POINT(-58.4666324 -34.5351247)"
"osm:247874068";"SRID=4326;POINT(-58.4667589 -34.5354917)"
"osm:245221922";"SRID=4326;POINT(-58.4673083 -34.5359518)"
"osm:2151742072";"SRID=4326;POINT(-58.4773441 -34.5500173)"
"osm:613899462";"SRID=4326;POINT(-58.4634369 -34.5414889)"
"osm:256238215";"SRID=4326;POINT(-58.4804714 -34.5338551)"
"osm:241898491";"SRID=4326;POINT(-58.4805436 -34.5456668)"
"osm:2325657368";"SRID=4326;POINT(-58.4758788 -34.5368458)"
"osm:206175764";"SRID=4326;POINT(-58.4777036 -34.5527757)"
"osm:241003053";"SRID=4326;POINT(-58.4548537 -34.5402639)"
"osm:243459688";"SRID=4326;POINT(-58.4617367 -34.5500207)"
"osm:247901030";"SRID=4326;POINT(-58.4755272 -34.5383975)"
"osm:790592009";"SRID=4326;POINT(-58.4800002 -34.541567)"
"osm:247901131";"SRID=4326;POINT(-58.4772882 -34.5397536)"
"osm:247874132";"SRID=4326;POINT(-58.4673176 -34.535674)"
"osm:241898542";"SRID=4326;POINT(-58.4790896 -34.5442377)"
"osm:1577477532";"SRID=4326;POINT(-58.4627665 -34.5494217)"
"osm:241898421";"SRID=4326;POINT(-58.4758854 -34.5460447)"
"osm:247894625";"SRID=4326;POINT(-58.4778191 -34.5402576)"
"osm:2151733430";"SRID=4326;POINT(-58.4725328 -34.5492641)"
"osm:1058784994";"SRID=4326;POINT(-58.4673726 -34.5479789)"
"osm:241952422";"SRID=4326;POINT(-58.4821868 -34.5486451)"
"osm:247874127";"SRID=4326;POINT(-58.4676446 -34.5352877)"
"osm:2288713288";"SRID=4326;POINT(-58.4674447 -34.5358587)"
"osm:2968216735";"SRID=4326;POINT(-58.4587779 -34.5431011)"
"osm:247900929";"SRID=4326;POINT(-58.475126 -34.5387823)"
"osm:906026244";"SRID=4326;POINT(-58.4549064 -34.5488708)"
"osm:256238219";"SRID=4326;POINT(-58.4852726 -34.5360846)"
"osm:243459661";"SRID=4326;POINT(-58.4628653 -34.5505572)"
"osm:247874131";"SRID=4326;POINT(-58.4674166 -34.5356517)"
"osm:2427486521";"SRID=4326;POINT(-58.4688208 -34.5485566)"
"osm:247901165";"SRID=4326;POINT(-58.4747288 -34.5388394)"
"osm:243459732";"SRID=4326;POINT(-58.4607241 -34.5506062)"
"osm:2354397449";"SRID=4326;POINT(-58.4764096 -34.5385133)"
"osm:2966910646";"SRID=4326;POINT(-58.4681212 -34.5365085)"
"osm:241898485";"SRID=4326;POINT(-58.4851859 -34.5480807)"
"osm:2090587447";"SRID=4326;POINT(-58.4752009 -34.5396862)"
"osm:241898870";"SRID=4326;POINT(-58.4823831 -34.5466242)"
"osm:247898636";"SRID=4326;POINT(-58.4766393 -34.5391625)"
"osm:247884475";"SRID=4326;POINT(-58.4698551 -34.5467253)"
"osm:245222102";"SRID=4326;POINT(-58.4746837 -34.5485126)"
"osm:2090587437";"SRID=4326;POINT(-58.4753435 -34.5391856)"
"osm:2796464869";"SRID=4326;POINT(-58.4740553 -34.5413297)"
"osm:2010573157";"SRID=4326;POINT(-58.4801502 -34.5492331)"
"osm:2915231501";"SRID=4326;POINT(-58.4730237 -34.5427565)"
"osm:166596678";"SRID=4326;POINT(-58.4699908 -34.5485574)"
"osm:241898654";"SRID=4326;POINT(-58.4779118 -34.5418914)"
"osm:2328495879";"SRID=4326;POINT(-58.4756143 -34.5368741)"
"osm:2090586878";"SRID=4326;POINT(-58.4743001 -34.5380133)"
"osm:249455042";"SRID=4326;POINT(-58.4655924 -34.5352644)"
"osm:1133534676";"SRID=4326;POINT(-58.4485258 -34.5419234)"
"osm:1870877797";"SRID=4326;POINT(-58.4572005 -34.54665)"
"osm:247873864";"SRID=4326;POINT(-58.4673133 -34.5358438)"
"osm:2090586706";"SRID=4326;POINT(-58.468482 -34.535966)"
"osm:2088088816";"SRID=4326;POINT(-58.4716182 -34.5446394)"
"osm:247900867";"SRID=4326;POINT(-58.4755769 -34.5394659)"
"osm:2328495880";"SRID=4326;POINT(-58.4755331 -34.5369303)"
"osm:89585866";"SRID=4326;POINT(-58.4672046 -34.5538919)"
"osm:2116861378";"SRID=4326;POINT(-58.4665368 -34.5357745)"
"osm:247873865";"SRID=4326;POINT(-58.4675614 -34.5358672)"
"osm:673774714";"SRID=4326;POINT(-58.4749317 -34.5390181)"
"osm:2150467427";"SRID=4326;POINT(-58.4514699 -34.540678)"
"osm:2151735244";"SRID=4326;POINT(-58.4698873 -34.5487712)"
"osm:247901267";"SRID=4326;POINT(-58.4740506 -34.5384758)"
"osm:252205668";"SRID=4326;POINT(-58.4805379 -34.5405161)"
"osm:1678926683";"SRID=4326;POINT(-58.4639205 -34.5468725)"
"osm:196301803";"SRID=4326;POINT(-58.4630005 -34.5451804)"
"osm:1113178912";"SRID=4326;POINT(-58.4503108 -34.5402333)"
"osm:243459647";"SRID=4326;POINT(-58.4649238 -34.5494986)"
"osm:1006208559";"SRID=4326;POINT(-58.4628168 -34.5484327)"
"osm:196301453";"SRID=4326;POINT(-58.4581991 -34.5482496)"
"osm:245221953";"SRID=4326;POINT(-58.4652556 -34.5403625)"
"osm:2151742054";"SRID=4326;POINT(-58.4776981 -34.5495537)"
"osm:1113179006";"SRID=4326;POINT(-58.4496333 -34.5405913)"
"osm:2151718775";"SRID=4326;POINT(-58.4805026 -34.5491947)"
"osm:241898468";"SRID=4326;POINT(-58.4762879 -34.5452087)"
"osm:2924096502";"SRID=4326;POINT(-58.4553239 -34.5484302)"
"osm:196301731";"SRID=4326;POINT(-58.4620089 -34.5426619)"
"osm:247894629";"SRID=4326;POINT(-58.4768134 -34.539882)"
"osm:1006208634";"SRID=4326;POINT(-58.4670953 -34.5392731)"
"osm:766953225";"SRID=4326;POINT(-58.4749654 -34.5404839)"
"osm:2916509814";"SRID=4326;POINT(-58.4934719 -34.5441297)"
"osm:247901152";"SRID=4326;POINT(-58.4775509 -34.5395163)"
"osm:2010573161";"SRID=4326;POINT(-58.4786424 -34.5492419)"
"osm:252417469";"SRID=4326;POINT(-58.4925453 -34.5438566)"
"osm:790668164";"SRID=4326;POINT(-58.4780968 -34.5414953)"
"osm:790591981";"SRID=4326;POINT(-58.4793338 -34.541093)"
"osm:2090586730";"SRID=4326;POINT(-58.4736413 -34.5375412)"
"osm:613899453";"SRID=4326;POINT(-58.4646144 -34.5438342)"
"osm:2090587458";"SRID=4326;POINT(-58.4795189 -34.5410648)"
"osm:256241739";"SRID=4326;POINT(-58.4926452 -34.5414358)"
"osm:1058785037";"SRID=4326;POINT(-58.4595287 -34.5380078)"
"osm:1006208627";"SRID=4326;POINT(-58.4626913 -34.5483734)"
"osm:1997760490";"SRID=4326;POINT(-58.4655446 -34.5424765)"
"osm:2090587460";"SRID=4326;POINT(-58.4797258 -34.5412239)"
"osm:1006208662";"SRID=4326;POINT(-58.4680697 -34.5365968)"
"osm:206176535";"SRID=4326;POINT(-58.4712066 -34.5392335)"
"osm:2328495906";"SRID=4326;POINT(-58.4754584 -34.5372689)"
"osm:241004532";"SRID=4326;POINT(-58.4596056 -34.5364145)"
"osm:247901157";"SRID=4326;POINT(-58.4770271 -34.5398813)"
"osm:2838806701";"SRID=4326;POINT(-58.4543178 -34.5485793)"
"osm:790592002";"SRID=4326;POINT(-58.4758295 -34.541708)"
"osm:821348432";"SRID=4326;POINT(-58.4767302 -34.5371835)"
"osm:180275562";"SRID=4326;POINT(-58.4731939 -34.5383765)"
"osm:1870877796";"SRID=4326;POINT(-58.4588047 -34.545325)"
"osm:32385179";"SRID=4326;POINT(-58.468099 -34.5489301)"
"osm:2483151051";"SRID=4326;POINT(-58.4675733 -34.5350698)"
"osm:2090587234";"SRID=4326;POINT(-58.4764435 -34.5384714)"
"osm:2933621702";"SRID=4326;POINT(-58.4572442 -34.5448646)"
"osm:247877435";"SRID=4326;POINT(-58.4721836 -34.5379385)"
"osm:256238283";"SRID=4326;POINT(-58.4878236 -34.5416042)"
"osm:224073902";"SRID=4326;POINT(-58.4589852 -34.537218)"
"osm:241895829";"SRID=4326;POINT(-58.4758615 -34.5517967)"
"osm:247873920";"SRID=4326;POINT(-58.4668655 -34.5355226)"
"osm:247888127";"SRID=4326;POINT(-58.4788041 -34.5400137)"
"osm:243459628";"SRID=4326;POINT(-58.4668765 -34.5504919)"
"osm:1577477514";"SRID=4326;POINT(-58.4639291 -34.5467698)"
"osm:247894616";"SRID=4326;POINT(-58.4826311 -34.5423405)"
"osm:2090587455";"SRID=4326;POINT(-58.4783771 -34.5403174)"
"osm:2151733444";"SRID=4326;POINT(-58.4752707 -34.549821)"
"osm:247874130";"SRID=4326;POINT(-58.467492 -34.5356186)"
"osm:241898409";"SRID=4326;POINT(-58.4778938 -34.5467137)"
"osm:256238250";"SRID=4326;POINT(-58.4914622 -34.5408799)"
"osm:247873833";"SRID=4326;POINT(-58.4669849 -34.535835)"
"osm:1113178975";"SRID=4326;POINT(-58.4504648 -34.5403732)"
"osm:196301872";"SRID=4326;POINT(-58.4617653 -34.5468362)"
"osm:241898502";"SRID=4326;POINT(-58.4787043 -34.5450688)"
"osm:1113178979";"SRID=4326;POINT(-58.4485478 -34.5407783)"
"osm:247873919";"SRID=4326;POINT(-58.4670691 -34.5355284)"
"osm:245222065";"SRID=4326;POINT(-58.4720957 -34.5466605)"
"osm:247917667";"SRID=4326;POINT(-58.4631508 -34.5413197)"
"osm:2968206634";"SRID=4326;POINT(-58.4584883 -34.5427852)"
"osm:2090586902";"SRID=4326;POINT(-58.4740753 -34.5380848)"
"osm:1997760499";"SRID=4326;POINT(-58.4655625 -34.5425909)"
"osm:2354397455";"SRID=4326;POINT(-58.4791026 -34.5408679)"
"osm:247901250";"SRID=4326;POINT(-58.4740527 -34.5381665)"
"osm:247901254";"SRID=4326;POINT(-58.4743907 -34.5378923)"
"osm:241003132";"SRID=4326;POINT(-58.4618962 -34.5359395)"
"osm:241898690";"SRID=4326;POINT(-58.4853039 -34.5513733)"
"osm:247901212";"SRID=4326;POINT(-58.4751368 -34.5389169)"
"osm:2845227202";"SRID=4326;POINT(-58.4629527 -34.5417947)"
"osm:245222025";"SRID=4326;POINT(-58.479029 -34.5490942)"
"osm:245221881";"SRID=4326;POINT(-58.4662937 -34.5367101)"
"osm:1113178956";"SRID=4326;POINT(-58.4484244 -34.5409374)"
"osm:241003034";"SRID=4326;POINT(-58.4512299 -34.540786)"
"osm:241898775";"SRID=4326;POINT(-58.483664 -34.5483637)"
"osm:790662072";"SRID=4326;POINT(-58.4780365 -34.5392608)"
"osm:1038868184";"SRID=4326;POINT(-58.4720934 -34.5490442)"
"osm:196301958";"SRID=4326;POINT(-58.4626853 -34.5473036)"
"osm:247900937";"SRID=4326;POINT(-58.4744902 -34.5385825)"
"osm:2010573160";"SRID=4326;POINT(-58.4788337 -34.5492002)"
"osm:2311672744";"SRID=4326;POINT(-58.4704914 -34.5489493)"
"osm:206176520";"SRID=4326;POINT(-58.4736996 -34.5393866)"
"osm:1992527399";"SRID=4326;POINT(-58.4597703 -34.5377703)"
"osm:247901144";"SRID=4326;POINT(-58.476456 -34.5388814)"
"osm:241898797";"SRID=4326;POINT(-58.485989 -34.5452886)"
"osm:247873860";"SRID=4326;POINT(-58.4663364 -34.5353696)"
"osm:1870877791";"SRID=4326;POINT(-58.4563829 -34.5473157)"
"osm:241898837";"SRID=4326;POINT(-58.4850791 -34.5447933)"
"osm:673771375";"SRID=4326;POINT(-58.4735581 -34.5380111)"
"osm:2151742043";"SRID=4326;POINT(-58.4773709 -34.5499602)"
"osm:245226169";"SRID=4326;POINT(-58.4676818 -34.5475684)"
"osm:241003103";"SRID=4326;POINT(-58.4582045 -34.5378772)"
"osm:1577477515";"SRID=4326;POINT(-58.464405 -34.5471767)"
"osm:247918114";"SRID=4326;POINT(-58.464195 -34.5429336)"
"osm:256238195";"SRID=4326;POINT(-58.4813324 -34.5325056)"
"osm:2088088781";"SRID=4326;POINT(-58.4762837 -34.5380586)"
"osm:2328495907";"SRID=4326;POINT(-58.4764473 -34.5372931)"
"osm:256238248";"SRID=4326;POINT(-58.4891204 -34.539739)"
"osm:1113178927";"SRID=4326;POINT(-58.4492736 -34.5405766)"
"osm:247873811";"SRID=4326;POINT(-58.4680731 -34.535516)"
"osm:790591986";"SRID=4326;POINT(-58.4767016 -34.5419994)"
"osm:241898913";"SRID=4326;POINT(-58.4832316 -34.5438472)"
"osm:196313916";"SRID=4326;POINT(-58.4719926 -34.5416881)"
"osm:247874099";"SRID=4326;POINT(-58.4665251 -34.5353149)"
"osm:196313399";"SRID=4326;POINT(-58.4691561 -34.5403115)"
"osm:196313459";"SRID=4326;POINT(-58.4702958 -34.538779)"
"osm:2090586716";"SRID=4326;POINT(-58.4757949 -34.5369393)"
"osm:2840955202";"SRID=4326;POINT(-58.4595182 -34.5449771)"
"osm:166598673";"SRID=4326;POINT(-58.4684397 -34.5485092)"
"osm:2151733433";"SRID=4326;POINT(-58.472522 -34.5493001)"
"osm:241003073";"SRID=4326;POINT(-58.4525408 -34.5409729)"
"osm:247888087";"SRID=4326;POINT(-58.4777354 -34.5392036)"
"osm:241898507";"SRID=4326;POINT(-58.4776966 -34.5447263)"
"osm:673771373";"SRID=4326;POINT(-58.4736079 -34.5378928)"
"osm:247921764";"SRID=4326;POINT(-58.4553131 -34.5408188)"
"osm:249456837";"SRID=4326;POINT(-58.4648091 -34.542724)"
"osm:243459675";"SRID=4326;POINT(-58.4644059 -34.5470528)"
"osm:247898635";"SRID=4326;POINT(-58.4800602 -34.5402919)"
"osm:252418149";"SRID=4326;POINT(-58.4787965 -34.5330787)"
"osm:2088088825";"SRID=4326;POINT(-58.4688255 -34.5483391)"
"osm:2090586720";"SRID=4326;POINT(-58.4755326 -34.5371476)"
"osm:613968193";"SRID=4326;POINT(-58.4753543 -34.5369231)"
"usig:432";"SRID=4326;POINT(-58.4690116229149 -34.5422561822543)"
"osm:2809271044";"SRID=4326;POINT(-58.4684878 -34.5354428)"
"osm:2847300602";"SRID=4326;POINT(-58.4588051 -34.5455519)"
"osm:790662088";"SRID=4326;POINT(-58.4788514 -34.5376001)"
"osm:247901112";"SRID=4326;POINT(-58.4763389 -34.538895)"
"osm:2597749320";"SRID=4326;POINT(-58.465686 -34.5395425)"
"osm:256238278";"SRID=4326;POINT(-58.4818789 -34.5387227)"
"osm:1577477534";"SRID=4326;POINT(-58.4631025 -34.5496413)"
"osm:1577477526";"SRID=4326;POINT(-58.4621375 -34.5491779)"
"osm:2968216736";"SRID=4326;POINT(-58.4586897 -34.5429624)"
"osm:1113178997";"SRID=4326;POINT(-58.4550398 -34.5393439)"
"osm:2933621701";"SRID=4326;POINT(-58.45748 -34.5450645)"
"osm:2151742051";"SRID=4326;POINT(-58.4776203 -34.5496222)"
"osm:247901260";"SRID=4326;POINT(-58.4766718 -34.5388041)"
"osm:790592005";"SRID=4326;POINT(-58.4760352 -34.5412971)"
"osm:1075956907";"SRID=4326;POINT(-58.4772254 -34.5503917)"
"osm:97957445";"SRID=4326;POINT(-58.4512854 -34.5546267)"
"osm:2328495912";"SRID=4326;POINT(-58.476372 -34.5374357)"
"osm:247873914";"SRID=4326;POINT(-58.4694947 -34.5361389)"
"osm:790668159";"SRID=4326;POINT(-58.4751091 -34.545294)"
"osm:2857404066";"SRID=4326;POINT(-58.4603773 -34.5450722)"
"osm:2838736502";"SRID=4326;POINT(-58.4578258 -34.5463553)"
"osm:2151735245";"SRID=4326;POINT(-58.4719963 -34.549209)"
"osm:32376979";"SRID=4326;POINT(-58.4657763 -34.534814)"
"osm:1997760487";"SRID=4326;POINT(-58.4652744 -34.5424565)"
"osm:196313538";"SRID=4326;POINT(-58.466826 -34.5451666)"
"osm:241004503";"SRID=4326;POINT(-58.4582885 -34.5376212)"
"osm:421730965";"SRID=4326;POINT(-58.4775416 -34.531911)"
"osm:256238276";"SRID=4326;POINT(-58.4782916 -34.5369827)"
"osm:2090570453";"SRID=4326;POINT(-58.4722306 -34.5378473)"
"osm:2090587121";"SRID=4326;POINT(-58.4761182 -34.5384073)"
"osm:1535522531";"SRID=4326;POINT(-58.4681795 -34.5360247)"
"osm:196301842";"SRID=4326;POINT(-58.4614222 -34.5455813)"
"osm:1038868190";"SRID=4326;POINT(-58.4771928 -34.5500397)"
"osm:613968207";"SRID=4326;POINT(-58.4700098 -34.5351392)"
"osm:247900884";"SRID=4326;POINT(-58.4759257 -34.5393583)"
"osm:196301309";"SRID=4326;POINT(-58.4571184 -34.5497362)"
"osm:256238235";"SRID=4326;POINT(-58.4837196 -34.5360337)"
"osm:241003117";"SRID=4326;POINT(-58.4576477 -34.5382623)"
"osm:247873872";"SRID=4326;POINT(-58.4683075 -34.5359332)"
"osm:256238279";"SRID=4326;POINT(-58.4830591 -34.5392928)"
"osm:245221861";"SRID=4326;POINT(-58.46721 -34.5382343)"
"osm:1113158536";"SRID=4326;POINT(-58.4595609 -34.5363904)"
"osm:1997760532";"SRID=4326;POINT(-58.4659899 -34.5427785)"
"osm:2328495903";"SRID=4326;POINT(-58.4755431 -34.5372016)"
"osm:2933621505";"SRID=4326;POINT(-58.4573638 -34.544966)"
"osm:247897376";"SRID=4326;POINT(-58.4803285 -34.5411657)"
"osm:1678926668";"SRID=4326;POINT(-58.463747 -34.5467861)"
"osm:2151742045";"SRID=4326;POINT(-58.4777544 -34.549518)"
"osm:180280564";"SRID=4326;POINT(-58.4661877 -34.540822)"
"osm:256238136";"SRID=4326;POINT(-58.4831835 -34.5298398)"
"osm:241895842";"SRID=4326;POINT(-58.4701657 -34.551648)"
"osm:241003067";"SRID=4326;POINT(-58.4526194 -34.5402612)"
"osm:290550418";"SRID=4326;POINT(-58.4653811 -34.5463276)"
"osm:247901145";"SRID=4326;POINT(-58.476578 -34.5389422)"
"osm:2325658484";"SRID=4326;POINT(-58.4761461 -34.537176)"
"osm:245221901";"SRID=4326;POINT(-58.4679186 -34.5364337)"
"osm:613968204";"SRID=4326;POINT(-58.4747085 -34.5366835)"
"osm:247917665";"SRID=4326;POINT(-58.4681176 -34.5366214)"
"osm:247874146";"SRID=4326;POINT(-58.4665992 -34.5355151)"
"osm:1113178934";"SRID=4326;POINT(-58.4505756 -34.5405662)"
"osm:2288713268";"SRID=4326;POINT(-58.4666617 -34.5354449)"
"osm:1992527396";"SRID=4326;POINT(-58.4592613 -34.5372902)"
"osm:2090587014";"SRID=4326;POINT(-58.4743404 -34.5383027)"
"osm:247898631";"SRID=4326;POINT(-58.4794368 -34.5402418)"
"osm:247901154";"SRID=4326;POINT(-58.4773983 -34.5398181)"
"osm:1113178951";"SRID=4326;POINT(-58.4582521 -34.5375967)"
"osm:241898451";"SRID=4326;POINT(-58.4752932 -34.5448858)"
"osm:247874133";"SRID=4326;POINT(-58.4670344 -34.5356699)"
"osm:196313507";"SRID=4326;POINT(-58.4687035 -34.5461058)"
"osm:243459701";"SRID=4326;POINT(-58.4601218 -34.551235)"
"osm:243459637";"SRID=4326;POINT(-58.46458 -34.5482581)"
"osm:2150467434";"SRID=4326;POINT(-58.4542712 -34.5398217)"
"osm:2151718753";"SRID=4326;POINT(-58.4810868 -34.5493685)"
"osm:2090587205";"SRID=4326;POINT(-58.4756095 -34.5384645)"
"osm:241898536";"SRID=4326;POINT(-58.4810699 -34.5448952)"
"osm:196313672";"SRID=4326;POINT(-58.4669757 -34.5432506)"
"osm:247919549";"SRID=4326;POINT(-58.4649658 -34.5458701)"
"osm:247874148";"SRID=4326;POINT(-58.4664688 -34.5353967)"
"osm:247901133";"SRID=4326;POINT(-58.4771385 -34.5398084)"
"osm:1678926684";"SRID=4326;POINT(-58.4644567 -34.5470168)"
"osm:243459683";"SRID=4326;POINT(-58.4639007 -34.5479034)"
"osm:247900944";"SRID=4326;POINT(-58.4741934 -34.5384198)"
"osm:2090586901";"SRID=4326;POINT(-58.4742324 -34.538048)"
"osm:166596683";"SRID=4326;POINT(-58.475319 -34.5495876)"
"osm:247894632";"SRID=4326;POINT(-58.4734718 -34.538341)"
"osm:247888028";"SRID=4326;POINT(-58.4743597 -34.5377056)"
"osm:455448192";"SRID=4326;POINT(-58.4578256 -34.5522292)"
"osm:2288713719";"SRID=4326;POINT(-58.4634845 -34.5415659)"
"osm:1006208636";"SRID=4326;POINT(-58.4604909 -34.5353631)"
"osm:241898931";"SRID=4326;POINT(-58.481491 -34.5461403)"
"osm:613968205";"SRID=4326;POINT(-58.4697339 -34.5359542)"
"osm:247901213";"SRID=4326;POINT(-58.4750522 -34.5388807)"
"osm:2090570450";"SRID=4326;POINT(-58.4719983 -34.5377734)"
"osm:2088088795";"SRID=4326;POINT(-58.4750195 -34.5402799)"
"osm:291839566";"SRID=4326;POINT(-58.4635475 -34.5426447)"
"osm:769417570";"SRID=4326;POINT(-58.4746911 -34.540362)"
"osm:1113179021";"SRID=4326;POINT(-58.4501663 -34.5401935)"
"osm:2090586709";"SRID=4326;POINT(-58.4691216 -34.5361447)"
"osm:247888048";"SRID=4326;POINT(-58.4752648 -34.5380894)"
"osm:790662065";"SRID=4326;POINT(-58.4790842 -34.5377071)"
"osm:1006208657";"SRID=4326;POINT(-58.4627405 -34.5483085)"
"osm:1058785012";"SRID=4326;POINT(-58.4637748 -34.5423615)"
"osm:241952444";"SRID=4326;POINT(-58.4724907 -34.5458385)"
"osm:1006208625";"SRID=4326;POINT(-58.4666898 -34.5356801)"
"osm:89286422";"SRID=4326;POINT(-58.4542593 -34.5511932)"
"osm:247900926";"SRID=4326;POINT(-58.4755231 -34.5389403)"
"osm:247901116";"SRID=4326;POINT(-58.4766776 -34.5390536)"
"osm:89585850";"SRID=4326;POINT(-58.4663304 -34.554507)"
"osm:2607403123";"SRID=4326;POINT(-58.4650755 -34.539221)"
"osm:2919630901";"SRID=4326;POINT(-58.4773637 -34.5359301)"
"osm:2872921301";"SRID=4326;POINT(-58.4513644 -34.5545356)"
"osm:245221849";"SRID=4326;POINT(-58.466795 -34.5390811)"
"osm:252205654";"SRID=4326;POINT(-58.4802803 -34.5396397)"
"osm:241004498";"SRID=4326;POINT(-58.4575821 -34.5380994)"
"osm:241898392";"SRID=4326;POINT(-58.4774981 -34.5475459)"
"osm:2288713713";"SRID=4326;POINT(-58.4630553 -34.5413625)"
"osm:249455080";"SRID=4326;POINT(-58.4657293 -34.5350737)"
"osm:673395663";"SRID=4326;POINT(-58.4655086 -34.5379992)"
"osm:790592012";"SRID=4326;POINT(-58.4796243 -34.5411278)"
"osm:196301939";"SRID=4326;POINT(-58.4632256 -34.5464998)"
"osm:2088088818";"SRID=4326;POINT(-58.4705282 -34.5461416)"
"osm:290550414";"SRID=4326;POINT(-58.4661258 -34.5418476)"
"osm:247901175";"SRID=4326;POINT(-58.4740869 -34.5385595)"
"osm:1997760493";"SRID=4326;POINT(-58.465501 -34.542563)"
"osm:241898780";"SRID=4326;POINT(-58.4842347 -34.5476006)"
"osm:245221824";"SRID=4326;POINT(-58.4683779 -34.5377615)"
"osm:2843188728";"SRID=4326;POINT(-58.4646263 -34.539424)"
"osm:2090587453";"SRID=4326;POINT(-58.4773007 -34.5398534)"
"osm:1577477525";"SRID=4326;POINT(-58.4622704 -34.5491625)"
"osm:2088088817";"SRID=4326;POINT(-58.4711026 -34.5453298)"
"osm:32382084";"SRID=4326;POINT(-58.4522938 -34.541064)"
"osm:2857404064";"SRID=4326;POINT(-58.4622176 -34.5459858)"
"osm:241898850";"SRID=4326;POINT(-58.4806922 -34.5489356)"
"osm:2325657869";"SRID=4326;POINT(-58.4760269 -34.5375101)"
"osm:2726182498";"SRID=4326;POINT(-58.4723231 -34.5428793)"
"osm:247917673";"SRID=4326;POINT(-58.4626164 -34.5421108)"
"osm:2090587448";"SRID=4326;POINT(-58.4773429 -34.5397114)"
"osm:1113178971";"SRID=4326;POINT(-58.44762 -34.5424427)"
"osm:247873867";"SRID=4326;POINT(-58.4680203 -34.5358818)"
"osm:196313964";"SRID=4326;POINT(-58.4725055 -34.540909)"
"osm:2321436266";"SRID=4326;POINT(-58.4666915 -34.5356542)"
"osm:241003125";"SRID=4326;POINT(-58.4580783 -34.5386906)"
"osm:247879329";"SRID=4326;POINT(-58.4738318 -34.5434216)"
"osm:206176537";"SRID=4326;POINT(-58.4593214 -34.5466891)"
"osm:32382608";"SRID=4326;POINT(-58.4518245 -34.540529)"
"osm:196301788";"SRID=4326;POINT(-58.4620685 -34.5447216)"
"osm:241003146";"SRID=4326;POINT(-58.4613189 -34.5349911)"
"osm:247888022";"SRID=4326;POINT(-58.4738318 -34.5375743)"
"osm:196318384";"SRID=4326;POINT(-58.4700428 -34.5369945)"
"osm:256238214";"SRID=4326;POINT(-58.4808282 -34.5333049)"
"osm:1113158540";"SRID=4326;POINT(-58.4600714 -34.5356961)"
"osm:245222043";"SRID=4326;POINT(-58.4750757 -34.5476856)"
"osm:2090587296";"SRID=4326;POINT(-58.4756269 -34.5386918)"
"osm:2090586707";"SRID=4326;POINT(-58.4686682 -34.5360301)"
"osm:673693892";"SRID=4326;POINT(-58.4701902 -34.5367359)"
"osm:673774747";"SRID=4326;POINT(-58.4754193 -34.5382516)"
"osm:2288713271";"SRID=4326;POINT(-58.4666556 -34.5356002)"
"osm:2912187001";"SRID=4326;POINT(-58.465149 -34.5385855)"
"osm:247901148";"SRID=4326;POINT(-58.4771229 -34.5391321)"
"osm:1113178980";"SRID=4326;POINT(-58.4465793 -34.5432366)"
"osm:247900940";"SRID=4326;POINT(-58.4742717 -34.5385015)"
"osm:1058785006";"SRID=4326;POINT(-58.4683446 -34.5484769)"
"osm:241003110";"SRID=4326;POINT(-58.4586249 -34.5383353)"
"osm:241898678";"SRID=4326;POINT(-58.4870486 -34.5522557)"
"osm:2840955203";"SRID=4326;POINT(-58.4596021 -34.5449095)"
"osm:2090587043";"SRID=4326;POINT(-58.4757089 -34.5383849)"
"osm:2915244002";"SRID=4326;POINT(-58.4712809 -34.5450948)"
"osm:247873834";"SRID=4326;POINT(-58.4672249 -34.5358093)"
"osm:2325657468";"SRID=4326;POINT(-58.4760374 -34.5369036)"
"osm:196301530";"SRID=4326;POINT(-58.4573356 -34.5467498)"
"osm:166598670";"SRID=4326;POINT(-58.4719672 -34.5492584)"
"osm:2328495891";"SRID=4326;POINT(-58.4754441 -34.5370701)"
"osm:241952451";"SRID=4326;POINT(-58.4725917 -34.5500685)"
"osm:256238240";"SRID=4326;POINT(-58.4807638 -34.5357244)"
"osm:2809271048";"SRID=4326;POINT(-58.4673382 -34.5383522)"
"osm:196312686";"SRID=4326;POINT(-58.4660655 -34.5427799)"
"osm:196301248";"SRID=4326;POINT(-58.4563546 -34.5507463)"
"osm:245221973";"SRID=4326;POINT(-58.4633768 -34.541398)"
"osm:1992527392";"SRID=4326;POINT(-58.4588949 -34.5369277)"
"osm:241898820";"SRID=4326;POINT(-58.4833166 -34.5471294)"
"osm:206176527";"SRID=4326;POINT(-58.4672807 -34.5463379)"
"osm:247894621";"SRID=4326;POINT(-58.4813969 -34.541797)"
"osm:421730961";"SRID=4326;POINT(-58.4786671 -34.5300407)"
"usig:475";"SRID=4326;POINT(-58.4703030779467 -34.5439775663778)"
"osm:241898403";"SRID=4326;POINT(-58.4793711 -34.5472097)"
"osm:2090586751";"SRID=4326;POINT(-58.4724005 -34.5377426)"
"osm:241895625";"SRID=4326;POINT(-58.4684643 -34.5506979)"
"osm:241898382";"SRID=4326;POINT(-58.4710658 -34.5463195)"
"osm:243459663";"SRID=4326;POINT(-58.4622917 -34.5513428)"
"osm:247873818";"SRID=4326;POINT(-58.4666378 -34.535289)"
"osm:247888136";"SRID=4326;POINT(-58.4795159 -34.5404814)"
"osm:247901150";"SRID=4326;POINT(-58.4773837 -34.5392329)"
"osm:790662103";"SRID=4326;POINT(-58.4793595 -34.5375271)"
"osm:196312828";"SRID=4326;POINT(-58.4703328 -34.5460733)"
"osm:241898474";"SRID=4326;POINT(-58.4772952 -34.5455484)"
"osm:672958702";"SRID=4326;POINT(-58.4650079 -34.5360796)"
"osm:241898513";"SRID=4326;POINT(-58.4767026 -34.5443854)"
"osm:245226177";"SRID=4326;POINT(-58.4666946 -34.5470856)"
"osm:243459655";"SRID=4326;POINT(-58.4652844 -34.5507801)"
"osm:2966910647";"SRID=4326;POINT(-58.4680906 -34.5365738)"
"osm:2088088797";"SRID=4326;POINT(-58.474796 -34.5403783)"
"osm:247873862";"SRID=4326;POINT(-58.4667801 -34.5356676)"
"osm:245221837";"SRID=4326;POINT(-58.4675544 -34.5373344)"
"osm:1577477531";"SRID=4326;POINT(-58.4623454 -34.5492947)"
"osm:2090587450";"SRID=4326;POINT(-58.4753454 -34.5397665)"
"osm:247898629";"SRID=4326;POINT(-58.4793537 -34.5402079)"
"osm:1038868172";"SRID=4326;POINT(-58.4731727 -34.5492537)"
"osm:247901135";"SRID=4326;POINT(-58.4769019 -34.5397622)"
"osm:247888150";"SRID=4326;POINT(-58.4822235 -34.5416512)"
"osm:773351501";"SRID=4326;POINT(-58.4683724 -34.5362441)"
"osm:2608988700";"SRID=4326;POINT(-58.4755712 -34.5393025)"
"osm:2088088815";"SRID=4326;POINT(-58.4721877 -34.5438713)"
"osm:1870877788";"SRID=4326;POINT(-58.4545121 -34.5485981)"
"osm:196301679";"SRID=4326;POINT(-58.4644847 -34.5449507)"
"osm:247901123";"SRID=4326;POINT(-58.477414 -34.5394642)"
"osm:2325658899";"SRID=4326;POINT(-58.4761944 -34.5369608)"
"osm:196301231";"SRID=4326;POINT(-58.4572949 -34.5512367)"
"osm:2151726481";"SRID=4326;POINT(-58.4784855 -34.5492007)"
"osm:196301555";"SRID=4326;POINT(-58.4597037 -34.5479148)"
"osm:2090586734";"SRID=4326;POINT(-58.474087 -34.5376275)"
"osm:673693904";"SRID=4326;POINT(-58.4686113 -34.5360607)"
"osm:241898741";"SRID=4326;POINT(-58.4846221 -34.5488517)"
"osm:2090586723";"SRID=4326;POINT(-58.4729249 -34.5372443)"
"osm:1006208613";"SRID=4326;POINT(-58.4681585 -34.5365343)"
"osm:2288713290";"SRID=4326;POINT(-58.4686044 -34.5359044)"
"osm:790662095";"SRID=4326;POINT(-58.4773253 -34.5388895)"
"osm:241898595";"SRID=4326;POINT(-58.4795019 -34.5434008)"
"osm:2151733448";"SRID=4326;POINT(-58.4770943 -34.5501819)"
"osm:2915244001";"SRID=4326;POINT(-58.4711963 -34.5449007)"
"osm:2151733419";"SRID=4326;POINT(-58.476365 -34.5500552)"
"osm:256238249";"SRID=4326;POINT(-58.4903082 -34.5402928)"
"osm:1113178938";"SRID=4326;POINT(-58.4506882 -34.5406767)"
"osm:241898766";"SRID=4326;POINT(-58.4824662 -34.5498636)"
"osm:89286188";"SRID=4326;POINT(-58.455209 -34.5485281)"
"osm:1058785003";"SRID=4326;POINT(-58.477281 -34.5500778)"
"osm:2861191201";"SRID=4326;POINT(-58.4611604 -34.543457)"
"osm:2933621703";"SRID=4326;POINT(-58.4574627 -34.5446852)"
"osm:2151735247";"SRID=4326;POINT(-58.4718752 -34.5493745)"
"osm:241898619";"SRID=4326;POINT(-58.4801041 -34.5445655)"
"osm:290550415";"SRID=4326;POINT(-58.4644091 -34.5458642)"
"osm:2090587148";"SRID=4326;POINT(-58.4757775 -34.5384362)"
"osm:89579437";"SRID=4326;POINT(-58.4823677 -34.5551997)"
"osm:1577477518";"SRID=4326;POINT(-58.4609032 -34.5485492)"
"osm:247898617";"SRID=4326;POINT(-58.4789014 -34.5399665)"
"osm:247901140";"SRID=4326;POINT(-58.4758978 -34.5394238)"
"usig:431";"SRID=4326;POINT(-58.4680759422581 -34.5417819147508)"
"osm:241004494";"SRID=4326;POINT(-58.4565299 -34.5386586)"
"osm:256238059";"SRID=4326;POINT(-58.4844139 -34.528068)"
"osm:790592010";"SRID=4326;POINT(-58.4784756 -34.5407245)"
"osm:2151742088";"SRID=4326;POINT(-58.4795494 -34.5491672)"
"osm:2843188727";"SRID=4326;POINT(-58.4660239 -34.537153)"
"osm:1113178994";"SRID=4326;POINT(-58.4482742 -34.5420642)"
"osm:2267235284";"SRID=4326;POINT(-58.4596136 -34.5446829)"
"osm:196313429";"SRID=4326;POINT(-58.4697189 -34.5395491)"
"osm:206175797";"SRID=4326;POINT(-58.4814506 -34.5547186)"
"osm:2325658132";"SRID=4326;POINT(-58.4758093 -34.5372294)"
"osm:247917671";"SRID=4326;POINT(-58.4631839 -34.5415817)"
"osm:613968198";"SRID=4326;POINT(-58.4738844 -34.5361942)"
"osm:245222110";"SRID=4326;POINT(-58.4736887 -34.5481918)"
"osm:2288713281";"SRID=4326;POINT(-58.4666484 -34.5356917)"
"osm:2968217033";"SRID=4326;POINT(-58.4591389 -34.5436652)"
"osm:1768289895";"SRID=4326;POINT(-58.4813628 -34.5494809)"
"osm:2433252059";"SRID=4326;POINT(-58.4741773 -34.5409575)"
"osm:247888002";"SRID=4326;POINT(-58.4728502 -34.5374228)"
"osm:247879331";"SRID=4326;POINT(-58.4742017 -34.542633)"
"osm:247901121";"SRID=4326;POINT(-58.4773879 -34.5393843)"
"osm:2966941333";"SRID=4326;POINT(-58.4676337 -34.5373715)"
"osm:247901155";"SRID=4326;POINT(-58.477208 -34.5398792)"
"osm:1113178915";"SRID=4326;POINT(-58.4485049 -34.541936)"
"osm:1577477516";"SRID=4326;POINT(-58.4608676 -34.5484884)"
"osm:1006208638";"SRID=4326;POINT(-58.4672806 -34.5383371)"
"osm:790592000";"SRID=4326;POINT(-58.4756196 -34.5421274)"
"osm:241003029";"SRID=4326;POINT(-58.4510127 -34.5408914)"
"osm:247900899";"SRID=4326;POINT(-58.4763631 -34.5394207)"
"osm:256238193";"SRID=4326;POINT(-58.4820164 -34.5315748)"
"osm:32382610";"SRID=4326;POINT(-58.4569402 -34.5386573)"
"usig:13388";"SRID=4326;POINT(-58.4675003285797 -34.5425570257704)"
"osm:2090587457";"SRID=4326;POINT(-58.4787222 -34.5406707)"
"osm:2328495909";"SRID=4326;POINT(-58.4755202 -34.5373209)"
"osm:2288713721";"SRID=4326;POINT(-58.4634963 -34.5416288)"
"osm:291838597";"SRID=4326;POINT(-58.4644274 -34.5415107)"
"osm:241898711";"SRID=4326;POINT(-58.4822822 -34.543353)"
"osm:256238390";"SRID=4326;POINT(-58.4902106 -34.5427341)"
"osm:256238267";"SRID=4326;POINT(-58.4801442 -34.5366193)"
"osm:241002951";"SRID=4326;POINT(-58.450829 -34.5407926)"
"osm:2933621504";"SRID=4326;POINT(-58.4575877 -34.5447823)"
"osm:247873917";"SRID=4326;POINT(-58.4673793 -34.535514)"
"osm:245221813";"SRID=4326;POINT(-58.4675277 -34.5384131)"
"osm:2090586820";"SRID=4326;POINT(-58.4730651 -34.5378364)"
"osm:1038868179";"SRID=4326;POINT(-58.4710592 -34.548823)"
"osm:2725196670";"SRID=4326;POINT(-58.4680169 -34.536438)"
"osm:256238233";"SRID=4326;POINT(-58.4849105 -34.5366016)"
"osm:247917666";"SRID=4326;POINT(-58.4699293 -34.5374179)"
"osm:1577477529";"SRID=4326;POINT(-58.4624018 -34.5492306)"
"osm:245221844";"SRID=4326;POINT(-58.4658427 -34.5396211)"
"osm:245221958";"SRID=4326;POINT(-58.4646961 -34.54116)"
"osm:421674222";"SRID=4326;POINT(-58.4702387 -34.5361811)"
"osm:247873822";"SRID=4326;POINT(-58.466869 -34.5349367)"
"osm:1113179000";"SRID=4326;POINT(-58.45756 -34.538074)"
"osm:2090586708";"SRID=4326;POINT(-58.4672155 -34.5360703)"
"osm:2288713236";"SRID=4326;POINT(-58.4660084 -34.5347428)"
"osm:97957470";"SRID=4326;POINT(-58.4497217 -34.5564807)"
"osm:2328495885";"SRID=4326;POINT(-58.475461 -34.5370258)"
"osm:2090586717";"SRID=4326;POINT(-58.4756783 -34.5369408)"
"osm:2847376401";"SRID=4326;POINT(-58.4703832 -34.5362458)"
"osm:2090586718";"SRID=4326;POINT(-58.4722616 -34.5369898)"
"osm:2328495904";"SRID=4326;POINT(-58.4754365 -34.5372296)"
"osm:2919631501";"SRID=4326;POINT(-58.4797871 -34.5425308)"
"osm:1997760515";"SRID=4326;POINT(-58.4658172 -34.5427064)"
"osm:206175779";"SRID=4326;POINT(-58.4796015 -34.5537465)"
"osm:2090587443";"SRID=4326;POINT(-58.4762152 -34.5393664)"
"osm:613968209";"SRID=4326;POINT(-58.46868 -34.5355269)"
"osm:613968195";"SRID=4326;POINT(-58.4754347 -34.5367631)"
"osm:1113179025";"SRID=4326;POINT(-58.4486819 -34.5406723)"
"osm:790591988";"SRID=4326;POINT(-58.4751268 -34.5429368)"
"osm:243459645";"SRID=4326;POINT(-58.4658973 -34.5499853)"
"osm:2090586903";"SRID=4326;POINT(-58.4741583 -34.5381711)"
"osm:252417470";"SRID=4326;POINT(-58.4913393 -34.5432841)"
"osm:2288713717";"SRID=4326;POINT(-58.4635845 -34.5414508)"
"osm:1678926645";"SRID=4326;POINT(-58.4632503 -34.5464632)"
"osm:1678926665";"SRID=4326;POINT(-58.463837 -34.5467291)"
"osm:2090587452";"SRID=4326;POINT(-58.4770696 -34.5398114)"
"osm:2933621501";"SRID=4326;POINT(-58.4582109 -34.5460408)"
"osm:196313995";"SRID=4326;POINT(-58.4718176 -34.5384125)"
"osm:2921968601";"SRID=4326;POINT(-58.4685061 -34.5483123)"
"osm:2894556336";"SRID=4326;POINT(-58.4769463 -34.5367467)"
"osm:241898937";"SRID=4326;POINT(-58.4808941 -34.5469168)"
"osm:2151733443";"SRID=4326;POINT(-58.4752519 -34.5498586)"
"osm:1577477520";"SRID=4326;POINT(-58.4620182 -34.5490474)"
"osm:245226155";"SRID=4326;POINT(-58.4687482 -34.548108)"
"osm:191913133";"SRID=4326;POINT(-58.4539988 -34.5535208)"
"osm:196313442";"SRID=4326;POINT(-58.4743688 -34.5407458)"
"osm:180280563";"SRID=4326;POINT(-58.457392 -34.5528196)"
"osm:206175753";"SRID=4326;POINT(-58.4692707 -34.5511482)"
"osm:1113179017";"SRID=4326;POINT(-58.4469868 -34.5429923)"
"osm:1577477519";"SRID=4326;POINT(-58.4615926 -34.5488214)"
"osm:2966910649";"SRID=4326;POINT(-58.4679723 -34.5364659)"
"osm:196313655";"SRID=4326;POINT(-58.4687963 -34.544217)"
"osm:2328495890";"SRID=4326;POINT(-58.4761403 -34.5370632)"
"osm:247894615";"SRID=4326;POINT(-58.4833568 -34.5426939)"
"osm:2150338071";"SRID=4326;POINT(-58.4527895 -34.5408891)"
"osm:247873906";"SRID=4326;POINT(-58.4678157 -34.5354359)"
"osm:2150338072";"SRID=4326;POINT(-58.4539039 -34.5406035)"
"osm:206176513";"SRID=4326;POINT(-58.4727759 -34.5389139)"
"osm:241895826";"SRID=4326;POINT(-58.4817035 -34.5441453)"
"osm:196301269";"SRID=4326;POINT(-58.4552145 -34.5501778)"
"osm:2090587266";"SRID=4326;POINT(-58.476496 -34.5385807)"
"osm:247874147";"SRID=4326;POINT(-58.4665548 -34.5354695)"
"osm:245221994";"SRID=4326;POINT(-58.4641704 -34.5418601)"
"osm:241898393";"SRID=4326;POINT(-58.4764831 -34.547198)"
"osm:245776374";"SRID=4326;POINT(-58.4778439 -34.5494125)"
"osm:673395652";"SRID=4326;POINT(-58.465937 -34.5369313)"
"osm:2090586914";"SRID=4326;POINT(-58.4745185 -34.53823)"
"osm:247901177";"SRID=4326;POINT(-58.4732974 -34.5381722)"
"osm:252418714";"SRID=4326;POINT(-58.4780343 -34.5373614)"
"osm:247894622";"SRID=4326;POINT(-58.4800718 -34.5412291)"
"osm:673774727";"SRID=4326;POINT(-58.4749759 -34.5389504)"
"osm:256238246";"SRID=4326;POINT(-58.4879119 -34.5391624)"
"osm:241895839";"SRID=4326;POINT(-58.4689647 -34.5531814)"
"osm:241004459";"SRID=4326;POINT(-58.452265 -34.5402129)"
"osm:196313639";"SRID=4326;POINT(-58.4697196 -34.5446716)"
"osm:247921762";"SRID=4326;POINT(-58.4552677 -34.5424811)"
"osm:247888015";"SRID=4326;POINT(-58.4734233 -34.5375123)"
"osm:247879332";"SRID=4326;POINT(-58.4746083 -34.5418081)"
"osm:1113179007";"SRID=4326;POINT(-58.4483834 -34.5412835)"
"osm:247874136";"SRID=4326;POINT(-58.4665478 -34.5355193)"
"osm:247884493";"SRID=4326;POINT(-58.471798 -34.5455839)"
"osm:252530074";"SRID=4326;POINT(-58.4792674 -34.5379294)"
"osm:2288713274";"SRID=4326;POINT(-58.4666537 -34.5355933)"
"osm:2597749626";"SRID=4326;POINT(-58.4724408 -34.542935)"
"osm:2354397452";"SRID=4326;POINT(-58.4781306 -34.5394559)"
"osm:241003049";"SRID=4326;POINT(-58.4551943 -34.5394834)"
"osm:1577477527";"SRID=4326;POINT(-58.462307 -34.5491814)"
"osm:2354397456";"SRID=4326;POINT(-58.4806135 -34.5414734)"
"osm:2288713726";"SRID=4326;POINT(-58.4634198 -34.5417366)"
"osm:2328495889";"SRID=4326;POINT(-58.4757328 -34.5370503)"
"osm:767500312";"SRID=4326;POINT(-58.4720202 -34.5374051)"
"osm:241003062";"SRID=4326;POINT(-58.4547124 -34.5396757)"
"osm:247888132";"SRID=4326;POINT(-58.4791224 -34.5402422)"
"osm:2805247148";"SRID=4326;POINT(-58.4483632 -34.5411107)"
"osm:247894634";"SRID=4326;POINT(-58.4728581 -34.5380369)"
"osm:245222058";"SRID=4326;POINT(-58.473105 -34.547018)"
"osm:196313951";"SRID=4326;POINT(-58.4701336 -34.5407541)"
"osm:2805247122";"SRID=4326;POINT(-58.4494457 -34.5405679)"
"osm:2090586711";"SRID=4326;POINT(-58.4702839 -34.5363778)"
"osm:2354397451";"SRID=4326;POINT(-58.4772499 -34.5390562)"
"osm:2288713272";"SRID=4326;POINT(-58.4666641 -34.5355762)"
"osm:1006208658";"SRID=4326;POINT(-58.4677613 -34.5373557)"
"osm:2090587323";"SRID=4326;POINT(-58.476382 -34.5387835)"
"osm:2966857345";"SRID=4326;POINT(-58.4679925 -34.5364294)"
"osm:790592007";"SRID=4326;POINT(-58.4793907 -34.5412382)"
"osm:247879334";"SRID=4326;POINT(-58.4750199 -34.5409645)"
"osm:1125780724";"SRID=4326;POINT(-58.4458684 -34.5437705)"
"osm:196301277";"SRID=4326;POINT(-58.4589677 -34.5506879)"
"osm:613899456";"SRID=4326;POINT(-58.4643749 -34.5433046)"
"osm:241895628";"SRID=4326;POINT(-58.4782821 -34.5410925)"
"osm:613968202";"SRID=4326;POINT(-58.4738053 -34.5363337)"
"osm:673395677";"SRID=4326;POINT(-58.4639184 -34.5398859)"
"osm:256238277";"SRID=4326;POINT(-58.4806514 -34.5381537)"
"osm:247901248";"SRID=4326;POINT(-58.4741136 -34.5384152)"
"osm:611922058";"SRID=4326;POINT(-58.4742474 -34.5375838)"
"osm:247901166";"SRID=4326;POINT(-58.4743523 -34.538685)"
"osm:1113178977";"SRID=4326;POINT(-58.4463538 -34.5433677)"
"osm:1678926662";"SRID=4326;POINT(-58.4637951 -34.5467139)"
"osm:241898548";"SRID=4326;POINT(-58.4781024 -34.5439092)"
"osm:206176524";"SRID=4326;POINT(-58.4715562 -34.5404489)"
"osm:247873828";"SRID=4326;POINT(-58.4681255 -34.5353312)"
"osm:1006208592";"SRID=4326;POINT(-58.4699562 -34.5372706)"
"osm:196301343";"SRID=4326;POINT(-58.4557745 -34.5480345)"
"osm:252417629";"SRID=4326;POINT(-58.4785188 -34.5335856)"
"osm:1997760496";"SRID=4326;POINT(-58.4655313 -34.5425767)"
"osm:2090586847";"SRID=4326;POINT(-58.4747498 -34.53784)"
"osm:32375709";"SRID=4326;POINT(-58.4712923 -34.5369517)"
"osm:196301295";"SRID=4326;POINT(-58.4580399 -34.5502098)"
"osm:196313670";"SRID=4326;POINT(-58.4678904 -34.5437239)"
"osm:1113178918";"SRID=4326;POINT(-58.4499614 -34.5402079)"
"osm:247901058";"SRID=4326;POINT(-58.47544 -34.5384294)"
"usig:449";"SRID=4326;POINT(-58.4684380572705 -34.5430323539019)"
"osm:247901211";"SRID=4326;POINT(-58.4752141 -34.5389632)"
"osm:247917668";"SRID=4326;POINT(-58.4595933 -34.5379437)"
"osm:2354397458";"SRID=4326;POINT(-58.4800719 -34.5416209)"
"osm:256238245";"SRID=4326;POINT(-58.4867317 -34.5385791)"
"osm:243459697";"SRID=4326;POINT(-58.4613936 -34.5498613)"
"osm:247874128";"SRID=4326;POINT(-58.4676316 -34.5354564)"
"osm:247873863";"SRID=4326;POINT(-58.467049 -34.53578)"
"osm:196301733";"SRID=4326;POINT(-58.4621462 -34.5480837)"
"osm:2922745102";"SRID=4326;POINT(-58.4681618 -34.5358164)"
"osm:247901138";"SRID=4326;POINT(-58.4761727 -34.539427)"
"osm:241895840";"SRID=4326;POINT(-58.4738254 -34.5453612)"
"osm:241004478";"SRID=4326;POINT(-58.4533817 -34.5398874)"
"osm:825311694";"SRID=4326;POINT(-58.4932539 -34.5417146)"
"osm:2316640939";"SRID=4326;POINT(-58.4756936 -34.5372854)"
"osm:2267235285";"SRID=4326;POINT(-58.459781 -34.5445518)"
"osm:247898637";"SRID=4326;POINT(-58.4765068 -34.5392472)"
"osm:247873916";"SRID=4326;POINT(-58.4675059 -34.5355337)"
"osm:243459671";"SRID=4326;POINT(-58.4641765 -34.5522998)"
"osm:241898814";"SRID=4326;POINT(-58.4827557 -34.5478819)"
"osm:241004507";"SRID=4326;POINT(-58.4589213 -34.5371061)"
"osm:673395676";"SRID=4326;POINT(-58.4651667 -34.5378592)"
"osm:196312836";"SRID=4326;POINT(-58.4654619 -34.5435635)"
"osm:790668147";"SRID=4326;POINT(-58.4760905 -34.5456239)"
"osm:247879326";"SRID=4326;POINT(-58.475754 -34.5388638)"
"osm:2608988769";"SRID=4326;POINT(-58.4760865 -34.538459)"
"osm:241004485";"SRID=4326;POINT(-58.454295 -34.5396748)"
"osm:249456833";"SRID=4326;POINT(-58.4659755 -34.5427379)"
"osm:790591984";"SRID=4326;POINT(-58.4775159 -34.5403151)"
"osm:2090586713";"SRID=4326;POINT(-58.4697899 -34.5365653)"
"osm:2996960933";"SRID=4326;POINT(-58.4614616 -34.5431807)"
"osm:2328495900";"SRID=4326;POINT(-58.4757084 -34.5371925)"
"osm:2966910648";"SRID=4326;POINT(-58.4679517 -34.5365142)"
"osm:32382617";"SRID=4326;POINT(-58.4654919 -34.5345853)"
"osm:2320297296";"SRID=4326;POINT(-58.4755084 -34.5376268)"
"osm:1038868197";"SRID=4326;POINT(-58.477312 -34.5499204)"
"osm:2886240701";"SRID=4326;POINT(-58.4610701 -34.5435415)"
"osm:247888253";"SRID=4326;POINT(-58.4831651 -34.5422209)"
"osm:241898519";"SRID=4326;POINT(-58.4757015 -34.5440589)"
"osm:241898949";"SRID=4326;POINT(-58.4797338 -34.5484392)"
"osm:241898642";"SRID=4326;POINT(-58.4799108 -34.5425727)"
"osm:790668146";"SRID=4326;POINT(-58.4791015 -34.5418294)"
"osm:1817010571";"SRID=4326;POINT(-58.475659 -34.5394812)"
"osm:180279226";"SRID=4326;POINT(-58.4608399 -34.5463577)"
"osm:1113178953";"SRID=4326;POINT(-58.4522575 -34.5401832)"
"osm:1577477528";"SRID=4326;POINT(-58.4622906 -34.5492001)"
"osm:1997760518";"SRID=4326;POINT(-58.4660164 -34.5427065)"
"osm:1058785015";"SRID=4326;POINT(-58.4634151 -34.5416223)"
"osm:2090587459";"SRID=4326;POINT(-58.4793894 -34.541149)"
"osm:2090586729";"SRID=4326;POINT(-58.4732416 -34.5374918)"
"osm:243459681";"SRID=4326;POINT(-58.4633248 -34.5487069)"
"osm:249456836";"SRID=4326;POINT(-58.4656724 -34.5430602)"
"osm:241898660";"SRID=4326;POINT(-58.4769073 -34.5415828)"
"osm:2968178437";"SRID=4326;POINT(-58.4595762 -34.5444315)"
"osm:247873829";"SRID=4326;POINT(-58.4684216 -34.535539)"
"osm:2288713282";"SRID=4326;POINT(-58.4669084 -34.5357286)"
"osm:1058785005";"SRID=4326;POINT(-58.4632536 -34.5412568)"
"osm:2496903080";"SRID=4326;POINT(-58.4825558 -34.5434803)"
"osm:247884484";"SRID=4326;POINT(-58.4708091 -34.5462398)"
"osm:2332626582";"SRID=4326;POINT(-58.475533 -34.5371108)"
"osm:421674224";"SRID=4326;POINT(-58.4684366 -34.5354204)"
"osm:2328495878";"SRID=4326;POINT(-58.4756697 -34.5368412)"
"osm:247900904";"SRID=4326;POINT(-58.4766532 -34.5395553)"
"osm:247873820";"SRID=4326;POINT(-58.4667427 -34.5349966)"
"osm:790592003";"SRID=4326;POINT(-58.4747432 -34.543743)"
"osm:247874149";"SRID=4326;POINT(-58.4660547 -34.5350756)"
"osm:180276170";"SRID=4326;POINT(-58.4741523 -34.538794)"
"osm:247888099";"SRID=4326;POINT(-58.4782701 -34.5395563)"
"osm:1113158559";"SRID=4326;POINT(-58.4602366 -34.5353338)"
"osm:1113178968";"SRID=4326;POINT(-58.4541647 -34.5396553)"
"usig:453";"SRID=4326;POINT(-58.4699382074179 -34.5427255133448)"
"osm:2288713263";"SRID=4326;POINT(-58.4678125 -34.535369)"
"osm:241898565";"SRID=4326;POINT(-58.4739159 -34.5425346)"
"osm:247901204";"SRID=4326;POINT(-58.473025 -34.5380307)"
"osm:247894624";"SRID=4326;POINT(-58.4789405 -34.5406994)"
"osm:243459630";"SRID=4326;POINT(-58.4670513 -34.5484142)"
"osm:196301407";"SRID=4326;POINT(-58.4567185 -34.548542)"
"osm:247901252";"SRID=4326;POINT(-58.4742039 -34.5379582)"
"osm:2328495883";"SRID=4326;POINT(-58.4754842 -34.5369898)"
"osm:241898560";"SRID=4326;POINT(-58.4761051 -34.5432399)"
"osm:256238237";"SRID=4326;POINT(-58.481321 -34.5349123)"
"osm:613899455";"SRID=4326;POINT(-58.464801 -34.5440291)"
"osm:1006208568";"SRID=4326;POINT(-58.4603916 -34.5353677)"
"osm:241898908";"SRID=4326;POINT(-58.4792838 -34.5490858)"
"osm:2010573156";"SRID=4326;POINT(-58.4792976 -34.5491564)"
"osm:2933621503";"SRID=4326;POINT(-58.4576881 -34.5454882)"
"osm:241898572";"SRID=4326;POINT(-58.474324 -34.5417201)"
"osm:2809271051";"SRID=4326;POINT(-58.4650075 -34.5442045)"
"osm:241895843";"SRID=4326;POINT(-58.4710048 -34.5505525)"
"osm:315063379";"SRID=4326;POINT(-58.4800245 -34.548047)"
"osm:1997760529";"SRID=4326;POINT(-58.4658071 -34.5427603)"
"osm:1678926692";"SRID=4326;POINT(-58.4643673 -34.5470876)"
"osm:247873915";"SRID=4326;POINT(-58.4676668 -34.5355623)"
"osm:256238251";"SRID=4326;POINT(-58.4938717 -34.5419933)"
"osm:1577477517";"SRID=4326;POINT(-58.4609547 -34.5484897)"
"osm:196313604";"SRID=4326;POINT(-58.4682497 -34.5449853)"
"osm:247901265";"SRID=4326;POINT(-58.4787694 -34.5401646)"
"osm:247901143";"SRID=4326;POINT(-58.4764073 -34.5388417)"
"osm:241898578";"SRID=4326;POINT(-58.4764964 -34.5424042)"
"osm:247901074";"SRID=4326;POINT(-58.4741776 -34.5379159)"
"osm:421731003";"SRID=4326;POINT(-58.4780981 -34.5309864)"
"osm:1058785013";"SRID=4326;POINT(-58.4609234 -34.5393334)"
"osm:247901243";"SRID=4326;POINT(-58.4745588 -34.5387103)"
"osm:2090587449";"SRID=4326;POINT(-58.4774885 -34.5397356)"
"osm:247884489";"SRID=4326;POINT(-58.4699867 -34.5468676)"
"osm:1577477530";"SRID=4326;POINT(-58.4622559 -34.5492425)"
"osm:673774713";"SRID=4326;POINT(-58.4762006 -34.539586)"
"osm:2328495877";"SRID=4326;POINT(-58.4757431 -34.5368189)"
"osm:1113179023";"SRID=4326;POINT(-58.4477528 -34.5423475)"
"osm:790662113";"SRID=4326;POINT(-58.4777806 -34.5377192)"
"osm:1058785017";"SRID=4326;POINT(-58.4628947 -34.5412838)"
"osm:247901158";"SRID=4326;POINT(-58.4769383 -34.5398509)"
"osm:247873908";"SRID=4326;POINT(-58.4677992 -34.5355092)"
"osm:2088088811";"SRID=4326;POINT(-58.473327 -34.5423433)"
"osm:241895651";"SRID=4326;POINT(-58.4756363 -34.5488438)"
"osm:2150467448";"SRID=4326;POINT(-58.4531038 -34.5401292)"
"osm:241875227";"SRID=4326;POINT(-58.4528432 -34.5548048)"
"osm:248012951";"SRID=4326;POINT(-58.4492727 -34.5426359)"
"osm:1038868201";"SRID=4326;POINT(-58.468392 -34.5485713)"
"osm:1113179002";"SRID=4326;POINT(-58.4490897 -34.5406282)"
"osm:196313978";"SRID=4326;POINT(-58.4706343 -34.5400023)"
"osm:2968217133";"SRID=4326;POINT(-58.4588621 -34.543251)"
"osm:2316640956";"SRID=4326;POINT(-58.4753198 -34.5379725)"
"osm:243459690";"SRID=4326;POINT(-58.4611004 -34.5507341)"
"osm:767494786";"SRID=4326;POINT(-58.4712122 -34.5370711)"
"osm:2288713273";"SRID=4326;POINT(-58.467767 -34.5355766)"
"osm:241898625";"SRID=4326;POINT(-58.4805042 -34.5437422)"
"osm:245776375";"SRID=4326;POINT(-58.4782662 -34.5492608)"
"osm:1058785036";"SRID=4326;POINT(-58.4629961 -34.5412981)"
"osm:196301650";"SRID=4326;POINT(-58.4641938 -34.5457865)"
"osm:2151733429";"SRID=4326;POINT(-58.476982 -34.550159)"
"osm:247873813";"SRID=4326;POINT(-58.4666793 -34.5358039)"
"osm:247901021";"SRID=4326;POINT(-58.4748294 -34.5380651)"
"osm:196301545";"SRID=4326;POINT(-58.4606358 -34.5483723)"
"osm:241898754";"SRID=4326;POINT(-58.4834292 -34.550383)"
"osm:247873852";"SRID=4326;POINT(-58.467772 -34.5357917)"
"osm:2328495881";"SRID=4326;POINT(-58.4753276 -34.5369756)"
"usig:411";"SRID=4326;POINT(-58.4695880711868 -34.5414760639042)"
"osm:2929278901";"SRID=4326;POINT(-58.4566943 -34.547251)"
"osm:1058785035";"SRID=4326;POINT(-58.4595287 -34.5379326)"
"osm:1577477522";"SRID=4326;POINT(-58.4621466 -34.549106)"
"osm:2090586987";"SRID=4326;POINT(-58.475751 -34.5382486)"
"osm:2433252056";"SRID=4326;POINT(-58.4742303 -34.5408989)"
"osm:1058785041";"SRID=4326;POINT(-58.4642829 -34.5434125)"
"osm:247901137";"SRID=4326;POINT(-58.476269 -34.5394511)"
"osm:2088088785";"SRID=4326;POINT(-58.4756117 -34.5383978)"
"osm:247901156";"SRID=4326;POINT(-58.4770943 -34.5398856)"
"osm:247901246";"SRID=4326;POINT(-58.4742563 -34.5385732)"
"osm:2090586728";"SRID=4326;POINT(-58.4726861 -34.5373877)"
"osm:245221805";"SRID=4326;POINT(-58.4678022 -34.5385493)"
"osm:1006208585";"SRID=4326;POINT(-58.4684761 -34.5394232)"
"osm:1997760505";"SRID=4326;POINT(-58.4655036 -34.5426431)"
"osm:247897377";"SRID=4326;POINT(-58.4804514 -34.5410654)"
"osm:241003080";"SRID=4326;POINT(-58.4508349 -34.5417572)"
"osm:421730925";"SRID=4326;POINT(-58.4769606 -34.5328767)"
"osm:2796663270";"SRID=4326;POINT(-58.4531629 -34.5544516)"
"osm:2325657660";"SRID=4326;POINT(-58.4758327 -34.5374375)"
"osm:673395153";"SRID=4326;POINT(-58.4516253 -34.5404651)"
"osm:613899458";"SRID=4326;POINT(-58.4637107 -34.5424423)"
"osm:2921963703";"SRID=4326;POINT(-58.4674338 -34.5481223)"
"osm:1678926674";"SRID=4326;POINT(-58.4637894 -34.5468072)"
"osm:245222123";"SRID=4326;POINT(-58.4716843 -34.5475173)"
"osm:196301435";"SRID=4326;POINT(-58.4591126 -34.548714)"
"osm:245221817";"SRID=4326;POINT(-58.4678003 -34.5374431)"
"osm:2922835601";"SRID=4326;POINT(-58.4664031 -34.5365462)"
"osm:247888121";"SRID=4326;POINT(-58.4783816 -34.5396562)"
"osm:256238239";"SRID=4326;POINT(-58.4795595 -34.5351477)"
"osm:1678926698";"SRID=4326;POINT(-58.4645818 -34.5471365)"
"osm:2325658029";"SRID=4326;POINT(-58.4763023 -34.53741)"
"osm:247901274";"SRID=4326;POINT(-58.4784827 -34.5399723)"
"osm:252205621";"SRID=4326;POINT(-58.4790555 -34.539039)"
"osm:247898634";"SRID=4326;POINT(-58.4798651 -34.54029)"
"osm:2088088787";"SRID=4326;POINT(-58.4756946 -34.5384567)"
"osm:2090586712";"SRID=4326;POINT(-58.4708574 -34.5364401)"
"osm:245221856";"SRID=4326;POINT(-58.4663808 -34.5388733)"
"osm:2090587077";"SRID=4326;POINT(-58.4758461 -34.5384043)"
"osm:206176529";"SRID=4326;POINT(-58.4663338 -34.5458552)"
"osm:241895841";"SRID=4326;POINT(-58.4694541 -34.5524252)"
"osm:247873909";"SRID=4326;POINT(-58.4677076 -34.5356412)"
"osm:2288713711";"SRID=4326;POINT(-58.463095 -34.5413334)"
"osm:256238236";"SRID=4326;POINT(-58.4825287 -34.5354769)"
"osm:196313933";"SRID=4326;POINT(-58.471052 -34.5412324)"
"osm:247888068";"SRID=4326;POINT(-58.4767082 -34.5387401)"
"osm:2805247108";"SRID=4326;POINT(-58.4504114 -34.5402978)"
"osm:224073885";"SRID=4326;POINT(-58.4624735 -34.5355316)"
"osm:196301217";"SRID=4326;POINT(-58.4582155 -34.5517243)"
"osm:247901255";"SRID=4326;POINT(-58.474611 -34.5378969)"
"osm:256238218";"SRID=4326;POINT(-58.4840763 -34.5355278)"
"osm:2328495894";"SRID=4326;POINT(-58.47543 -34.5371182)"
"osm:2840955404";"SRID=4326;POINT(-58.4561758 -34.547699)"
"osm:256238242";"SRID=4326;POINT(-58.4831617 -34.5368689)"
"osm:2805247260";"SRID=4326;POINT(-58.446293 -34.5434612)"
"usig:445";"SRID=4326;POINT(-58.4705145650825 -34.5419443343222)"
"osm:206175776";"SRID=4326;POINT(-58.4805129 -34.5542374)"
